R46 = 1k
R49 = 10k
Vdd = 3.3V
>17*: 1.5k => Vadc = 3.3/(10+1.5)*10 = 2.86956V
<13*:220k => Vadc = 3.3/(10+220)*10= 0.14349V

Vdd = 5V
>17*: 1.5k => Vadc = 5/(10+1.5)*10 = 4.348V
<13*:220k => Vadc = 5/(10+220)*10= 0.217V
13bits capsense: finger threshold: 1000*80% = 800