===========Generating Bitstream===========
# IOPINS0_0 (count=28)
00000000: 0e 00 00 00 00 00 00 00 00 00 00 00 00 00 00 00
00000010: 00 00 00 00 00 00 00 00 0f 00 00 00
# IOPINS0_1 (count=28)
0000001c: 00 00 00 00 00 00 00 00 00 00 00 00 00 00 00 00
0000002c: 00 00 00 00 00 00 00 00 00 00 00 00
# IOPINS0_2 (count=28)
00000038: 00 00 00 00 00 00 00 00 00 00 00 00 00 00 00 00
00000048: 00 00 00 00 00 00 00 00 00 00 00 00
# IOPINS0_3 (count=28)
00000054: 02 00 00 00 00 00 00 00 30 00 00 00 00 00 00 00
00000064: 00 00 00 00 00 00 00 00 00 00 00 00
# IOPINS0_4 (count=28)
00000070: 00 00 00 00 00 00 00 00 00 00 00 00 00 00 00 00
00000080: 00 00 00 00 00 00 00 00 0c 00 00 00
# CYDEV_CLK_IMO_CONFIG (count=4)
0000008c: 00 00 00 80
# CYDEV_CLK_ILO_CONFIG (count=4)
00000090: 00 00 00 80
# CYDEV_CLK_SELECT (count=4)
00000094: 00 00 00 00
# CYDEV_PERI_PCLK_CTL2 (count=4)
00000098: 40 00 00 00
# TR_GROUP0 (count=8)
0000009c: 00 00 00 00 00 00 00 00
# HSIOM (count=16384)
000000a4: 00 00 00 00 00 00 00 00 00 00 00 00 00 00 00 00
000000b4: 00 00 00 00 00 00 00 00 00 00 00 00 00 00 00 00
000000c4: 00 00 00 00 00 00 00 00 00 00 00 00 00 00 00 00
000000d4: 00 00 00 00 00 00 00 00 00 00 00 00 00 00 00 00
000000e4: 00 00 00 00 00 00 00 00 00 00 00 00 00 00 00 00
000000f4: 00 00 00 00 00 00 00 00 00 00 00 00 00 00 00 00
00000104: 00 00 00 00 00 00 00 00 00 00 00 00 00 00 00 00
00000114: 00 00 00 00 00 00 00 00 00 00 00 00 00 00 00 00
00000124: 00 00 00 00 00 00 00 00 00 00 00 00 00 00 00 00
00000134: 00 00 00 00 00 00 00 00 00 00 00 00 00 00 00 00
00000144: 00 00 00 00 00 00 00 00 00 00 00 00 00 00 00 00
00000154: 00 00 00 00 00 00 00 00 00 00 00 00 00 00 00 00
00000164: 00 00 00 00 00 00 00 00 00 00 00 00 00 00 00 00
00000174: 00 00 00 00 00 00 00 00 00 00 00 00 00 00 00 00
00000184: 00 00 00 00 00 00 00 00 00 00 00 00 00 00 00 00
00000194: 00 00 00 00 00 00 00 00 00 00 00 00 00 00 00 00
000001a4: 00 00 00 00 00 00 00 00 00 00 00 00 00 00 00 00
000001b4: 00 00 00 00 00 00 00 00 00 00 00 00 00 00 00 00
000001c4: 00 00 00 00 00 00 00 00 00 00 00 00 00 00 00 00
000001d4: 00 00 00 00 00 00 00 00 00 00 00 00 00 00 00 00
000001e4: 00 00 00 00 00 00 00 00 00 00 00 00 00 00 00 00
000001f4: 00 00 00 00 00 00 00 00 00 00 00 00 00 00 00 00
00000204: 00 00 00 00 00 00 00 00 00 00 00 00 00 00 00 00
00000214: 00 00 00 00 00 00 00 00 00 00 00 00 00 00 00 00
00000224: 00 00 00 00 00 00 00 00 00 00 00 00 00 00 00 00
00000234: 00 00 00 00 00 00 00 00 00 00 00 00 00 00 00 00
00000244: 00 00 00 00 00 00 00 00 00 00 00 00 00 00 00 00
00000254: 00 00 00 00 00 00 00 00 00 00 00 00 00 00 00 00
00000264: 00 00 00 00 00 00 00 00 00 00 00 00 00 00 00 00
00000274: 00 00 00 00 00 00 00 00 00 00 00 00 00 00 00 00
00000284: 00 00 00 00 00 00 00 00 00 00 00 00 00 00 00 00
00000294: 00 00 00 00 00 00 00 00 00 00 00 00 00 00 00 00
000002a4: 00 00 00 00 00 00 00 00 00 00 00 00 00 00 00 00
000002b4: 00 00 00 00 00 00 00 00 00 00 00 00 00 00 00 00
000002c4: 00 00 00 00 00 00 00 00 00 00 00 00 00 00 00 00
000002d4: 00 00 00 00 00 00 00 00 00 00 00 00 00 00 00 00
000002e4: 00 00 00 00 00 00 00 00 00 00 00 00 00 00 00 00
000002f4: 00 00 00 00 00 00 00 00 00 00 00 00 00 00 00 00
00000304: 00 00 00 00 00 00 00 00 00 00 00 00 00 00 00 00
00000314: 00 00 00 00 00 00 00 00 00 00 00 00 00 00 00 00
00000324: 00 00 00 00 00 00 00 00 00 00 00 00 00 00 00 00
00000334: 00 00 00 00 00 00 00 00 00 00 00 00 00 00 00 00
00000344: 00 00 00 00 00 00 00 00 00 00 00 00 00 00 00 00
00000354: 00 00 00 00 00 00 00 00 00 00 00 00 00 00 00 00
00000364: 00 00 00 00 00 00 00 00 00 00 00 00 00 00 00 00
00000374: 00 00 00 00 00 00 00 00 00 00 00 00 00 00 00 00
00000384: 00 00 00 00 00 00 00 00 00 00 00 00 00 00 00 00
00000394: 00 00 00 00 00 00 00 00 00 00 00 00 00 00 00 00
000003a4: 00 00 00 00 00 00 00 00 00 00 00 00 00 00 00 00
000003b4: 00 00 00 00 00 00 00 00 00 00 00 00 00 00 00 00
000003c4: 00 00 00 00 00 00 00 00 00 00 00 00 00 00 00 00
000003d4: 00 00 00 00 00 00 00 00 00 00 00 00 00 00 00 00
000003e4: 00 00 00 00 00 00 00 00 00 00 00 00 00 00 00 00
000003f4: 00 00 00 00 00 00 00 00 00 00 00 00 00 00 00 00
00000404: 00 00 00 00 00 00 00 00 00 00 00 00 00 00 00 00
00000414: 00 00 00 00 00 00 00 00 00 00 00 00 00 00 00 00
00000424: 00 00 00 00 00 00 00 00 00 00 00 00 00 00 00 00
00000434: 00 00 00 00 00 00 00 00 00 00 00 00 00 00 00 00
00000444: 00 00 00 00 00 00 00 00 00 00 00 00 00 00 00 00
00000454: 00 00 00 00 00 00 00 00 00 00 00 00 00 00 00 00
00000464: 00 00 00 00 00 00 00 00 00 00 00 00 00 00 00 00
00000474: 00 00 00 00 00 00 00 00 00 00 00 00 00 00 00 00
00000484: 00 00 00 00 00 00 00 00 00 00 00 00 00 00 00 00
00000494: 00 00 00 00 00 00 00 00 00 00 00 00 00 00 00 00
000004a4: 00 00 00 00 00 00 00 00 00 00 00 00 00 00 00 00
000004b4: 00 00 00 00 00 00 00 00 00 00 00 00 00 00 00 00
000004c4: 00 00 00 00 00 00 00 00 00 00 00 00 00 00 00 00
000004d4: 00 00 00 00 00 00 00 00 00 00 00 00 00 00 00 00
000004e4: 00 00 00 00 00 00 00 00 00 00 00 00 00 00 00 00
000004f4: 00 00 00 00 00 00 00 00 00 00 00 00 00 00 00 00
00000504: 00 00 00 00 00 00 00 00 00 00 00 00 00 00 00 00
00000514: 00 00 00 00 00 00 00 00 00 00 00 00 00 00 00 00
00000524: 00 00 00 00 00 00 00 00 00 00 00 00 00 00 00 00
00000534: 00 00 00 00 00 00 00 00 00 00 00 00 00 00 00 00
00000544: 00 00 00 00 00 00 00 00 00 00 00 00 00 00 00 00
00000554: 00 00 00 00 00 00 00 00 00 00 00 00 00 00 00 00
00000564: 00 00 00 00 00 00 00 00 00 00 00 00 00 00 00 00
00000574: 00 00 00 00 00 00 00 00 00 00 00 00 00 00 00 00
00000584: 00 00 00 00 00 00 00 00 00 00 00 00 00 00 00 00
00000594: 00 00 00 00 00 00 00 00 00 00 00 00 00 00 00 00
000005a4: 00 00 00 00 00 00 00 00 00 00 00 00 00 00 00 00
000005b4: 00 00 00 00 00 00 00 00 00 00 00 00 00 00 00 00
000005c4: 00 00 00 00 00 00 00 00 00 00 00 00 00 00 00 00
000005d4: 00 00 00 00 00 00 00 00 00 00 00 00 00 00 00 00
000005e4: 00 00 00 00 00 00 00 00 00 00 00 00 00 00 00 00
000005f4: 00 00 00 00 00 00 00 00 00 00 00 00 00 00 00 00
00000604: 00 00 00 00 00 00 00 00 00 00 00 00 00 00 00 00
00000614: 00 00 00 00 00 00 00 00 00 00 00 00 00 00 00 00
00000624: 00 00 00 00 00 00 00 00 00 00 00 00 00 00 00 00
00000634: 00 00 00 00 00 00 00 00 00 00 00 00 00 00 00 00
00000644: 00 00 00 00 00 00 00 00 00 00 00 00 00 00 00 00
00000654: 00 00 00 00 00 00 00 00 00 00 00 00 00 00 00 00
00000664: 00 00 00 00 00 00 00 00 00 00 00 00 00 00 00 00
00000674: 00 00 00 00 00 00 00 00 00 00 00 00 00 00 00 00
00000684: 00 00 00 00 00 00 00 00 00 00 00 00 00 00 00 00
00000694: 00 00 00 00 00 00 00 00 00 00 00 00 00 00 00 00
000006a4: 00 00 00 00 00 00 00 00 00 00 00 00 00 00 00 00
000006b4: 00 00 00 00 00 00 00 00 00 00 00 00 00 00 00 00
000006c4: 00 00 00 00 00 00 00 00 00 00 00 00 00 00 00 00
000006d4: 00 00 00 00 00 00 00 00 00 00 00 00 00 00 00 00
000006e4: 00 00 00 00 00 00 00 00 00 00 00 00 00 00 00 00
000006f4: 00 00 00 00 00 00 00 00 00 00 00 00 00 00 00 00
00000704: 00 00 00 00 00 00 00 00 00 00 00 00 00 00 00 00
00000714: 00 00 00 00 00 00 00 00 00 00 00 00 00 00 00 00
00000724: 00 00 00 00 00 00 00 00 00 00 00 00 00 00 00 00
00000734: 00 00 00 00 00 00 00 00 00 00 00 00 00 00 00 00
00000744: 00 00 00 00 00 00 00 00 00 00 00 00 00 00 00 00
00000754: 00 00 00 00 00 00 00 00 00 00 00 00 00 00 00 00
00000764: 00 00 00 00 00 00 00 00 00 00 00 00 00 00 00 00
00000774: 00 00 00 00 00 00 00 00 00 00 00 00 00 00 00 00
00000784: 00 00 00 00 00 00 00 00 00 00 00 00 00 00 00 00
00000794: 00 00 00 00 00 00 00 00 00 00 00 00 00 00 00 00
000007a4: 00 00 00 00 00 00 00 00 00 00 00 00 00 00 00 00
000007b4: 00 00 00 00 00 00 00 00 00 00 00 00 00 00 00 00
000007c4: 00 00 00 00 00 00 00 00 00 00 00 00 00 00 00 00
000007d4: 00 00 00 00 00 00 00 00 00 00 00 00 00 00 00 00
000007e4: 00 00 00 00 00 00 00 00 00 00 00 00 00 00 00 00
000007f4: 00 00 00 00 00 00 00 00 00 00 00 00 00 00 00 00
00000804: 00 00 00 00 00 00 00 00 00 00 00 00 00 00 00 00
00000814: 00 00 00 00 00 00 00 00 00 00 00 00 00 00 00 00
00000824: 00 00 00 00 00 00 00 00 00 00 00 00 00 00 00 00
00000834: 00 00 00 00 00 00 00 00 00 00 00 00 00 00 00 00
00000844: 00 00 00 00 00 00 00 00 00 00 00 00 00 00 00 00
00000854: 00 00 00 00 00 00 00 00 00 00 00 00 00 00 00 00
00000864: 00 00 00 00 00 00 00 00 00 00 00 00 00 00 00 00
00000874: 00 00 00 00 00 00 00 00 00 00 00 00 00 00 00 00
00000884: 00 00 00 00 00 00 00 00 00 00 00 00 00 00 00 00
00000894: 00 00 00 00 00 00 00 00 00 00 00 00 00 00 00 00
000008a4: 00 00 00 00 00 00 00 00 00 00 00 00 00 00 00 00
000008b4: 00 00 00 00 00 00 00 00 00 00 00 00 00 00 00 00
000008c4: 00 00 00 00 00 00 00 00 00 00 00 00 00 00 00 00
000008d4: 00 00 00 00 00 00 00 00 00 00 00 00 00 00 00 00
000008e4: 00 00 00 00 00 00 00 00 00 00 00 00 00 00 00 00
000008f4: 00 00 00 00 00 00 00 00 00 00 00 00 00 00 00 00
00000904: 00 00 00 00 00 00 00 00 00 00 00 00 00 00 00 00
00000914: 00 00 00 00 00 00 00 00 00 00 00 00 00 00 00 00
00000924: 00 00 00 00 00 00 00 00 00 00 00 00 00 00 00 00
00000934: 00 00 00 00 00 00 00 00 00 00 00 00 00 00 00 00
00000944: 00 00 00 00 00 00 00 00 00 00 00 00 00 00 00 00
00000954: 00 00 00 00 00 00 00 00 00 00 00 00 00 00 00 00
00000964: 00 00 00 00 00 00 00 00 00 00 00 00 00 00 00 00
00000974: 00 00 00 00 00 00 00 00 00 00 00 00 00 00 00 00
00000984: 00 00 00 00 00 00 00 00 00 00 00 00 00 00 00 00
00000994: 00 00 00 00 00 00 00 00 00 00 00 00 00 00 00 00
000009a4: 00 00 00 00 00 00 00 00 00 00 00 00 00 00 00 00
000009b4: 00 00 00 00 00 00 00 00 00 00 00 00 00 00 00 00
000009c4: 00 00 00 00 00 00 00 00 00 00 00 00 00 00 00 00
000009d4: 00 00 00 00 00 00 00 00 00 00 00 00 00 00 00 00
000009e4: 00 00 00 00 00 00 00 00 00 00 00 00 00 00 00 00
000009f4: 00 00 00 00 00 00 00 00 00 00 00 00 00 00 00 00
00000a04: 00 00 00 00 00 00 00 00 00 00 00 00 00 00 00 00
00000a14: 00 00 00 00 00 00 00 00 00 00 00 00 00 00 00 00
00000a24: 00 00 00 00 00 00 00 00 00 00 00 00 00 00 00 00
00000a34: 00 00 00 00 00 00 00 00 00 00 00 00 00 00 00 00
00000a44: 00 00 00 00 00 00 00 00 00 00 00 00 00 00 00 00
00000a54: 00 00 00 00 00 00 00 00 00 00 00 00 00 00 00 00
00000a64: 00 00 00 00 00 00 00 00 00 00 00 00 00 00 00 00
00000a74: 00 00 00 00 00 00 00 00 00 00 00 00 00 00 00 00
00000a84: 00 00 00 00 00 00 00 00 00 00 00 00 00 00 00 00
00000a94: 00 00 00 00 00 00 00 00 00 00 00 00 00 00 00 00
00000aa4: 00 00 00 00 00 00 00 00 00 00 00 00 00 00 00 00
00000ab4: 00 00 00 00 00 00 00 00 00 00 00 00 00 00 00 00
00000ac4: 00 00 00 00 00 00 00 00 00 00 00 00 00 00 00 00
00000ad4: 00 00 00 00 00 00 00 00 00 00 00 00 00 00 00 00
00000ae4: 00 00 00 00 00 00 00 00 00 00 00 00 00 00 00 00
00000af4: 00 00 00 00 00 00 00 00 00 00 00 00 00 00 00 00
00000b04: 00 00 00 00 00 00 00 00 00 00 00 00 00 00 00 00
00000b14: 00 00 00 00 00 00 00 00 00 00 00 00 00 00 00 00
00000b24: 00 00 00 00 00 00 00 00 00 00 00 00 00 00 00 00
00000b34: 00 00 00 00 00 00 00 00 00 00 00 00 00 00 00 00
00000b44: 00 00 00 00 00 00 00 00 00 00 00 00 00 00 00 00
00000b54: 00 00 00 00 00 00 00 00 00 00 00 00 00 00 00 00
00000b64: 00 00 00 00 00 00 00 00 00 00 00 00 00 00 00 00
00000b74: 00 00 00 00 00 00 00 00 00 00 00 00 00 00 00 00
00000b84: 00 00 00 00 00 00 00 00 00 00 00 00 00 00 00 00
00000b94: 00 00 00 00 00 00 00 00 00 00 00 00 00 00 00 00
00000ba4: 00 00 00 00 00 00 00 00 00 00 00 00 00 00 00 00
00000bb4: 00 00 00 00 00 00 00 00 00 00 00 00 00 00 00 00
00000bc4: 00 00 00 00 00 00 00 00 00 00 00 00 00 00 00 00
00000bd4: 00 00 00 00 00 00 00 00 00 00 00 00 00 00 00 00
00000be4: 00 00 00 00 00 00 00 00 00 00 00 00 00 00 00 00
00000bf4: 00 00 00 00 00 00 00 00 00 00 00 00 00 00 00 00
00000c04: 00 00 00 00 00 00 00 00 00 00 00 00 00 00 00 00
00000c14: 00 00 00 00 00 00 00 00 00 00 00 00 00 00 00 00
00000c24: 00 00 00 00 00 00 00 00 00 00 00 00 00 00 00 00
00000c34: 00 00 00 00 00 00 00 00 00 00 00 00 00 00 00 00
00000c44: 00 00 00 00 00 00 00 00 00 00 00 00 00 00 00 00
00000c54: 00 00 00 00 00 00 00 00 00 00 00 00 00 00 00 00
00000c64: 00 00 00 00 00 00 00 00 00 00 00 00 00 00 00 00
00000c74: 00 00 00 00 00 00 00 00 00 00 00 00 00 00 00 00
00000c84: 00 00 00 00 00 00 00 00 00 00 00 00 00 00 00 00
00000c94: 00 00 00 00 00 00 00 00 00 00 00 00 00 00 00 00
00000ca4: 00 00 00 00 00 00 00 00 00 00 00 00 00 00 00 00
00000cb4: 00 00 00 00 00 00 00 00 00 00 00 00 00 00 00 00
00000cc4: 00 00 00 00 00 00 00 00 00 00 00 00 00 00 00 00
00000cd4: 00 00 00 00 00 00 00 00 00 00 00 00 00 00 00 00
00000ce4: 00 00 00 00 00 00 00 00 00 00 00 00 00 00 00 00
00000cf4: 00 00 00 00 00 00 00 00 00 00 00 00 00 00 00 00
00000d04: 00 00 00 00 00 00 00 00 00 00 00 00 00 00 00 00
00000d14: 00 00 00 00 00 00 00 00 00 00 00 00 00 00 00 00
00000d24: 00 00 00 00 00 00 00 00 00 00 00 00 00 00 00 00
00000d34: 00 00 00 00 00 00 00 00 00 00 00 00 00 00 00 00
00000d44: 00 00 00 00 00 00 00 00 00 00 00 00 00 00 00 00
00000d54: 00 00 00 00 00 00 00 00 00 00 00 00 00 00 00 00
00000d64: 00 00 00 00 00 00 00 00 00 00 00 00 00 00 00 00
00000d74: 00 00 00 00 00 00 00 00 00 00 00 00 00 00 00 00
00000d84: 00 00 00 00 00 00 00 00 00 00 00 00 00 00 00 00
00000d94: 00 00 00 00 00 00 00 00 00 00 00 00 00 00 00 00
00000da4: 00 00 00 00 00 00 00 00 00 00 00 00 00 00 00 00
00000db4: 00 00 00 00 00 00 00 00 00 00 00 00 00 00 00 00
00000dc4: 00 00 00 00 00 00 00 00 00 00 00 00 00 00 00 00
00000dd4: 00 00 00 00 00 00 00 00 00 00 00 00 00 00 00 00
00000de4: 00 00 00 00 00 00 00 00 00 00 00 00 00 00 00 00
00000df4: 00 00 00 00 00 00 00 00 00 00 00 00 00 00 00 00
00000e04: 00 00 00 00 00 00 00 00 00 00 00 00 00 00 00 00
00000e14: 00 00 00 00 00 00 00 00 00 00 00 00 00 00 00 00
00000e24: 00 00 00 00 00 00 00 00 00 00 00 00 00 00 00 00
00000e34: 00 00 00 00 00 00 00 00 00 00 00 00 00 00 00 00
00000e44: 00 00 00 00 00 00 00 00 00 00 00 00 00 00 00 00
00000e54: 00 00 00 00 00 00 00 00 00 00 00 00 00 00 00 00
00000e64: 00 00 00 00 00 00 00 00 00 00 00 00 00 00 00 00
00000e74: 00 00 00 00 00 00 00 00 00 00 00 00 00 00 00 00
00000e84: 00 00 00 00 00 00 00 00 00 00 00 00 00 00 00 00
00000e94: 00 00 00 00 00 00 00 00 00 00 00 00 00 00 00 00
00000ea4: 00 00 00 00 00 00 00 00 00 00 00 00 00 00 00 00
00000eb4: 00 00 00 00 00 00 00 00 00 00 00 00 00 00 00 00
00000ec4: 00 00 00 00 00 00 00 00 00 00 00 00 00 00 00 00
00000ed4: 00 00 00 00 00 00 00 00 00 00 00 00 00 00 00 00
00000ee4: 00 00 00 00 00 00 00 00 00 00 00 00 00 00 00 00
00000ef4: 00 00 00 00 00 00 00 00 00 00 00 00 00 00 00 00
00000f04: 00 00 00 00 00 00 00 00 00 00 00 00 00 00 00 00
00000f14: 00 00 00 00 00 00 00 00 00 00 00 00 00 00 00 00
00000f24: 00 00 00 00 00 00 00 00 00 00 00 00 00 00 00 00
00000f34: 00 00 00 00 00 00 00 00 00 00 00 00 00 00 00 00
00000f44: 00 00 00 00 00 00 00 00 00 00 00 00 00 00 00 00
00000f54: 00 00 00 00 00 00 00 00 00 00 00 00 00 00 00 00
00000f64: 00 00 00 00 00 00 00 00 00 00 00 00 00 00 00 00
00000f74: 00 00 00 00 00 00 00 00 00 00 00 00 00 00 00 00
00000f84: 00 00 00 00 00 00 00 00 00 00 00 00 00 00 00 00
00000f94: 00 00 00 00 00 00 00 00 00 00 00 00 00 00 00 00
00000fa4: 00 00 00 00 00 00 00 00 00 00 00 00 00 00 00 00
00000fb4: 00 00 00 00 00 00 00 00 00 00 00 00 00 00 00 00
00000fc4: 00 00 00 00 00 00 00 00 00 00 00 00 00 00 00 00
00000fd4: 00 00 00 00 00 00 00 00 00 00 00 00 00 00 00 00
00000fe4: 00 00 00 00 00 00 00 00 00 00 00 00 00 00 00 00
00000ff4: 00 00 00 00 00 00 00 00 00 00 00 00 00 00 00 00
00001004: 00 00 00 00 00 00 00 00 00 00 00 00 00 00 00 00
00001014: 00 00 00 00 00 00 00 00 00 00 00 00 00 00 00 00
00001024: 00 00 00 00 00 00 00 00 00 00 00 00 00 00 00 00
00001034: 00 00 00 00 00 00 00 00 00 00 00 00 00 00 00 00
00001044: 00 00 00 00 00 00 00 00 00 00 00 00 00 00 00 00
00001054: 00 00 00 00 00 00 00 00 00 00 00 00 00 00 00 00
00001064: 00 00 00 00 00 00 00 00 00 00 00 00 00 00 00 00
00001074: 00 00 00 00 00 00 00 00 00 00 00 00 00 00 00 00
00001084: 00 00 00 00 00 00 00 00 00 00 00 00 00 00 00 00
00001094: 00 00 00 00 00 00 00 00 00 00 00 00 00 00 00 00
000010a4: 00 00 00 00 00 00 00 00 00 00 00 00 00 00 00 00
000010b4: 00 00 00 00 00 00 00 00 00 00 00 00 00 00 00 00
000010c4: 00 00 00 00 00 00 00 00 00 00 00 00 00 00 00 00
000010d4: 00 00 00 00 00 00 00 00 00 00 00 00 00 00 00 00
000010e4: 00 00 00 00 00 00 00 00 00 00 00 00 00 00 00 00
000010f4: 00 00 00 00 00 00 00 00 00 00 00 00 00 00 00 00
00001104: 00 00 00 00 00 00 00 00 00 00 00 00 00 00 00 00
00001114: 00 00 00 00 00 00 00 00 00 00 00 00 00 00 00 00
00001124: 00 00 00 00 00 00 00 00 00 00 00 00 00 00 00 00
00001134: 00 00 00 00 00 00 00 00 00 00 00 00 00 00 00 00
00001144: 00 00 00 00 00 00 00 00 00 00 00 00 00 00 00 00
00001154: 00 00 00 00 00 00 00 00 00 00 00 00 00 00 00 00
00001164: 00 00 00 00 00 00 00 00 00 00 00 00 00 00 00 00
00001174: 00 00 00 00 00 00 00 00 00 00 00 00 00 00 00 00
00001184: 00 00 00 00 00 00 00 00 00 00 00 00 00 00 00 00
00001194: 00 00 00 00 00 00 00 00 00 00 00 00 00 00 00 00
000011a4: 00 00 00 00 00 00 00 00 00 00 00 00 00 00 00 00
000011b4: 00 00 00 00 00 00 00 00 00 00 00 00 00 00 00 00
000011c4: 00 00 00 00 00 00 00 00 00 00 00 00 00 00 00 00
000011d4: 00 00 00 00 00 00 00 00 00 00 00 00 00 00 00 00
000011e4: 00 00 00 00 00 00 00 00 00 00 00 00 00 00 00 00
000011f4: 00 00 00 00 00 00 00 00 00 00 00 00 00 00 00 00
00001204: 00 00 00 00 00 00 00 00 00 00 00 00 00 00 00 00
00001214: 00 00 00 00 00 00 00 00 00 00 00 00 00 00 00 00
00001224: 00 00 00 00 00 00 00 00 00 00 00 00 00 00 00 00
00001234: 00 00 00 00 00 00 00 00 00 00 00 00 00 00 00 00
00001244: 00 00 00 00 00 00 00 00 00 00 00 00 00 00 00 00
00001254: 00 00 00 00 00 00 00 00 00 00 00 00 00 00 00 00
00001264: 00 00 00 00 00 00 00 00 00 00 00 00 00 00 00 00
00001274: 00 00 00 00 00 00 00 00 00 00 00 00 00 00 00 00
00001284: 00 00 00 00 00 00 00 00 00 00 00 00 00 00 00 00
00001294: 00 00 00 00 00 00 00 00 00 00 00 00 00 00 00 00
000012a4: 00 00 00 00 00 00 00 00 00 00 00 00 00 00 00 00
000012b4: 00 00 00 00 00 00 00 00 00 00 00 00 00 00 00 00
000012c4: 00 00 00 00 00 00 00 00 00 00 00 00 00 00 00 00
000012d4: 00 00 00 00 00 00 00 00 00 00 00 00 00 00 00 00
000012e4: 00 00 00 00 00 00 00 00 00 00 00 00 00 00 00 00
000012f4: 00 00 00 00 00 00 00 00 00 00 00 00 00 00 00 00
00001304: 00 00 00 00 00 00 00 00 00 00 00 00 00 00 00 00
00001314: 00 00 00 00 00 00 00 00 00 00 00 00 00 00 00 00
00001324: 00 00 00 00 00 00 00 00 00 00 00 00 00 00 00 00
00001334: 00 00 00 00 00 00 00 00 00 00 00 00 00 00 00 00
00001344: 00 00 00 00 00 00 00 00 00 00 00 00 00 00 00 00
00001354: 00 00 00 00 00 00 00 00 00 00 00 00 00 00 00 00
00001364: 00 00 00 00 00 00 00 00 00 00 00 00 00 00 00 00
00001374: 00 00 00 00 00 00 00 00 00 00 00 00 00 00 00 00
00001384: 00 00 00 00 00 00 00 00 00 00 00 00 00 00 00 00
00001394: 00 00 00 00 00 00 00 00 00 00 00 00 00 00 00 00
000013a4: 00 00 00 00 00 00 00 00 00 00 00 00 00 00 00 00
000013b4: 00 00 00 00 00 00 00 00 00 00 00 00 00 00 00 00
000013c4: 00 00 00 00 00 00 00 00 00 00 00 00 00 00 00 00
000013d4: 00 00 00 00 00 00 00 00 00 00 00 00 00 00 00 00
000013e4: 00 00 00 00 00 00 00 00 00 00 00 00 00 00 00 00
000013f4: 00 00 00 00 00 00 00 00 00 00 00 00 00 00 00 00
00001404: 00 00 00 00 00 00 00 00 00 00 00 00 00 00 00 00
00001414: 00 00 00 00 00 00 00 00 00 00 00 00 00 00 00 00
00001424: 00 00 00 00 00 00 00 00 00 00 00 00 00 00 00 00
00001434: 00 00 00 00 00 00 00 00 00 00 00 00 00 00 00 00
00001444: 00 00 00 00 00 00 00 00 00 00 00 00 00 00 00 00
00001454: 00 00 00 00 00 00 00 00 00 00 00 00 00 00 00 00
00001464: 00 00 00 00 00 00 00 00 00 00 00 00 00 00 00 00
00001474: 00 00 00 00 00 00 00 00 00 00 00 00 00 00 00 00
00001484: 00 00 00 00 00 00 00 00 00 00 00 00 00 00 00 00
00001494: 00 00 00 00 00 00 00 00 00 00 00 00 00 00 00 00
000014a4: 00 00 00 00 00 00 00 00 00 00 00 00 00 00 00 00
000014b4: 00 00 00 00 00 00 00 00 00 00 00 00 00 00 00 00
000014c4: 00 00 00 00 00 00 00 00 00 00 00 00 00 00 00 00
000014d4: 00 00 00 00 00 00 00 00 00 00 00 00 00 00 00 00
000014e4: 00 00 00 00 00 00 00 00 00 00 00 00 00 00 00 00
000014f4: 00 00 00 00 00 00 00 00 00 00 00 00 00 00 00 00
00001504: 00 00 00 00 00 00 00 00 00 00 00 00 00 00 00 00
00001514: 00 00 00 00 00 00 00 00 00 00 00 00 00 00 00 00
00001524: 00 00 00 00 00 00 00 00 00 00 00 00 00 00 00 00
00001534: 00 00 00 00 00 00 00 00 00 00 00 00 00 00 00 00
00001544: 00 00 00 00 00 00 00 00 00 00 00 00 00 00 00 00
00001554: 00 00 00 00 00 00 00 00 00 00 00 00 00 00 00 00
00001564: 00 00 00 00 00 00 00 00 00 00 00 00 00 00 00 00
00001574: 00 00 00 00 00 00 00 00 00 00 00 00 00 00 00 00
00001584: 00 00 00 00 00 00 00 00 00 00 00 00 00 00 00 00
00001594: 00 00 00 00 00 00 00 00 00 00 00 00 00 00 00 00
000015a4: 00 00 00 00 00 00 00 00 00 00 00 00 00 00 00 00
000015b4: 00 00 00 00 00 00 00 00 00 00 00 00 00 00 00 00
000015c4: 00 00 00 00 00 00 00 00 00 00 00 00 00 00 00 00
000015d4: 00 00 00 00 00 00 00 00 00 00 00 00 00 00 00 00
000015e4: 00 00 00 00 00 00 00 00 00 00 00 00 00 00 00 00
000015f4: 00 00 00 00 00 00 00 00 00 00 00 00 00 00 00 00
00001604: 00 00 00 00 00 00 00 00 00 00 00 00 00 00 00 00
00001614: 00 00 00 00 00 00 00 00 00 00 00 00 00 00 00 00
00001624: 00 00 00 00 00 00 00 00 00 00 00 00 00 00 00 00
00001634: 00 00 00 00 00 00 00 00 00 00 00 00 00 00 00 00
00001644: 00 00 00 00 00 00 00 00 00 00 00 00 00 00 00 00
00001654: 00 00 00 00 00 00 00 00 00 00 00 00 00 00 00 00
00001664: 00 00 00 00 00 00 00 00 00 00 00 00 00 00 00 00
00001674: 00 00 00 00 00 00 00 00 00 00 00 00 00 00 00 00
00001684: 00 00 00 00 00 00 00 00 00 00 00 00 00 00 00 00
00001694: 00 00 00 00 00 00 00 00 00 00 00 00 00 00 00 00
000016a4: 00 00 00 00 00 00 00 00 00 00 00 00 00 00 00 00
000016b4: 00 00 00 00 00 00 00 00 00 00 00 00 00 00 00 00
000016c4: 00 00 00 00 00 00 00 00 00 00 00 00 00 00 00 00
000016d4: 00 00 00 00 00 00 00 00 00 00 00 00 00 00 00 00
000016e4: 00 00 00 00 00 00 00 00 00 00 00 00 00 00 00 00
000016f4: 00 00 00 00 00 00 00 00 00 00 00 00 00 00 00 00
00001704: 00 00 00 00 00 00 00 00 00 00 00 00 00 00 00 00
00001714: 00 00 00 00 00 00 00 00 00 00 00 00 00 00 00 00
00001724: 00 00 00 00 00 00 00 00 00 00 00 00 00 00 00 00
00001734: 00 00 00 00 00 00 00 00 00 00 00 00 00 00 00 00
00001744: 00 00 00 00 00 00 00 00 00 00 00 00 00 00 00 00
00001754: 00 00 00 00 00 00 00 00 00 00 00 00 00 00 00 00
00001764: 00 00 00 00 00 00 00 00 00 00 00 00 00 00 00 00
00001774: 00 00 00 00 00 00 00 00 00 00 00 00 00 00 00 00
00001784: 00 00 00 00 00 00 00 00 00 00 00 00 00 00 00 00
00001794: 00 00 00 00 00 00 00 00 00 00 00 00 00 00 00 00
000017a4: 00 00 00 00 00 00 00 00 00 00 00 00 00 00 00 00
000017b4: 00 00 00 00 00 00 00 00 00 00 00 00 00 00 00 00
000017c4: 00 00 00 00 00 00 00 00 00 00 00 00 00 00 00 00
000017d4: 00 00 00 00 00 00 00 00 00 00 00 00 00 00 00 00
000017e4: 00 00 00 00 00 00 00 00 00 00 00 00 00 00 00 00
000017f4: 00 00 00 00 00 00 00 00 00 00 00 00 00 00 00 00
00001804: 00 00 00 00 00 00 00 00 00 00 00 00 00 00 00 00
00001814: 00 00 00 00 00 00 00 00 00 00 00 00 00 00 00 00
00001824: 00 00 00 00 00 00 00 00 00 00 00 00 00 00 00 00
00001834: 00 00 00 00 00 00 00 00 00 00 00 00 00 00 00 00
00001844: 00 00 00 00 00 00 00 00 00 00 00 00 00 00 00 00
00001854: 00 00 00 00 00 00 00 00 00 00 00 00 00 00 00 00
00001864: 00 00 00 00 00 00 00 00 00 00 00 00 00 00 00 00
00001874: 00 00 00 00 00 00 00 00 00 00 00 00 00 00 00 00
00001884: 00 00 00 00 00 00 00 00 00 00 00 00 00 00 00 00
00001894: 00 00 00 00 00 00 00 00 00 00 00 00 00 00 00 00
000018a4: 00 00 00 00 00 00 00 00 00 00 00 00 00 00 00 00
000018b4: 00 00 00 00 00 00 00 00 00 00 00 00 00 00 00 00
000018c4: 00 00 00 00 00 00 00 00 00 00 00 00 00 00 00 00
000018d4: 00 00 00 00 00 00 00 00 00 00 00 00 00 00 00 00
000018e4: 00 00 00 00 00 00 00 00 00 00 00 00 00 00 00 00
000018f4: 00 00 00 00 00 00 00 00 00 00 00 00 00 00 00 00
00001904: 00 00 00 00 00 00 00 00 00 00 00 00 00 00 00 00
00001914: 00 00 00 00 00 00 00 00 00 00 00 00 00 00 00 00
00001924: 00 00 00 00 00 00 00 00 00 00 00 00 00 00 00 00
00001934: 00 00 00 00 00 00 00 00 00 00 00 00 00 00 00 00
00001944: 00 00 00 00 00 00 00 00 00 00 00 00 00 00 00 00
00001954: 00 00 00 00 00 00 00 00 00 00 00 00 00 00 00 00
00001964: 00 00 00 00 00 00 00 00 00 00 00 00 00 00 00 00
00001974: 00 00 00 00 00 00 00 00 00 00 00 00 00 00 00 00
00001984: 00 00 00 00 00 00 00 00 00 00 00 00 00 00 00 00
00001994: 00 00 00 00 00 00 00 00 00 00 00 00 00 00 00 00
000019a4: 00 00 00 00 00 00 00 00 00 00 00 00 00 00 00 00
000019b4: 00 00 00 00 00 00 00 00 00 00 00 00 00 00 00 00
000019c4: 00 00 00 00 00 00 00 00 00 00 00 00 00 00 00 00
000019d4: 00 00 00 00 00 00 00 00 00 00 00 00 00 00 00 00
000019e4: 00 00 00 00 00 00 00 00 00 00 00 00 00 00 00 00
000019f4: 00 00 00 00 00 00 00 00 00 00 00 00 00 00 00 00
00001a04: 00 00 00 00 00 00 00 00 00 00 00 00 00 00 00 00
00001a14: 00 00 00 00 00 00 00 00 00 00 00 00 00 00 00 00
00001a24: 00 00 00 00 00 00 00 00 00 00 00 00 00 00 00 00
00001a34: 00 00 00 00 00 00 00 00 00 00 00 00 00 00 00 00
00001a44: 00 00 00 00 00 00 00 00 00 00 00 00 00 00 00 00
00001a54: 00 00 00 00 00 00 00 00 00 00 00 00 00 00 00 00
00001a64: 00 00 00 00 00 00 00 00 00 00 00 00 00 00 00 00
00001a74: 00 00 00 00 00 00 00 00 00 00 00 00 00 00 00 00
00001a84: 00 00 00 00 00 00 00 00 00 00 00 00 00 00 00 00
00001a94: 00 00 00 00 00 00 00 00 00 00 00 00 00 00 00 00
00001aa4: 00 00 00 00 00 00 00 00 00 00 00 00 00 00 00 00
00001ab4: 00 00 00 00 00 00 00 00 00 00 00 00 00 00 00 00
00001ac4: 00 00 00 00 00 00 00 00 00 00 00 00 00 00 00 00
00001ad4: 00 00 00 00 00 00 00 00 00 00 00 00 00 00 00 00
00001ae4: 00 00 00 00 00 00 00 00 00 00 00 00 00 00 00 00
00001af4: 00 00 00 00 00 00 00 00 00 00 00 00 00 00 00 00
00001b04: 00 00 00 00 00 00 00 00 00 00 00 00 00 00 00 00
00001b14: 00 00 00 00 00 00 00 00 00 00 00 00 00 00 00 00
00001b24: 00 00 00 00 00 00 00 00 00 00 00 00 00 00 00 00
00001b34: 00 00 00 00 00 00 00 00 00 00 00 00 00 00 00 00
00001b44: 00 00 00 00 00 00 00 00 00 00 00 00 00 00 00 00
00001b54: 00 00 00 00 00 00 00 00 00 00 00 00 00 00 00 00
00001b64: 00 00 00 00 00 00 00 00 00 00 00 00 00 00 00 00
00001b74: 00 00 00 00 00 00 00 00 00 00 00 00 00 00 00 00
00001b84: 00 00 00 00 00 00 00 00 00 00 00 00 00 00 00 00
00001b94: 00 00 00 00 00 00 00 00 00 00 00 00 00 00 00 00
00001ba4: 00 00 00 00 00 00 00 00 00 00 00 00 00 00 00 00
00001bb4: 00 00 00 00 00 00 00 00 00 00 00 00 00 00 00 00
00001bc4: 00 00 00 00 00 00 00 00 00 00 00 00 00 00 00 00
00001bd4: 00 00 00 00 00 00 00 00 00 00 00 00 00 00 00 00
00001be4: 00 00 00 00 00 00 00 00 00 00 00 00 00 00 00 00
00001bf4: 00 00 00 00 00 00 00 00 00 00 00 00 00 00 00 00
00001c04: 00 00 00 00 00 00 00 00 00 00 00 00 00 00 00 00
00001c14: 00 00 00 00 00 00 00 00 00 00 00 00 00 00 00 00
00001c24: 00 00 00 00 00 00 00 00 00 00 00 00 00 00 00 00
00001c34: 00 00 00 00 00 00 00 00 00 00 00 00 00 00 00 00
00001c44: 00 00 00 00 00 00 00 00 00 00 00 00 00 00 00 00
00001c54: 00 00 00 00 00 00 00 00 00 00 00 00 00 00 00 00
00001c64: 00 00 00 00 00 00 00 00 00 00 00 00 00 00 00 00
00001c74: 00 00 00 00 00 00 00 00 00 00 00 00 00 00 00 00
00001c84: 00 00 00 00 00 00 00 00 00 00 00 00 00 00 00 00
00001c94: 00 00 00 00 00 00 00 00 00 00 00 00 00 00 00 00
00001ca4: 00 00 00 00 00 00 00 00 00 00 00 00 00 00 00 00
00001cb4: 00 00 00 00 00 00 00 00 00 00 00 00 00 00 00 00
00001cc4: 00 00 00 00 00 00 00 00 00 00 00 00 00 00 00 00
00001cd4: 00 00 00 00 00 00 00 00 00 00 00 00 00 00 00 00
00001ce4: 00 00 00 00 00 00 00 00 00 00 00 00 00 00 00 00
00001cf4: 00 00 00 00 00 00 00 00 00 00 00 00 00 00 00 00
00001d04: 00 00 00 00 00 00 00 00 00 00 00 00 00 00 00 00
00001d14: 00 00 00 00 00 00 00 00 00 00 00 00 00 00 00 00
00001d24: 00 00 00 00 00 00 00 00 00 00 00 00 00 00 00 00
00001d34: 00 00 00 00 00 00 00 00 00 00 00 00 00 00 00 00
00001d44: 00 00 00 00 00 00 00 00 00 00 00 00 00 00 00 00
00001d54: 00 00 00 00 00 00 00 00 00 00 00 00 00 00 00 00
00001d64: 00 00 00 00 00 00 00 00 00 00 00 00 00 00 00 00
00001d74: 00 00 00 00 00 00 00 00 00 00 00 00 00 00 00 00
00001d84: 00 00 00 00 00 00 00 00 00 00 00 00 00 00 00 00
00001d94: 00 00 00 00 00 00 00 00 00 00 00 00 00 00 00 00
00001da4: 00 00 00 00 00 00 00 00 00 00 00 00 00 00 00 00
00001db4: 00 00 00 00 00 00 00 00 00 00 00 00 00 00 00 00
00001dc4: 00 00 00 00 00 00 00 00 00 00 00 00 00 00 00 00
00001dd4: 00 00 00 00 00 00 00 00 00 00 00 00 00 00 00 00
00001de4: 00 00 00 00 00 00 00 00 00 00 00 00 00 00 00 00
00001df4: 00 00 00 00 00 00 00 00 00 00 00 00 00 00 00 00
00001e04: 00 00 00 00 00 00 00 00 00 00 00 00 00 00 00 00
00001e14: 00 00 00 00 00 00 00 00 00 00 00 00 00 00 00 00
00001e24: 00 00 00 00 00 00 00 00 00 00 00 00 00 00 00 00
00001e34: 00 00 00 00 00 00 00 00 00 00 00 00 00 00 00 00
00001e44: 00 00 00 00 00 00 00 00 00 00 00 00 00 00 00 00
00001e54: 00 00 00 00 00 00 00 00 00 00 00 00 00 00 00 00
00001e64: 00 00 00 00 00 00 00 00 00 00 00 00 00 00 00 00
00001e74: 00 00 00 00 00 00 00 00 00 00 00 00 00 00 00 00
00001e84: 00 00 00 00 00 00 00 00 00 00 00 00 00 00 00 00
00001e94: 00 00 00 00 00 00 00 00 00 00 00 00 00 00 00 00
00001ea4: 00 00 00 00 00 00 00 00 00 00 00 00 00 00 00 00
00001eb4: 00 00 00 00 00 00 00 00 00 00 00 00 00 00 00 00
00001ec4: 00 00 00 00 00 00 00 00 00 00 00 00 00 00 00 00
00001ed4: 00 00 00 00 00 00 00 00 00 00 00 00 00 00 00 00
00001ee4: 00 00 00 00 00 00 00 00 00 00 00 00 00 00 00 00
00001ef4: 00 00 00 00 00 00 00 00 00 00 00 00 00 00 00 00
00001f04: 00 00 00 00 00 00 00 00 00 00 00 00 00 00 00 00
00001f14: 00 00 00 00 00 00 00 00 00 00 00 00 00 00 00 00
00001f24: 00 00 00 00 00 00 00 00 00 00 00 00 00 00 00 00
00001f34: 00 00 00 00 00 00 00 00 00 00 00 00 00 00 00 00
00001f44: 00 00 00 00 00 00 00 00 00 00 00 00 00 00 00 00
00001f54: 00 00 00 00 00 00 00 00 00 00 00 00 00 00 00 00
00001f64: 00 00 00 00 00 00 00 00 00 00 00 00 00 00 00 00
00001f74: 00 00 00 00 00 00 00 00 00 00 00 00 00 00 00 00
00001f84: 00 00 00 00 00 00 00 00 00 00 00 00 00 00 00 00
00001f94: 00 00 00 00 00 00 00 00 00 00 00 00 00 00 00 00
00001fa4: 00 00 00 00 00 00 00 00 00 00 00 00 00 00 00 00
00001fb4: 00 00 00 00 00 00 00 00 00 00 00 00 00 00 00 00
00001fc4: 00 00 00 00 00 00 00 00 00 00 00 00 00 00 00 00
00001fd4: 00 00 00 00 00 00 00 00 00 00 00 00 00 00 00 00
00001fe4: 00 00 00 00 00 00 00 00 00 00 00 00 00 00 00 00
00001ff4: 00 00 00 00 00 00 00 00 00 00 00 00 00 00 00 00
00002004: 00 00 00 00 00 00 00 00 00 00 00 00 00 00 00 00
00002014: 00 00 00 00 00 00 00 00 00 00 00 00 00 00 00 00
00002024: 00 00 00 00 00 00 00 00 00 00 00 00 00 00 00 00
00002034: 00 00 00 00 00 00 00 00 00 00 00 00 00 00 00 00
00002044: 00 00 00 00 00 00 00 00 00 00 00 00 00 00 00 00
00002054: 00 00 00 00 00 00 00 00 00 00 00 00 00 00 00 00
00002064: 00 00 00 00 00 00 00 00 00 00 00 00 00 00 00 00
00002074: 00 00 00 00 00 00 00 00 00 00 00 00 00 00 00 00
00002084: 00 00 00 00 00 00 00 00 00 00 00 00 00 00 00 00
00002094: 00 00 00 00 00 00 00 00 00 00 00 00 00 00 00 00
000020a4: 00 00 00 00 00 00 00 00 00 00 00 00 00 00 00 00
000020b4: 00 00 00 00 00 00 00 00 00 00 00 00 00 00 00 00
000020c4: 00 00 00 00 00 00 00 00 00 00 00 00 00 00 00 00
000020d4: 00 00 00 00 00 00 00 00 00 00 00 00 00 00 00 00
000020e4: 00 00 00 00 00 00 00 00 00 00 00 00 00 00 00 00
000020f4: 00 00 00 00 00 00 00 00 00 00 00 00 00 00 00 00
00002104: 00 00 00 00 00 00 00 00 00 00 00 00 00 00 00 00
00002114: 00 00 00 00 00 00 00 00 00 00 00 00 00 00 00 00
00002124: 00 00 00 00 00 00 00 00 00 00 00 00 00 00 00 00
00002134: 00 00 00 00 00 00 00 00 00 00 00 00 00 00 00 00
00002144: 00 00 00 00 00 00 00 00 00 00 00 00 00 00 00 00
00002154: 00 00 00 00 00 00 00 00 00 00 00 00 00 00 00 00
00002164: 00 00 00 00 00 00 00 00 00 00 00 00 00 00 00 00
00002174: 00 00 00 00 00 00 00 00 00 00 00 00 00 00 00 00
00002184: 00 00 00 00 00 00 00 00 00 00 00 00 00 00 00 00
00002194: 00 00 00 00 00 00 00 00 00 00 00 00 00 00 00 00
000021a4: 00 00 00 00 00 00 00 00 00 00 00 00 00 00 00 00
000021b4: 00 00 00 00 00 00 00 00 00 00 00 00 00 00 00 00
000021c4: 00 00 00 00 00 00 00 00 00 00 00 00 00 00 00 00
000021d4: 00 00 00 00 00 00 00 00 00 00 00 00 00 00 00 00
000021e4: 00 00 00 00 00 00 00 00 00 00 00 00 00 00 00 00
000021f4: 00 00 00 00 00 00 00 00 00 00 00 00 00 00 00 00
00002204: 00 00 00 00 00 00 00 00 00 00 00 00 00 00 00 00
00002214: 00 00 00 00 00 00 00 00 00 00 00 00 00 00 00 00
00002224: 00 00 00 00 00 00 00 00 00 00 00 00 00 00 00 00
00002234: 00 00 00 00 00 00 00 00 00 00 00 00 00 00 00 00
00002244: 00 00 00 00 00 00 00 00 00 00 00 00 00 00 00 00
00002254: 00 00 00 00 00 00 00 00 00 00 00 00 00 00 00 00
00002264: 00 00 00 00 00 00 00 00 00 00 00 00 00 00 00 00
00002274: 00 00 00 00 00 00 00 00 00 00 00 00 00 00 00 00
00002284: 00 00 00 00 00 00 00 00 00 00 00 00 00 00 00 00
00002294: 00 00 00 00 00 00 00 00 00 00 00 00 00 00 00 00
000022a4: 00 00 00 00 00 00 00 00 00 00 00 00 00 00 00 00
000022b4: 00 00 00 00 00 00 00 00 00 00 00 00 00 00 00 00
000022c4: 00 00 00 00 00 00 00 00 00 00 00 00 00 00 00 00
000022d4: 00 00 00 00 00 00 00 00 00 00 00 00 00 00 00 00
000022e4: 00 00 00 00 00 00 00 00 00 00 00 00 00 00 00 00
000022f4: 00 00 00 00 00 00 00 00 00 00 00 00 00 00 00 00
00002304: 00 00 00 00 00 00 00 00 00 00 00 00 00 00 00 00
00002314: 00 00 00 00 00 00 00 00 00 00 00 00 00 00 00 00
00002324: 00 00 00 00 00 00 00 00 00 00 00 00 00 00 00 00
00002334: 00 00 00 00 00 00 00 00 00 00 00 00 00 00 00 00
00002344: 00 00 00 00 00 00 00 00 00 00 00 00 00 00 00 00
00002354: 00 00 00 00 00 00 00 00 00 00 00 00 00 00 00 00
00002364: 00 00 00 00 00 00 00 00 00 00 00 00 00 00 00 00
00002374: 00 00 00 00 00 00 00 00 00 00 00 00 00 00 00 00
00002384: 00 00 00 00 00 00 00 00 00 00 00 00 00 00 00 00
00002394: 00 00 00 00 00 00 00 00 00 00 00 00 00 00 00 00
000023a4: 00 00 00 00 00 00 00 00 00 00 00 00 00 00 00 00
000023b4: 00 00 00 00 00 00 00 00 00 00 00 00 00 00 00 00
000023c4: 00 00 00 00 00 00 00 00 00 00 00 00 00 00 00 00
000023d4: 00 00 00 00 00 00 00 00 00 00 00 00 00 00 00 00
000023e4: 00 00 00 00 00 00 00 00 00 00 00 00 00 00 00 00
000023f4: 00 00 00 00 00 00 00 00 00 00 00 00 00 00 00 00
00002404: 00 00 00 00 00 00 00 00 00 00 00 00 00 00 00 00
00002414: 00 00 00 00 00 00 00 00 00 00 00 00 00 00 00 00
00002424: 00 00 00 00 00 00 00 00 00 00 00 00 00 00 00 00
00002434: 00 00 00 00 00 00 00 00 00 00 00 00 00 00 00 00
00002444: 00 00 00 00 00 00 00 00 00 00 00 00 00 00 00 00
00002454: 00 00 00 00 00 00 00 00 00 00 00 00 00 00 00 00
00002464: 00 00 00 00 00 00 00 00 00 00 00 00 00 00 00 00
00002474: 00 00 00 00 00 00 00 00 00 00 00 00 00 00 00 00
00002484: 00 00 00 00 00 00 00 00 00 00 00 00 00 00 00 00
00002494: 00 00 00 00 00 00 00 00 00 00 00 00 00 00 00 00
000024a4: 00 00 00 00 00 00 00 00 00 00 00 00 00 00 00 00
000024b4: 00 00 00 00 00 00 00 00 00 00 00 00 00 00 00 00
000024c4: 00 00 00 00 00 00 00 00 00 00 00 00 00 00 00 00
000024d4: 00 00 00 00 00 00 00 00 00 00 00 00 00 00 00 00
000024e4: 00 00 00 00 00 00 00 00 00 00 00 00 00 00 00 00
000024f4: 00 00 00 00 00 00 00 00 00 00 00 00 00 00 00 00
00002504: 00 00 00 00 00 00 00 00 00 00 00 00 00 00 00 00
00002514: 00 00 00 00 00 00 00 00 00 00 00 00 00 00 00 00
00002524: 00 00 00 00 00 00 00 00 00 00 00 00 00 00 00 00
00002534: 00 00 00 00 00 00 00 00 00 00 00 00 00 00 00 00
00002544: 00 00 00 00 00 00 00 00 00 00 00 00 00 00 00 00
00002554: 00 00 00 00 00 00 00 00 00 00 00 00 00 00 00 00
00002564: 00 00 00 00 00 00 00 00 00 00 00 00 00 00 00 00
00002574: 00 00 00 00 00 00 00 00 00 00 00 00 00 00 00 00
00002584: 00 00 00 00 00 00 00 00 00 00 00 00 00 00 00 00
00002594: 00 00 00 00 00 00 00 00 00 00 00 00 00 00 00 00
000025a4: 00 00 00 00 00 00 00 00 00 00 00 00 00 00 00 00
000025b4: 00 00 00 00 00 00 00 00 00 00 00 00 00 00 00 00
000025c4: 00 00 00 00 00 00 00 00 00 00 00 00 00 00 00 00
000025d4: 00 00 00 00 00 00 00 00 00 00 00 00 00 00 00 00
000025e4: 00 00 00 00 00 00 00 00 00 00 00 00 00 00 00 00
000025f4: 00 00 00 00 00 00 00 00 00 00 00 00 00 00 00 00
00002604: 00 00 00 00 00 00 00 00 00 00 00 00 00 00 00 00
00002614: 00 00 00 00 00 00 00 00 00 00 00 00 00 00 00 00
00002624: 00 00 00 00 00 00 00 00 00 00 00 00 00 00 00 00
00002634: 00 00 00 00 00 00 00 00 00 00 00 00 00 00 00 00
00002644: 00 00 00 00 00 00 00 00 00 00 00 00 00 00 00 00
00002654: 00 00 00 00 00 00 00 00 00 00 00 00 00 00 00 00
00002664: 00 00 00 00 00 00 00 00 00 00 00 00 00 00 00 00
00002674: 00 00 00 00 00 00 00 00 00 00 00 00 00 00 00 00
00002684: 00 00 00 00 00 00 00 00 00 00 00 00 00 00 00 00
00002694: 00 00 00 00 00 00 00 00 00 00 00 00 00 00 00 00
000026a4: 00 00 00 00 00 00 00 00 00 00 00 00 00 00 00 00
000026b4: 00 00 00 00 00 00 00 00 00 00 00 00 00 00 00 00
000026c4: 00 00 00 00 00 00 00 00 00 00 00 00 00 00 00 00
000026d4: 00 00 00 00 00 00 00 00 00 00 00 00 00 00 00 00
000026e4: 00 00 00 00 00 00 00 00 00 00 00 00 00 00 00 00
000026f4: 00 00 00 00 00 00 00 00 00 00 00 00 00 00 00 00
00002704: 00 00 00 00 00 00 00 00 00 00 00 00 00 00 00 00
00002714: 00 00 00 00 00 00 00 00 00 00 00 00 00 00 00 00
00002724: 00 00 00 00 00 00 00 00 00 00 00 00 00 00 00 00
00002734: 00 00 00 00 00 00 00 00 00 00 00 00 00 00 00 00
00002744: 00 00 00 00 00 00 00 00 00 00 00 00 00 00 00 00
00002754: 00 00 00 00 00 00 00 00 00 00 00 00 00 00 00 00
00002764: 00 00 00 00 00 00 00 00 00 00 00 00 00 00 00 00
00002774: 00 00 00 00 00 00 00 00 00 00 00 00 00 00 00 00
00002784: 00 00 00 00 00 00 00 00 00 00 00 00 00 00 00 00
00002794: 00 00 00 00 00 00 00 00 00 00 00 00 00 00 00 00
000027a4: 00 00 00 00 00 00 00 00 00 00 00 00 00 00 00 00
000027b4: 00 00 00 00 00 00 00 00 00 00 00 00 00 00 00 00
000027c4: 00 00 00 00 00 00 00 00 00 00 00 00 00 00 00 00
000027d4: 00 00 00 00 00 00 00 00 00 00 00 00 00 00 00 00
000027e4: 00 00 00 00 00 00 00 00 00 00 00 00 00 00 00 00
000027f4: 00 00 00 00 00 00 00 00 00 00 00 00 00 00 00 00
00002804: 00 00 00 00 00 00 00 00 00 00 00 00 00 00 00 00
00002814: 00 00 00 00 00 00 00 00 00 00 00 00 00 00 00 00
00002824: 00 00 00 00 00 00 00 00 00 00 00 00 00 00 00 00
00002834: 00 00 00 00 00 00 00 00 00 00 00 00 00 00 00 00
00002844: 00 00 00 00 00 00 00 00 00 00 00 00 00 00 00 00
00002854: 00 00 00 00 00 00 00 00 00 00 00 00 00 00 00 00
00002864: 00 00 00 00 00 00 00 00 00 00 00 00 00 00 00 00
00002874: 00 00 00 00 00 00 00 00 00 00 00 00 00 00 00 00
00002884: 00 00 00 00 00 00 00 00 00 00 00 00 00 00 00 00
00002894: 00 00 00 00 00 00 00 00 00 00 00 00 00 00 00 00
000028a4: 00 00 00 00 00 00 00 00 00 00 00 00 00 00 00 00
000028b4: 00 00 00 00 00 00 00 00 00 00 00 00 00 00 00 00
000028c4: 00 00 00 00 00 00 00 00 00 00 00 00 00 00 00 00
000028d4: 00 00 00 00 00 00 00 00 00 00 00 00 00 00 00 00
000028e4: 00 00 00 00 00 00 00 00 00 00 00 00 00 00 00 00
000028f4: 00 00 00 00 00 00 00 00 00 00 00 00 00 00 00 00
00002904: 00 00 00 00 00 00 00 00 00 00 00 00 00 00 00 00
00002914: 00 00 00 00 00 00 00 00 00 00 00 00 00 00 00 00
00002924: 00 00 00 00 00 00 00 00 00 00 00 00 00 00 00 00
00002934: 00 00 00 00 00 00 00 00 00 00 00 00 00 00 00 00
00002944: 00 00 00 00 00 00 00 00 00 00 00 00 00 00 00 00
00002954: 00 00 00 00 00 00 00 00 00 00 00 00 00 00 00 00
00002964: 00 00 00 00 00 00 00 00 00 00 00 00 00 00 00 00
00002974: 00 00 00 00 00 00 00 00 00 00 00 00 00 00 00 00
00002984: 00 00 00 00 00 00 00 00 00 00 00 00 00 00 00 00
00002994: 00 00 00 00 00 00 00 00 00 00 00 00 00 00 00 00
000029a4: 00 00 00 00 00 00 00 00 00 00 00 00 00 00 00 00
000029b4: 00 00 00 00 00 00 00 00 00 00 00 00 00 00 00 00
000029c4: 00 00 00 00 00 00 00 00 00 00 00 00 00 00 00 00
000029d4: 00 00 00 00 00 00 00 00 00 00 00 00 00 00 00 00
000029e4: 00 00 00 00 00 00 00 00 00 00 00 00 00 00 00 00
000029f4: 00 00 00 00 00 00 00 00 00 00 00 00 00 00 00 00
00002a04: 00 00 00 00 00 00 00 00 00 00 00 00 00 00 00 00
00002a14: 00 00 00 00 00 00 00 00 00 00 00 00 00 00 00 00
00002a24: 00 00 00 00 00 00 00 00 00 00 00 00 00 00 00 00
00002a34: 00 00 00 00 00 00 00 00 00 00 00 00 00 00 00 00
00002a44: 00 00 00 00 00 00 00 00 00 00 00 00 00 00 00 00
00002a54: 00 00 00 00 00 00 00 00 00 00 00 00 00 00 00 00
00002a64: 00 00 00 00 00 00 00 00 00 00 00 00 00 00 00 00
00002a74: 00 00 00 00 00 00 00 00 00 00 00 00 00 00 00 00
00002a84: 00 00 00 00 00 00 00 00 00 00 00 00 00 00 00 00
00002a94: 00 00 00 00 00 00 00 00 00 00 00 00 00 00 00 00
00002aa4: 00 00 00 00 00 00 00 00 00 00 00 00 00 00 00 00
00002ab4: 00 00 00 00 00 00 00 00 00 00 00 00 00 00 00 00
00002ac4: 00 00 00 00 00 00 00 00 00 00 00 00 00 00 00 00
00002ad4: 00 00 00 00 00 00 00 00 00 00 00 00 00 00 00 00
00002ae4: 00 00 00 00 00 00 00 00 00 00 00 00 00 00 00 00
00002af4: 00 00 00 00 00 00 00 00 00 00 00 00 00 00 00 00
00002b04: 00 00 00 00 00 00 00 00 00 00 00 00 00 00 00 00
00002b14: 00 00 00 00 00 00 00 00 00 00 00 00 00 00 00 00
00002b24: 00 00 00 00 00 00 00 00 00 00 00 00 00 00 00 00
00002b34: 00 00 00 00 00 00 00 00 00 00 00 00 00 00 00 00
00002b44: 00 00 00 00 00 00 00 00 00 00 00 00 00 00 00 00
00002b54: 00 00 00 00 00 00 00 00 00 00 00 00 00 00 00 00
00002b64: 00 00 00 00 00 00 00 00 00 00 00 00 00 00 00 00
00002b74: 00 00 00 00 00 00 00 00 00 00 00 00 00 00 00 00
00002b84: 00 00 00 00 00 00 00 00 00 00 00 00 00 00 00 00
00002b94: 00 00 00 00 00 00 00 00 00 00 00 00 00 00 00 00
00002ba4: 00 00 00 00 00 00 00 00 00 00 00 00 00 00 00 00
00002bb4: 00 00 00 00 00 00 00 00 00 00 00 00 00 00 00 00
00002bc4: 00 00 00 00 00 00 00 00 00 00 00 00 00 00 00 00
00002bd4: 00 00 00 00 00 00 00 00 00 00 00 00 00 00 00 00
00002be4: 00 00 00 00 00 00 00 00 00 00 00 00 00 00 00 00
00002bf4: 00 00 00 00 00 00 00 00 00 00 00 00 00 00 00 00
00002c04: 00 00 00 00 00 00 00 00 00 00 00 00 00 00 00 00
00002c14: 00 00 00 00 00 00 00 00 00 00 00 00 00 00 00 00
00002c24: 00 00 00 00 00 00 00 00 00 00 00 00 00 00 00 00
00002c34: 00 00 00 00 00 00 00 00 00 00 00 00 00 00 00 00
00002c44: 00 00 00 00 00 00 00 00 00 00 00 00 00 00 00 00
00002c54: 00 00 00 00 00 00 00 00 00 00 00 00 00 00 00 00
00002c64: 00 00 00 00 00 00 00 00 00 00 00 00 00 00 00 00
00002c74: 00 00 00 00 00 00 00 00 00 00 00 00 00 00 00 00
00002c84: 00 00 00 00 00 00 00 00 00 00 00 00 00 00 00 00
00002c94: 00 00 00 00 00 00 00 00 00 00 00 00 00 00 00 00
00002ca4: 00 00 00 00 00 00 00 00 00 00 00 00 00 00 00 00
00002cb4: 00 00 00 00 00 00 00 00 00 00 00 00 00 00 00 00
00002cc4: 00 00 00 00 00 00 00 00 00 00 00 00 00 00 00 00
00002cd4: 00 00 00 00 00 00 00 00 00 00 00 00 00 00 00 00
00002ce4: 00 00 00 00 00 00 00 00 00 00 00 00 00 00 00 00
00002cf4: 00 00 00 00 00 00 00 00 00 00 00 00 00 00 00 00
00002d04: 00 00 00 00 00 00 00 00 00 00 00 00 00 00 00 00
00002d14: 00 00 00 00 00 00 00 00 00 00 00 00 00 00 00 00
00002d24: 00 00 00 00 00 00 00 00 00 00 00 00 00 00 00 00
00002d34: 00 00 00 00 00 00 00 00 00 00 00 00 00 00 00 00
00002d44: 00 00 00 00 00 00 00 00 00 00 00 00 00 00 00 00
00002d54: 00 00 00 00 00 00 00 00 00 00 00 00 00 00 00 00
00002d64: 00 00 00 00 00 00 00 00 00 00 00 00 00 00 00 00
00002d74: 00 00 00 00 00 00 00 00 00 00 00 00 00 00 00 00
00002d84: 00 00 00 00 00 00 00 00 00 00 00 00 00 00 00 00
00002d94: 00 00 00 00 00 00 00 00 00 00 00 00 00 00 00 00
00002da4: 00 00 00 00 00 00 00 00 00 00 00 00 00 00 00 00
00002db4: 00 00 00 00 00 00 00 00 00 00 00 00 00 00 00 00
00002dc4: 00 00 00 00 00 00 00 00 00 00 00 00 00 00 00 00
00002dd4: 00 00 00 00 00 00 00 00 00 00 00 00 00 00 00 00
00002de4: 00 00 00 00 00 00 00 00 00 00 00 00 00 00 00 00
00002df4: 00 00 00 00 00 00 00 00 00 00 00 00 00 00 00 00
00002e04: 00 00 00 00 00 00 00 00 00 00 00 00 00 00 00 00
00002e14: 00 00 00 00 00 00 00 00 00 00 00 00 00 00 00 00
00002e24: 00 00 00 00 00 00 00 00 00 00 00 00 00 00 00 00
00002e34: 00 00 00 00 00 00 00 00 00 00 00 00 00 00 00 00
00002e44: 00 00 00 00 00 00 00 00 00 00 00 00 00 00 00 00
00002e54: 00 00 00 00 00 00 00 00 00 00 00 00 00 00 00 00
00002e64: 00 00 00 00 00 00 00 00 00 00 00 00 00 00 00 00
00002e74: 00 00 00 00 00 00 00 00 00 00 00 00 00 00 00 00
00002e84: 00 00 00 00 00 00 00 00 00 00 00 00 00 00 00 00
00002e94: 00 00 00 00 00 00 00 00 00 00 00 00 00 00 00 00
00002ea4: 00 00 00 00 00 00 00 00 00 00 00 00 00 00 00 00
00002eb4: 00 00 00 00 00 00 00 00 00 00 00 00 00 00 00 00
00002ec4: 00 00 00 00 00 00 00 00 00 00 00 00 00 00 00 00
00002ed4: 00 00 00 00 00 00 00 00 00 00 00 00 00 00 00 00
00002ee4: 00 00 00 00 00 00 00 00 00 00 00 00 00 00 00 00
00002ef4: 00 00 00 00 00 00 00 00 00 00 00 00 00 00 00 00
00002f04: 00 00 00 00 00 00 00 00 00 00 00 00 00 00 00 00
00002f14: 00 00 00 00 00 00 00 00 00 00 00 00 00 00 00 00
00002f24: 00 00 00 00 00 00 00 00 00 00 00 00 00 00 00 00
00002f34: 00 00 00 00 00 00 00 00 00 00 00 00 00 00 00 00
00002f44: 00 00 00 00 00 00 00 00 00 00 00 00 00 00 00 00
00002f54: 00 00 00 00 00 00 00 00 00 00 00 00 00 00 00 00
00002f64: 00 00 00 00 00 00 00 00 00 00 00 00 00 00 00 00
00002f74: 00 00 00 00 00 00 00 00 00 00 00 00 00 00 00 00
00002f84: 00 00 00 00 00 00 00 00 00 00 00 00 00 00 00 00
00002f94: 00 00 00 00 00 00 00 00 00 00 00 00 00 00 00 00
00002fa4: 00 00 00 00 00 00 00 00 00 00 00 00 00 00 00 00
00002fb4: 00 00 00 00 00 00 00 00 00 00 00 00 00 00 00 00
00002fc4: 00 00 00 00 00 00 00 00 00 00 00 00 00 00 00 00
00002fd4: 00 00 00 00 00 00 00 00 00 00 00 00 00 00 00 00
00002fe4: 00 00 00 00 00 00 00 00 00 00 00 00 00 00 00 00
00002ff4: 00 00 00 00 00 00 00 00 00 00 00 00 00 00 00 00
00003004: 00 00 00 00 00 00 00 00 00 00 00 00 00 00 00 00
00003014: 00 00 00 00 00 00 00 00 00 00 00 00 00 00 00 00
00003024: 00 00 00 00 00 00 00 00 00 00 00 00 00 00 00 00
00003034: 00 00 00 00 00 00 00 00 00 00 00 00 00 00 00 00
00003044: 00 00 00 00 00 00 00 00 00 00 00 00 00 00 00 00
00003054: 00 00 00 00 00 00 00 00 00 00 00 00 00 00 00 00
00003064: 00 00 00 00 00 00 00 00 00 00 00 00 00 00 00 00
00003074: 00 00 00 00 00 00 00 00 00 00 00 00 00 00 00 00
00003084: 00 00 00 00 00 00 00 00 00 00 00 00 00 00 00 00
00003094: 00 00 00 00 00 00 00 00 00 00 00 00 00 00 00 00
000030a4: 00 00 00 00 00 00 00 00 00 00 00 00 00 00 00 00
000030b4: 00 00 00 00 00 00 00 00 00 00 00 00 00 00 00 00
000030c4: 00 00 00 00 00 00 00 00 00 00 00 00 00 00 00 00
000030d4: 00 00 00 00 00 00 00 00 00 00 00 00 00 00 00 00
000030e4: 00 00 00 00 00 00 00 00 00 00 00 00 00 00 00 00
000030f4: 00 00 00 00 00 00 00 00 00 00 00 00 00 00 00 00
00003104: 00 00 00 00 00 00 00 00 00 00 00 00 00 00 00 00
00003114: 00 00 00 00 00 00 00 00 00 00 00 00 00 00 00 00
00003124: 00 00 00 00 00 00 00 00 00 00 00 00 00 00 00 00
00003134: 00 00 00 00 00 00 00 00 00 00 00 00 00 00 00 00
00003144: 00 00 00 00 00 00 00 00 00 00 00 00 00 00 00 00
00003154: 00 00 00 00 00 00 00 00 00 00 00 00 00 00 00 00
00003164: 00 00 00 00 00 00 00 00 00 00 00 00 00 00 00 00
00003174: 00 00 00 00 00 00 00 00 00 00 00 00 00 00 00 00
00003184: 00 00 00 00 00 00 00 00 00 00 00 00 00 00 00 00
00003194: 00 00 00 00 00 00 00 00 00 00 00 00 00 00 00 00
000031a4: 00 00 00 00 00 00 00 00 00 00 00 00 00 00 00 00
000031b4: 00 00 00 00 00 00 00 00 00 00 00 00 00 00 00 00
000031c4: 00 00 00 00 00 00 00 00 00 00 00 00 00 00 00 00
000031d4: 00 00 00 00 00 00 00 00 00 00 00 00 00 00 00 00
000031e4: 00 00 00 00 00 00 00 00 00 00 00 00 00 00 00 00
000031f4: 00 00 00 00 00 00 00 00 00 00 00 00 00 00 00 00
00003204: 00 00 00 00 00 00 00 00 00 00 00 00 00 00 00 00
00003214: 00 00 00 00 00 00 00 00 00 00 00 00 00 00 00 00
00003224: 00 00 00 00 00 00 00 00 00 00 00 00 00 00 00 00
00003234: 00 00 00 00 00 00 00 00 00 00 00 00 00 00 00 00
00003244: 00 00 00 00 00 00 00 00 00 00 00 00 00 00 00 00
00003254: 00 00 00 00 00 00 00 00 00 00 00 00 00 00 00 00
00003264: 00 00 00 00 00 00 00 00 00 00 00 00 00 00 00 00
00003274: 00 00 00 00 00 00 00 00 00 00 00 00 00 00 00 00
00003284: 00 00 00 00 00 00 00 00 00 00 00 00 00 00 00 00
00003294: 00 00 00 00 00 00 00 00 00 00 00 00 00 00 00 00
000032a4: 00 00 00 00 00 00 00 00 00 00 00 00 00 00 00 00
000032b4: 00 00 00 00 00 00 00 00 00 00 00 00 00 00 00 00
000032c4: 00 00 00 00 00 00 00 00 00 00 00 00 00 00 00 00
000032d4: 00 00 00 00 00 00 00 00 00 00 00 00 00 00 00 00
000032e4: 00 00 00 00 00 00 00 00 00 00 00 00 00 00 00 00
000032f4: 00 00 00 00 00 00 00 00 00 00 00 00 00 00 00 00
00003304: 00 00 00 00 00 00 00 00 00 00 00 00 00 00 00 00
00003314: 00 00 00 00 00 00 00 00 00 00 00 00 00 00 00 00
00003324: 00 00 00 00 00 00 00 00 00 00 00 00 00 00 00 00
00003334: 00 00 00 00 00 00 00 00 00 00 00 00 00 00 00 00
00003344: 00 00 00 00 00 00 00 00 00 00 00 00 00 00 00 00
00003354: 00 00 00 00 00 00 00 00 00 00 00 00 00 00 00 00
00003364: 00 00 00 00 00 00 00 00 00 00 00 00 00 00 00 00
00003374: 00 00 00 00 00 00 00 00 00 00 00 00 00 00 00 00
00003384: 00 00 00 00 00 00 00 00 00 00 00 00 00 00 00 00
00003394: 00 00 00 00 00 00 00 00 00 00 00 00 00 00 00 00
000033a4: 00 00 00 00 00 00 00 00 00 00 00 00 00 00 00 00
000033b4: 00 00 00 00 00 00 00 00 00 00 00 00 00 00 00 00
000033c4: 00 00 00 00 00 00 00 00 00 00 00 00 00 00 00 00
000033d4: 00 00 00 00 00 00 00 00 00 00 00 00 00 00 00 00
000033e4: 00 00 00 00 00 00 00 00 00 00 00 00 00 00 00 00
000033f4: 00 00 00 00 00 00 00 00 00 00 00 00 00 00 00 00
00003404: 00 00 00 00 00 00 00 00 00 00 00 00 00 00 00 00
00003414: 00 00 00 00 00 00 00 00 00 00 00 00 00 00 00 00
00003424: 00 00 00 00 00 00 00 00 00 00 00 00 00 00 00 00
00003434: 00 00 00 00 00 00 00 00 00 00 00 00 00 00 00 00
00003444: 00 00 00 00 00 00 00 00 00 00 00 00 00 00 00 00
00003454: 00 00 00 00 00 00 00 00 00 00 00 00 00 00 00 00
00003464: 00 00 00 00 00 00 00 00 00 00 00 00 00 00 00 00
00003474: 00 00 00 00 00 00 00 00 00 00 00 00 00 00 00 00
00003484: 00 00 00 00 00 00 00 00 00 00 00 00 00 00 00 00
00003494: 00 00 00 00 00 00 00 00 00 00 00 00 00 00 00 00
000034a4: 00 00 00 00 00 00 00 00 00 00 00 00 00 00 00 00
000034b4: 00 00 00 00 00 00 00 00 00 00 00 00 00 00 00 00
000034c4: 00 00 00 00 00 00 00 00 00 00 00 00 00 00 00 00
000034d4: 00 00 00 00 00 00 00 00 00 00 00 00 00 00 00 00
000034e4: 00 00 00 00 00 00 00 00 00 00 00 00 00 00 00 00
000034f4: 00 00 00 00 00 00 00 00 00 00 00 00 00 00 00 00
00003504: 00 00 00 00 00 00 00 00 00 00 00 00 00 00 00 00
00003514: 00 00 00 00 00 00 00 00 00 00 00 00 00 00 00 00
00003524: 00 00 00 00 00 00 00 00 00 00 00 00 00 00 00 00
00003534: 00 00 00 00 00 00 00 00 00 00 00 00 00 00 00 00
00003544: 00 00 00 00 00 00 00 00 00 00 00 00 00 00 00 00
00003554: 00 00 00 00 00 00 00 00 00 00 00 00 00 00 00 00
00003564: 00 00 00 00 00 00 00 00 00 00 00 00 00 00 00 00
00003574: 00 00 00 00 00 00 00 00 00 00 00 00 00 00 00 00
00003584: 00 00 00 00 00 00 00 00 00 00 00 00 00 00 00 00
00003594: 00 00 00 00 00 00 00 00 00 00 00 00 00 00 00 00
000035a4: 00 00 00 00 00 00 00 00 00 00 00 00 00 00 00 00
000035b4: 00 00 00 00 00 00 00 00 00 00 00 00 00 00 00 00
000035c4: 00 00 00 00 00 00 00 00 00 00 00 00 00 00 00 00
000035d4: 00 00 00 00 00 00 00 00 00 00 00 00 00 00 00 00
000035e4: 00 00 00 00 00 00 00 00 00 00 00 00 00 00 00 00
000035f4: 00 00 00 00 00 00 00 00 00 00 00 00 00 00 00 00
00003604: 00 00 00 00 00 00 00 00 00 00 00 00 00 00 00 00
00003614: 00 00 00 00 00 00 00 00 00 00 00 00 00 00 00 00
00003624: 00 00 00 00 00 00 00 00 00 00 00 00 00 00 00 00
00003634: 00 00 00 00 00 00 00 00 00 00 00 00 00 00 00 00
00003644: 00 00 00 00 00 00 00 00 00 00 00 00 00 00 00 00
00003654: 00 00 00 00 00 00 00 00 00 00 00 00 00 00 00 00
00003664: 00 00 00 00 00 00 00 00 00 00 00 00 00 00 00 00
00003674: 00 00 00 00 00 00 00 00 00 00 00 00 00 00 00 00
00003684: 00 00 00 00 00 00 00 00 00 00 00 00 00 00 00 00
00003694: 00 00 00 00 00 00 00 00 00 00 00 00 00 00 00 00
000036a4: 00 00 00 00 00 00 00 00 00 00 00 00 00 00 00 00
000036b4: 00 00 00 00 00 00 00 00 00 00 00 00 00 00 00 00
000036c4: 00 00 00 00 00 00 00 00 00 00 00 00 00 00 00 00
000036d4: 00 00 00 00 00 00 00 00 00 00 00 00 00 00 00 00
000036e4: 00 00 00 00 00 00 00 00 00 00 00 00 00 00 00 00
000036f4: 00 00 00 00 00 00 00 00 00 00 00 00 00 00 00 00
00003704: 00 00 00 00 00 00 00 00 00 00 00 00 00 00 00 00
00003714: 00 00 00 00 00 00 00 00 00 00 00 00 00 00 00 00
00003724: 00 00 00 00 00 00 00 00 00 00 00 00 00 00 00 00
00003734: 00 00 00 00 00 00 00 00 00 00 00 00 00 00 00 00
00003744: 00 00 00 00 00 00 00 00 00 00 00 00 00 00 00 00
00003754: 00 00 00 00 00 00 00 00 00 00 00 00 00 00 00 00
00003764: 00 00 00 00 00 00 00 00 00 00 00 00 00 00 00 00
00003774: 00 00 00 00 00 00 00 00 00 00 00 00 00 00 00 00
00003784: 00 00 00 00 00 00 00 00 00 00 00 00 00 00 00 00
00003794: 00 00 00 00 00 00 00 00 00 00 00 00 00 00 00 00
000037a4: 00 00 00 00 00 00 00 00 00 00 00 00 00 00 00 00
000037b4: 00 00 00 00 00 00 00 00 00 00 00 00 00 00 00 00
000037c4: 00 00 00 00 00 00 00 00 00 00 00 00 00 00 00 00
000037d4: 00 00 00 00 00 00 00 00 00 00 00 00 00 00 00 00
000037e4: 00 00 00 00 00 00 00 00 00 00 00 00 00 00 00 00
000037f4: 00 00 00 00 00 00 00 00 00 00 00 00 00 00 00 00
00003804: 00 00 00 00 00 00 00 00 00 00 00 00 00 00 00 00
00003814: 00 00 00 00 00 00 00 00 00 00 00 00 00 00 00 00
00003824: 00 00 00 00 00 00 00 00 00 00 00 00 00 00 00 00
00003834: 00 00 00 00 00 00 00 00 00 00 00 00 00 00 00 00
00003844: 00 00 00 00 00 00 00 00 00 00 00 00 00 00 00 00
00003854: 00 00 00 00 00 00 00 00 00 00 00 00 00 00 00 00
00003864: 00 00 00 00 00 00 00 00 00 00 00 00 00 00 00 00
00003874: 00 00 00 00 00 00 00 00 00 00 00 00 00 00 00 00
00003884: 00 00 00 00 00 00 00 00 00 00 00 00 00 00 00 00
00003894: 00 00 00 00 00 00 00 00 00 00 00 00 00 00 00 00
000038a4: 00 00 00 00 00 00 00 00 00 00 00 00 00 00 00 00
000038b4: 00 00 00 00 00 00 00 00 00 00 00 00 00 00 00 00
000038c4: 00 00 00 00 00 00 00 00 00 00 00 00 00 00 00 00
000038d4: 00 00 00 00 00 00 00 00 00 00 00 00 00 00 00 00
000038e4: 00 00 00 00 00 00 00 00 00 00 00 00 00 00 00 00
000038f4: 00 00 00 00 00 00 00 00 00 00 00 00 00 00 00 00
00003904: 00 00 00 00 00 00 00 00 00 00 00 00 00 00 00 00
00003914: 00 00 00 00 00 00 00 00 00 00 00 00 00 00 00 00
00003924: 00 00 00 00 00 00 00 00 00 00 00 00 00 00 00 00
00003934: 00 00 00 00 00 00 00 00 00 00 00 00 00 00 00 00
00003944: 00 00 00 00 00 00 00 00 00 00 00 00 00 00 00 00
00003954: 00 00 00 00 00 00 00 00 00 00 00 00 00 00 00 00
00003964: 00 00 00 00 00 00 00 00 00 00 00 00 00 00 00 00
00003974: 00 00 00 00 00 00 00 00 00 00 00 00 00 00 00 00
00003984: 00 00 00 00 00 00 00 00 00 00 00 00 00 00 00 00
00003994: 00 00 00 00 00 00 00 00 00 00 00 00 00 00 00 00
000039a4: 00 00 00 00 00 00 00 00 00 00 00 00 00 00 00 00
000039b4: 00 00 00 00 00 00 00 00 00 00 00 00 00 00 00 00
000039c4: 00 00 00 00 00 00 00 00 00 00 00 00 00 00 00 00
000039d4: 00 00 00 00 00 00 00 00 00 00 00 00 00 00 00 00
000039e4: 00 00 00 00 00 00 00 00 00 00 00 00 00 00 00 00
000039f4: 00 00 00 00 00 00 00 00 00 00 00 00 00 00 00 00
00003a04: 00 00 00 00 00 00 00 00 00 00 00 00 00 00 00 00
00003a14: 00 00 00 00 00 00 00 00 00 00 00 00 00 00 00 00
00003a24: 00 00 00 00 00 00 00 00 00 00 00 00 00 00 00 00
00003a34: 00 00 00 00 00 00 00 00 00 00 00 00 00 00 00 00
00003a44: 00 00 00 00 00 00 00 00 00 00 00 00 00 00 00 00
00003a54: 00 00 00 00 00 00 00 00 00 00 00 00 00 00 00 00
00003a64: 00 00 00 00 00 00 00 00 00 00 00 00 00 00 00 00
00003a74: 00 00 00 00 00 00 00 00 00 00 00 00 00 00 00 00
00003a84: 00 00 00 00 00 00 00 00 00 00 00 00 00 00 00 00
00003a94: 00 00 00 00 00 00 00 00 00 00 00 00 00 00 00 00
00003aa4: 00 00 00 00 00 00 00 00 00 00 00 00 00 00 00 00
00003ab4: 00 00 00 00 00 00 00 00 00 00 00 00 00 00 00 00
00003ac4: 00 00 00 00 00 00 00 00 00 00 00 00 00 00 00 00
00003ad4: 00 00 00 00 00 00 00 00 00 00 00 00 00 00 00 00
00003ae4: 00 00 00 00 00 00 00 00 00 00 00 00 00 00 00 00
00003af4: 00 00 00 00 00 00 00 00 00 00 00 00 00 00 00 00
00003b04: 00 00 00 00 00 00 00 00 00 00 00 00 00 00 00 00
00003b14: 00 00 00 00 00 00 00 00 00 00 00 00 00 00 00 00
00003b24: 00 00 00 00 00 00 00 00 00 00 00 00 00 00 00 00
00003b34: 00 00 00 00 00 00 00 00 00 00 00 00 00 00 00 00
00003b44: 00 00 00 00 00 00 00 00 00 00 00 00 00 00 00 00
00003b54: 00 00 00 00 00 00 00 00 00 00 00 00 00 00 00 00
00003b64: 00 00 00 00 00 00 00 00 00 00 00 00 00 00 00 00
00003b74: 00 00 00 00 00 00 00 00 00 00 00 00 00 00 00 00
00003b84: 00 00 00 00 00 00 00 00 00 00 00 00 00 00 00 00
00003b94: 00 00 00 00 00 00 00 00 00 00 00 00 00 00 00 00
00003ba4: 00 00 00 00 00 00 00 00 00 00 00 00 00 00 00 00
00003bb4: 00 00 00 00 00 00 00 00 00 00 00 00 00 00 00 00
00003bc4: 00 00 00 00 00 00 00 00 00 00 00 00 00 00 00 00
00003bd4: 00 00 00 00 00 00 00 00 00 00 00 00 00 00 00 00
00003be4: 00 00 00 00 00 00 00 00 00 00 00 00 00 00 00 00
00003bf4: 00 00 00 00 00 00 00 00 00 00 00 00 00 00 00 00
00003c04: 00 00 00 00 00 00 00 00 00 00 00 00 00 00 00 00
00003c14: 00 00 00 00 00 00 00 00 00 00 00 00 00 00 00 00
00003c24: 00 00 00 00 00 00 00 00 00 00 00 00 00 00 00 00
00003c34: 00 00 00 00 00 00 00 00 00 00 00 00 00 00 00 00
00003c44: 00 00 00 00 00 00 00 00 00 00 00 00 00 00 00 00
00003c54: 00 00 00 00 00 00 00 00 00 00 00 00 00 00 00 00
00003c64: 00 00 00 00 00 00 00 00 00 00 00 00 00 00 00 00
00003c74: 00 00 00 00 00 00 00 00 00 00 00 00 00 00 00 00
00003c84: 00 00 00 00 00 00 00 00 00 00 00 00 00 00 00 00
00003c94: 00 00 00 00 00 00 00 00 00 00 00 00 00 00 00 00
00003ca4: 00 00 00 00 00 00 00 00 00 00 00 00 00 00 00 00
00003cb4: 00 00 00 00 00 00 00 00 00 00 00 00 00 00 00 00
00003cc4: 00 00 00 00 00 00 00 00 00 00 00 00 00 00 00 00
00003cd4: 00 00 00 00 00 00 00 00 00 00 00 00 00 00 00 00
00003ce4: 00 00 00 00 00 00 00 00 00 00 00 00 00 00 00 00
00003cf4: 00 00 00 00 00 00 00 00 00 00 00 00 00 00 00 00
00003d04: 00 00 00 00 00 00 00 00 00 00 00 00 00 00 00 00
00003d14: 00 00 00 00 00 00 00 00 00 00 00 00 00 00 00 00
00003d24: 00 00 00 00 00 00 00 00 00 00 00 00 00 00 00 00
00003d34: 00 00 00 00 00 00 00 00 00 00 00 00 00 00 00 00
00003d44: 00 00 00 00 00 00 00 00 00 00 00 00 00 00 00 00
00003d54: 00 00 00 00 00 00 00 00 00 00 00 00 00 00 00 00
00003d64: 00 00 00 00 00 00 00 00 00 00 00 00 00 00 00 00
00003d74: 00 00 00 00 00 00 00 00 00 00 00 00 00 00 00 00
00003d84: 00 00 00 00 00 00 00 00 00 00 00 00 00 00 00 00
00003d94: 00 00 00 00 00 00 00 00 00 00 00 00 00 00 00 00
00003da4: 00 00 00 00 00 00 00 00 00 00 00 00 00 00 00 00
00003db4: 00 00 00 00 00 00 00 00 00 00 00 00 00 00 00 00
00003dc4: 00 00 00 00 00 00 00 00 00 00 00 00 00 00 00 00
00003dd4: 00 00 00 00 00 00 00 00 00 00 00 00 00 00 00 00
00003de4: 00 00 00 00 00 00 00 00 00 00 00 00 00 00 00 00
00003df4: 00 00 00 00 00 00 00 00 00 00 00 00 00 00 00 00
00003e04: 00 00 00 00 00 00 00 00 00 00 00 00 00 00 00 00
00003e14: 00 00 00 00 00 00 00 00 00 00 00 00 00 00 00 00
00003e24: 00 00 00 00 00 00 00 00 00 00 00 00 00 00 00 00
00003e34: 00 00 00 00 00 00 00 00 00 00 00 00 00 00 00 00
00003e44: 00 00 00 00 00 00 00 00 00 00 00 00 00 00 00 00
00003e54: 00 00 00 00 00 00 00 00 00 00 00 00 00 00 00 00
00003e64: 00 00 00 00 00 00 00 00 00 00 00 00 00 00 00 00
00003e74: 00 00 00 00 00 00 00 00 00 00 00 00 00 00 00 00
00003e84: 00 00 00 00 00 00 00 00 00 00 00 00 00 00 00 00
00003e94: 00 00 00 00 00 00 00 00 00 00 00 00 00 00 00 00
00003ea4: 00 00 00 00 00 00 00 00 00 00 00 00 00 00 00 00
00003eb4: 00 00 00 00 00 00 00 00 00 00 00 00 00 00 00 00
00003ec4: 00 00 00 00 00 00 00 00 00 00 00 00 00 00 00 00
00003ed4: 00 00 00 00 00 00 00 00 00 00 00 00 00 00 00 00
00003ee4: 00 00 00 00 00 00 00 00 00 00 00 00 00 00 00 00
00003ef4: 00 00 00 00 00 00 00 00 00 00 00 00 00 00 00 00
00003f04: 00 00 00 00 00 00 00 00 00 00 00 00 00 00 00 00
00003f14: 00 00 00 00 00 00 00 00 00 00 00 00 00 00 00 00
00003f24: 00 00 00 00 00 00 00 00 00 00 00 00 00 00 00 00
00003f34: 00 00 00 00 00 00 00 00 00 00 00 00 00 00 00 00
00003f44: 00 00 00 00 00 00 00 00 00 00 00 00 00 00 00 00
00003f54: 00 00 00 00 00 00 00 00 00 00 00 00 00 00 00 00
00003f64: 00 00 00 00 00 00 00 00 00 00 00 00 00 00 00 00
00003f74: 00 00 00 00 00 00 00 00 00 00 00 00 00 00 00 00
00003f84: 00 00 00 00 00 00 00 00 00 00 00 00 00 00 00 00
00003f94: 00 00 00 00 00 00 00 00 00 00 00 00 00 00 00 00
00003fa4: 00 00 00 00 00 00 00 00 00 00 00 00 00 00 00 00
00003fb4: 00 00 00 00 00 00 00 00 00 00 00 00 00 00 00 00
00003fc4: 00 00 00 00 00 00 00 00 00 00 00 00 00 00 00 00
00003fd4: 00 00 00 00 00 00 00 00 00 00 00 00 00 00 00 00
00003fe4: 00 00 00 00 00 00 00 00 00 00 00 00 00 00 00 00
00003ff4: 00 00 00 00 00 00 00 00 00 00 00 00 00 00 00 00
00004004: 00 00 00 00 00 00 00 00 00 00 00 00 00 00 00 00
00004014: 00 00 00 00 00 00 00 00 00 00 00 00 00 00 00 00
00004024: 00 00 00 00 00 00 00 00 00 00 00 00 00 00 00 00
00004034: 00 00 00 00 00 00 00 00 00 00 00 00 00 00 00 00
00004044: 00 00 00 00 00 00 00 00 00 00 00 00 00 00 00 00
00004054: 00 00 00 00 00 00 00 00 00 00 00 00 00 00 00 00
00004064: 00 00 00 00 00 00 00 00 00 00 00 00 00 00 00 00
00004074: 00 00 00 00 00 00 00 00 00 00 00 00 00 00 00 00
00004084: 00 00 00 00 00 00 00 00 00 00 00 00 00 00 00 00
00004094: 00 00 00 00 00 00 00 00 00 00 00 00 00 00 00 00

# FORCED_HSIOM (count=4)
000040a4: 00 00 00 00
# PRGIO (count=4096)
000040a8: 00 14 00 02 00 00 00 00 00 00 00 00 00 00 00 00
000040b8: 00 00 00 00 00 00 00 00 00 00 00 00 00 00 00 00
000040c8: 00 00 00 00 00 00 00 00 00 00 00 00 00 00 00 00
000040d8: 00 00 00 00 00 00 00 00 00 00 00 00 00 00 00 00
000040e8: 00 00 00 00 00 00 00 00 00 00 00 00 00 00 00 00
000040f8: 00 00 00 00 00 00 00 00 00 00 00 00 00 00 00 00
00004108: 00 00 00 00 00 00 00 00 00 00 00 00 00 00 00 00
00004118: 00 00 00 00 00 00 00 00 00 00 00 00 00 00 00 00
00004128: 00 00 00 00 00 00 00 00 00 00 00 00 00 00 00 00
00004138: 00 00 00 00 00 00 00 00 00 00 00 00 00 00 00 00
00004148: 00 00 00 00 00 00 00 00 00 00 00 00 00 00 00 00
00004158: 00 00 00 00 00 00 00 00 00 00 00 00 00 00 00 00
00004168: 00 00 00 00 00 00 00 00 00 00 00 00 00 00 00 00
00004178: 00 00 00 00 00 00 00 00 00 00 00 00 00 00 00 00
00004188: 00 00 00 00 00 00 00 00 00 00 00 00 00 00 00 00
00004198: 00 00 00 00 00 00 00 00 00 00 00 00 00 00 00 00
000041a8: 00 14 00 02 00 00 00 00 00 00 00 00 00 00 00 00
000041b8: 00 00 00 00 00 00 00 00 00 00 00 00 00 00 00 00
000041c8: 00 00 00 00 00 00 00 00 00 00 00 00 00 00 00 00
000041d8: 00 00 00 00 00 00 00 00 00 00 00 00 00 00 00 00
000041e8: 00 00 00 00 00 00 00 00 00 00 00 00 00 00 00 00
000041f8: 00 00 00 00 00 00 00 00 00 00 00 00 00 00 00 00
00004208: 00 00 00 00 00 00 00 00 00 00 00 00 00 00 00 00
00004218: 00 00 00 00 00 00 00 00 00 00 00 00 00 00 00 00
00004228: 00 00 00 00 00 00 00 00 00 00 00 00 00 00 00 00
00004238: 00 00 00 00 00 00 00 00 00 00 00 00 00 00 00 00
00004248: 00 00 00 00 00 00 00 00 00 00 00 00 00 00 00 00
00004258: 00 00 00 00 00 00 00 00 00 00 00 00 00 00 00 00
00004268: 00 00 00 00 00 00 00 00 00 00 00 00 00 00 00 00
00004278: 00 00 00 00 00 00 00 00 00 00 00 00 00 00 00 00
00004288: 00 00 00 00 00 00 00 00 00 00 00 00 00 00 00 00
00004298: 00 00 00 00 00 00 00 00 00 00 00 00 00 00 00 00
000042a8: 00 00 00 00 00 00 00 00 00 00 00 00 00 00 00 00
000042b8: 00 00 00 00 00 00 00 00 00 00 00 00 00 00 00 00
000042c8: 00 00 00 00 00 00 00 00 00 00 00 00 00 00 00 00
000042d8: 00 00 00 00 00 00 00 00 00 00 00 00 00 00 00 00
000042e8: 00 00 00 00 00 00 00 00 00 00 00 00 00 00 00 00
000042f8: 00 00 00 00 00 00 00 00 00 00 00 00 00 00 00 00
00004308: 00 00 00 00 00 00 00 00 00 00 00 00 00 00 00 00
00004318: 00 00 00 00 00 00 00 00 00 00 00 00 00 00 00 00
00004328: 00 00 00 00 00 00 00 00 00 00 00 00 00 00 00 00
00004338: 00 00 00 00 00 00 00 00 00 00 00 00 00 00 00 00
00004348: 00 00 00 00 00 00 00 00 00 00 00 00 00 00 00 00
00004358: 00 00 00 00 00 00 00 00 00 00 00 00 00 00 00 00
00004368: 00 00 00 00 00 00 00 00 00 00 00 00 00 00 00 00
00004378: 00 00 00 00 00 00 00 00 00 00 00 00 00 00 00 00
00004388: 00 00 00 00 00 00 00 00 00 00 00 00 00 00 00 00
00004398: 00 00 00 00 00 00 00 00 00 00 00 00 00 00 00 00
000043a8: 00 00 00 00 00 00 00 00 00 00 00 00 00 00 00 00
000043b8: 00 00 00 00 00 00 00 00 00 00 00 00 00 00 00 00
000043c8: 00 00 00 00 00 00 00 00 00 00 00 00 00 00 00 00
000043d8: 00 00 00 00 00 00 00 00 00 00 00 00 00 00 00 00
000043e8: 00 00 00 00 00 00 00 00 00 00 00 00 00 00 00 00
000043f8: 00 00 00 00 00 00 00 00 00 00 00 00 00 00 00 00
00004408: 00 00 00 00 00 00 00 00 00 00 00 00 00 00 00 00
00004418: 00 00 00 00 00 00 00 00 00 00 00 00 00 00 00 00
00004428: 00 00 00 00 00 00 00 00 00 00 00 00 00 00 00 00
00004438: 00 00 00 00 00 00 00 00 00 00 00 00 00 00 00 00
00004448: 00 00 00 00 00 00 00 00 00 00 00 00 00 00 00 00
00004458: 00 00 00 00 00 00 00 00 00 00 00 00 00 00 00 00
00004468: 00 00 00 00 00 00 00 00 00 00 00 00 00 00 00 00
00004478: 00 00 00 00 00 00 00 00 00 00 00 00 00 00 00 00
00004488: 00 00 00 00 00 00 00 00 00 00 00 00 00 00 00 00
00004498: 00 00 00 00 00 00 00 00 00 00 00 00 00 00 00 00
000044a8: 00 00 00 00 00 00 00 00 00 00 00 00 00 00 00 00
000044b8: 00 00 00 00 00 00 00 00 00 00 00 00 00 00 00 00
000044c8: 00 00 00 00 00 00 00 00 00 00 00 00 00 00 00 00
000044d8: 00 00 00 00 00 00 00 00 00 00 00 00 00 00 00 00
000044e8: 00 00 00 00 00 00 00 00 00 00 00 00 00 00 00 00
000044f8: 00 00 00 00 00 00 00 00 00 00 00 00 00 00 00 00
00004508: 00 00 00 00 00 00 00 00 00 00 00 00 00 00 00 00
00004518: 00 00 00 00 00 00 00 00 00 00 00 00 00 00 00 00
00004528: 00 00 00 00 00 00 00 00 00 00 00 00 00 00 00 00
00004538: 00 00 00 00 00 00 00 00 00 00 00 00 00 00 00 00
00004548: 00 00 00 00 00 00 00 00 00 00 00 00 00 00 00 00
00004558: 00 00 00 00 00 00 00 00 00 00 00 00 00 00 00 00
00004568: 00 00 00 00 00 00 00 00 00 00 00 00 00 00 00 00
00004578: 00 00 00 00 00 00 00 00 00 00 00 00 00 00 00 00
00004588: 00 00 00 00 00 00 00 00 00 00 00 00 00 00 00 00
00004598: 00 00 00 00 00 00 00 00 00 00 00 00 00 00 00 00
000045a8: 00 00 00 00 00 00 00 00 00 00 00 00 00 00 00 00
000045b8: 00 00 00 00 00 00 00 00 00 00 00 00 00 00 00 00
000045c8: 00 00 00 00 00 00 00 00 00 00 00 00 00 00 00 00
000045d8: 00 00 00 00 00 00 00 00 00 00 00 00 00 00 00 00
000045e8: 00 00 00 00 00 00 00 00 00 00 00 00 00 00 00 00
000045f8: 00 00 00 00 00 00 00 00 00 00 00 00 00 00 00 00
00004608: 00 00 00 00 00 00 00 00 00 00 00 00 00 00 00 00
00004618: 00 00 00 00 00 00 00 00 00 00 00 00 00 00 00 00
00004628: 00 00 00 00 00 00 00 00 00 00 00 00 00 00 00 00
00004638: 00 00 00 00 00 00 00 00 00 00 00 00 00 00 00 00
00004648: 00 00 00 00 00 00 00 00 00 00 00 00 00 00 00 00
00004658: 00 00 00 00 00 00 00 00 00 00 00 00 00 00 00 00
00004668: 00 00 00 00 00 00 00 00 00 00 00 00 00 00 00 00
00004678: 00 00 00 00 00 00 00 00 00 00 00 00 00 00 00 00
00004688: 00 00 00 00 00 00 00 00 00 00 00 00 00 00 00 00
00004698: 00 00 00 00 00 00 00 00 00 00 00 00 00 00 00 00
000046a8: 00 00 00 00 00 00 00 00 00 00 00 00 00 00 00 00
000046b8: 00 00 00 00 00 00 00 00 00 00 00 00 00 00 00 00
000046c8: 00 00 00 00 00 00 00 00 00 00 00 00 00 00 00 00
000046d8: 00 00 00 00 00 00 00 00 00 00 00 00 00 00 00 00
000046e8: 00 00 00 00 00 00 00 00 00 00 00 00 00 00 00 00
000046f8: 00 00 00 00 00 00 00 00 00 00 00 00 00 00 00 00
00004708: 00 00 00 00 00 00 00 00 00 00 00 00 00 00 00 00
00004718: 00 00 00 00 00 00 00 00 00 00 00 00 00 00 00 00
00004728: 00 00 00 00 00 00 00 00 00 00 00 00 00 00 00 00
00004738: 00 00 00 00 00 00 00 00 00 00 00 00 00 00 00 00
00004748: 00 00 00 00 00 00 00 00 00 00 00 00 00 00 00 00
00004758: 00 00 00 00 00 00 00 00 00 00 00 00 00 00 00 00
00004768: 00 00 00 00 00 00 00 00 00 00 00 00 00 00 00 00
00004778: 00 00 00 00 00 00 00 00 00 00 00 00 00 00 00 00
00004788: 00 00 00 00 00 00 00 00 00 00 00 00 00 00 00 00
00004798: 00 00 00 00 00 00 00 00 00 00 00 00 00 00 00 00
000047a8: 00 00 00 00 00 00 00 00 00 00 00 00 00 00 00 00
000047b8: 00 00 00 00 00 00 00 00 00 00 00 00 00 00 00 00
000047c8: 00 00 00 00 00 00 00 00 00 00 00 00 00 00 00 00
000047d8: 00 00 00 00 00 00 00 00 00 00 00 00 00 00 00 00
000047e8: 00 00 00 00 00 00 00 00 00 00 00 00 00 00 00 00
000047f8: 00 00 00 00 00 00 00 00 00 00 00 00 00 00 00 00
00004808: 00 00 00 00 00 00 00 00 00 00 00 00 00 00 00 00
00004818: 00 00 00 00 00 00 00 00 00 00 00 00 00 00 00 00
00004828: 00 00 00 00 00 00 00 00 00 00 00 00 00 00 00 00
00004838: 00 00 00 00 00 00 00 00 00 00 00 00 00 00 00 00
00004848: 00 00 00 00 00 00 00 00 00 00 00 00 00 00 00 00
00004858: 00 00 00 00 00 00 00 00 00 00 00 00 00 00 00 00
00004868: 00 00 00 00 00 00 00 00 00 00 00 00 00 00 00 00
00004878: 00 00 00 00 00 00 00 00 00 00 00 00 00 00 00 00
00004888: 00 00 00 00 00 00 00 00 00 00 00 00 00 00 00 00
00004898: 00 00 00 00 00 00 00 00 00 00 00 00 00 00 00 00
000048a8: 00 00 00 00 00 00 00 00 00 00 00 00 00 00 00 00
000048b8: 00 00 00 00 00 00 00 00 00 00 00 00 00 00 00 00
000048c8: 00 00 00 00 00 00 00 00 00 00 00 00 00 00 00 00
000048d8: 00 00 00 00 00 00 00 00 00 00 00 00 00 00 00 00
000048e8: 00 00 00 00 00 00 00 00 00 00 00 00 00 00 00 00
000048f8: 00 00 00 00 00 00 00 00 00 00 00 00 00 00 00 00
00004908: 00 00 00 00 00 00 00 00 00 00 00 00 00 00 00 00
00004918: 00 00 00 00 00 00 00 00 00 00 00 00 00 00 00 00
00004928: 00 00 00 00 00 00 00 00 00 00 00 00 00 00 00 00
00004938: 00 00 00 00 00 00 00 00 00 00 00 00 00 00 00 00
00004948: 00 00 00 00 00 00 00 00 00 00 00 00 00 00 00 00
00004958: 00 00 00 00 00 00 00 00 00 00 00 00 00 00 00 00
00004968: 00 00 00 00 00 00 00 00 00 00 00 00 00 00 00 00
00004978: 00 00 00 00 00 00 00 00 00 00 00 00 00 00 00 00
00004988: 00 00 00 00 00 00 00 00 00 00 00 00 00 00 00 00
00004998: 00 00 00 00 00 00 00 00 00 00 00 00 00 00 00 00
000049a8: 00 00 00 00 00 00 00 00 00 00 00 00 00 00 00 00
000049b8: 00 00 00 00 00 00 00 00 00 00 00 00 00 00 00 00
000049c8: 00 00 00 00 00 00 00 00 00 00 00 00 00 00 00 00
000049d8: 00 00 00 00 00 00 00 00 00 00 00 00 00 00 00 00
000049e8: 00 00 00 00 00 00 00 00 00 00 00 00 00 00 00 00
000049f8: 00 00 00 00 00 00 00 00 00 00 00 00 00 00 00 00
00004a08: 00 00 00 00 00 00 00 00 00 00 00 00 00 00 00 00
00004a18: 00 00 00 00 00 00 00 00 00 00 00 00 00 00 00 00
00004a28: 00 00 00 00 00 00 00 00 00 00 00 00 00 00 00 00
00004a38: 00 00 00 00 00 00 00 00 00 00 00 00 00 00 00 00
00004a48: 00 00 00 00 00 00 00 00 00 00 00 00 00 00 00 00
00004a58: 00 00 00 00 00 00 00 00 00 00 00 00 00 00 00 00
00004a68: 00 00 00 00 00 00 00 00 00 00 00 00 00 00 00 00
00004a78: 00 00 00 00 00 00 00 00 00 00 00 00 00 00 00 00
00004a88: 00 00 00 00 00 00 00 00 00 00 00 00 00 00 00 00
00004a98: 00 00 00 00 00 00 00 00 00 00 00 00 00 00 00 00
00004aa8: 00 00 00 00 00 00 00 00 00 00 00 00 00 00 00 00
00004ab8: 00 00 00 00 00 00 00 00 00 00 00 00 00 00 00 00
00004ac8: 00 00 00 00 00 00 00 00 00 00 00 00 00 00 00 00
00004ad8: 00 00 00 00 00 00 00 00 00 00 00 00 00 00 00 00
00004ae8: 00 00 00 00 00 00 00 00 00 00 00 00 00 00 00 00
00004af8: 00 00 00 00 00 00 00 00 00 00 00 00 00 00 00 00
00004b08: 00 00 00 00 00 00 00 00 00 00 00 00 00 00 00 00
00004b18: 00 00 00 00 00 00 00 00 00 00 00 00 00 00 00 00
00004b28: 00 00 00 00 00 00 00 00 00 00 00 00 00 00 00 00
00004b38: 00 00 00 00 00 00 00 00 00 00 00 00 00 00 00 00
00004b48: 00 00 00 00 00 00 00 00 00 00 00 00 00 00 00 00
00004b58: 00 00 00 00 00 00 00 00 00 00 00 00 00 00 00 00
00004b68: 00 00 00 00 00 00 00 00 00 00 00 00 00 00 00 00
00004b78: 00 00 00 00 00 00 00 00 00 00 00 00 00 00 00 00
00004b88: 00 00 00 00 00 00 00 00 00 00 00 00 00 00 00 00
00004b98: 00 00 00 00 00 00 00 00 00 00 00 00 00 00 00 00
00004ba8: 00 00 00 00 00 00 00 00 00 00 00 00 00 00 00 00
00004bb8: 00 00 00 00 00 00 00 00 00 00 00 00 00 00 00 00
00004bc8: 00 00 00 00 00 00 00 00 00 00 00 00 00 00 00 00
00004bd8: 00 00 00 00 00 00 00 00 00 00 00 00 00 00 00 00
00004be8: 00 00 00 00 00 00 00 00 00 00 00 00 00 00 00 00
00004bf8: 00 00 00 00 00 00 00 00 00 00 00 00 00 00 00 00
00004c08: 00 00 00 00 00 00 00 00 00 00 00 00 00 00 00 00
00004c18: 00 00 00 00 00 00 00 00 00 00 00 00 00 00 00 00
00004c28: 00 00 00 00 00 00 00 00 00 00 00 00 00 00 00 00
00004c38: 00 00 00 00 00 00 00 00 00 00 00 00 00 00 00 00
00004c48: 00 00 00 00 00 00 00 00 00 00 00 00 00 00 00 00
00004c58: 00 00 00 00 00 00 00 00 00 00 00 00 00 00 00 00
00004c68: 00 00 00 00 00 00 00 00 00 00 00 00 00 00 00 00
00004c78: 00 00 00 00 00 00 00 00 00 00 00 00 00 00 00 00
00004c88: 00 00 00 00 00 00 00 00 00 00 00 00 00 00 00 00
00004c98: 00 00 00 00 00 00 00 00 00 00 00 00 00 00 00 00
00004ca8: 00 00 00 00 00 00 00 00 00 00 00 00 00 00 00 00
00004cb8: 00 00 00 00 00 00 00 00 00 00 00 00 00 00 00 00
00004cc8: 00 00 00 00 00 00 00 00 00 00 00 00 00 00 00 00
00004cd8: 00 00 00 00 00 00 00 00 00 00 00 00 00 00 00 00
00004ce8: 00 00 00 00 00 00 00 00 00 00 00 00 00 00 00 00
00004cf8: 00 00 00 00 00 00 00 00 00 00 00 00 00 00 00 00
00004d08: 00 00 00 00 00 00 00 00 00 00 00 00 00 00 00 00
00004d18: 00 00 00 00 00 00 00 00 00 00 00 00 00 00 00 00
00004d28: 00 00 00 00 00 00 00 00 00 00 00 00 00 00 00 00
00004d38: 00 00 00 00 00 00 00 00 00 00 00 00 00 00 00 00
00004d48: 00 00 00 00 00 00 00 00 00 00 00 00 00 00 00 00
00004d58: 00 00 00 00 00 00 00 00 00 00 00 00 00 00 00 00
00004d68: 00 00 00 00 00 00 00 00 00 00 00 00 00 00 00 00
00004d78: 00 00 00 00 00 00 00 00 00 00 00 00 00 00 00 00
00004d88: 00 00 00 00 00 00 00 00 00 00 00 00 00 00 00 00
00004d98: 00 00 00 00 00 00 00 00 00 00 00 00 00 00 00 00
00004da8: 00 00 00 00 00 00 00 00 00 00 00 00 00 00 00 00
00004db8: 00 00 00 00 00 00 00 00 00 00 00 00 00 00 00 00
00004dc8: 00 00 00 00 00 00 00 00 00 00 00 00 00 00 00 00
00004dd8: 00 00 00 00 00 00 00 00 00 00 00 00 00 00 00 00
00004de8: 00 00 00 00 00 00 00 00 00 00 00 00 00 00 00 00
00004df8: 00 00 00 00 00 00 00 00 00 00 00 00 00 00 00 00
00004e08: 00 00 00 00 00 00 00 00 00 00 00 00 00 00 00 00
00004e18: 00 00 00 00 00 00 00 00 00 00 00 00 00 00 00 00
00004e28: 00 00 00 00 00 00 00 00 00 00 00 00 00 00 00 00
00004e38: 00 00 00 00 00 00 00 00 00 00 00 00 00 00 00 00
00004e48: 00 00 00 00 00 00 00 00 00 00 00 00 00 00 00 00
00004e58: 00 00 00 00 00 00 00 00 00 00 00 00 00 00 00 00
00004e68: 00 00 00 00 00 00 00 00 00 00 00 00 00 00 00 00
00004e78: 00 00 00 00 00 00 00 00 00 00 00 00 00 00 00 00
00004e88: 00 00 00 00 00 00 00 00 00 00 00 00 00 00 00 00
00004e98: 00 00 00 00 00 00 00 00 00 00 00 00 00 00 00 00
00004ea8: 00 00 00 00 00 00 00 00 00 00 00 00 00 00 00 00
00004eb8: 00 00 00 00 00 00 00 00 00 00 00 00 00 00 00 00
00004ec8: 00 00 00 00 00 00 00 00 00 00 00 00 00 00 00 00
00004ed8: 00 00 00 00 00 00 00 00 00 00 00 00 00 00 00 00
00004ee8: 00 00 00 00 00 00 00 00 00 00 00 00 00 00 00 00
00004ef8: 00 00 00 00 00 00 00 00 00 00 00 00 00 00 00 00
00004f08: 00 00 00 00 00 00 00 00 00 00 00 00 00 00 00 00
00004f18: 00 00 00 00 00 00 00 00 00 00 00 00 00 00 00 00
00004f28: 00 00 00 00 00 00 00 00 00 00 00 00 00 00 00 00
00004f38: 00 00 00 00 00 00 00 00 00 00 00 00 00 00 00 00
00004f48: 00 00 00 00 00 00 00 00 00 00 00 00 00 00 00 00
00004f58: 00 00 00 00 00 00 00 00 00 00 00 00 00 00 00 00
00004f68: 00 00 00 00 00 00 00 00 00 00 00 00 00 00 00 00
00004f78: 00 00 00 00 00 00 00 00 00 00 00 00 00 00 00 00
00004f88: 00 00 00 00 00 00 00 00 00 00 00 00 00 00 00 00
00004f98: 00 00 00 00 00 00 00 00 00 00 00 00 00 00 00 00
00004fa8: 00 00 00 00 00 00 00 00 00 00 00 00 00 00 00 00
00004fb8: 00 00 00 00 00 00 00 00 00 00 00 00 00 00 00 00
00004fc8: 00 00 00 00 00 00 00 00 00 00 00 00 00 00 00 00
00004fd8: 00 00 00 00 00 00 00 00 00 00 00 00 00 00 00 00
00004fe8: 00 00 00 00 00 00 00 00 00 00 00 00 00 00 00 00
00004ff8: 00 00 00 00 00 00 00 00 00 00 00 00 00 00 00 00
00005008: 00 00 00 00 00 00 00 00 00 00 00 00 00 00 00 00
00005018: 00 00 00 00 00 00 00 00 00 00 00 00 00 00 00 00
00005028: 00 00 00 00 00 00 00 00 00 00 00 00 00 00 00 00
00005038: 00 00 00 00 00 00 00 00 00 00 00 00 00 00 00 00
00005048: 00 00 00 00 00 00 00 00 00 00 00 00 00 00 00 00
00005058: 00 00 00 00 00 00 00 00 00 00 00 00 00 00 00 00
00005068: 00 00 00 00 00 00 00 00 00 00 00 00 00 00 00 00
00005078: 00 00 00 00 00 00 00 00 00 00 00 00 00 00 00 00
00005088: 00 00 00 00 00 00 00 00 00 00 00 00 00 00 00 00
00005098: 00 00 00 00 00 00 00 00 00 00 00 00 00 00 00 00

