ARM GAS  C:\Users\CHUNGN~1\AppData\Local\Temp\ccK4RJCg.s 			page 1


   1              		.syntax unified
   2              		.cpu cortex-m0plus
   3              		.fpu softvfp
   4              		.eabi_attribute 20, 1
   5              		.eabi_attribute 21, 1
   6              		.eabi_attribute 23, 3
   7              		.eabi_attribute 24, 1
   8              		.eabi_attribute 25, 1
   9              		.eabi_attribute 26, 1
  10              		.eabi_attribute 30, 1
  11              		.eabi_attribute 34, 0
  12              		.eabi_attribute 18, 4
  13              		.thumb
  14              		.syntax unified
  15              		.file	"CapSense_ADC_Adc_INT.c"
  16              		.text
  17              	.Ltext0:
  18              		.cfi_sections	.debug_frame
  19              		.global	__aeabi_uidiv
  20              		.global	__aeabi_idiv
  21              		.section	.text.CapSense_ADC_AdcIntrHandler,"ax",%progbits
  22              		.align	2
  23              		.global	CapSense_ADC_AdcIntrHandler
  24              		.code	16
  25              		.thumb_func
  26              		.type	CapSense_ADC_AdcIntrHandler, %function
  27              	CapSense_ADC_AdcIntrHandler:
  28              	.LFB1:
  29              		.file 1 "Generated_Source\\PSoC4\\CapSense_ADC_Adc_INT.c"
   1:Generated_Source\PSoC4/CapSense_ADC_Adc_INT.c **** /***************************************************************************//**
   2:Generated_Source\PSoC4/CapSense_ADC_Adc_INT.c **** * \file CapSense_ADC_Adc_INT.c
   3:Generated_Source\PSoC4/CapSense_ADC_Adc_INT.c **** * \version 4.0
   4:Generated_Source\PSoC4/CapSense_ADC_Adc_INT.c **** *
   5:Generated_Source\PSoC4/CapSense_ADC_Adc_INT.c **** * \brief
   6:Generated_Source\PSoC4/CapSense_ADC_Adc_INT.c **** *   This file contains the source code for implementation of the CapSense 
   7:Generated_Source\PSoC4/CapSense_ADC_Adc_INT.c **** *   component ADC functionality Interrupt Service Routine (ISR).
   8:Generated_Source\PSoC4/CapSense_ADC_Adc_INT.c **** *
   9:Generated_Source\PSoC4/CapSense_ADC_Adc_INT.c **** * \see CapSense P4 v4.0 Datasheet
  10:Generated_Source\PSoC4/CapSense_ADC_Adc_INT.c **** * 
  11:Generated_Source\PSoC4/CapSense_ADC_Adc_INT.c **** *//*****************************************************************************
  12:Generated_Source\PSoC4/CapSense_ADC_Adc_INT.c **** * Copyright (2016-2017), Cypress Semiconductor Corporation.
  13:Generated_Source\PSoC4/CapSense_ADC_Adc_INT.c **** ********************************************************************************
  14:Generated_Source\PSoC4/CapSense_ADC_Adc_INT.c **** * This software is owned by Cypress Semiconductor Corporation (Cypress) and is
  15:Generated_Source\PSoC4/CapSense_ADC_Adc_INT.c **** * protected by and subject to worldwide patent protection (United States and
  16:Generated_Source\PSoC4/CapSense_ADC_Adc_INT.c **** * foreign), United States copyright laws and international treaty provisions.
  17:Generated_Source\PSoC4/CapSense_ADC_Adc_INT.c **** * Cypress hereby grants to licensee a personal, non-exclusive, non-transferable
  18:Generated_Source\PSoC4/CapSense_ADC_Adc_INT.c **** * license to copy, use, modify, create derivative works of, and compile the
  19:Generated_Source\PSoC4/CapSense_ADC_Adc_INT.c **** * Cypress Source Code and derivative works for the sole purpose of creating
  20:Generated_Source\PSoC4/CapSense_ADC_Adc_INT.c **** * custom software in support of licensee product to be used only in conjunction
  21:Generated_Source\PSoC4/CapSense_ADC_Adc_INT.c **** * with a Cypress integrated circuit as specified in the applicable agreement.
  22:Generated_Source\PSoC4/CapSense_ADC_Adc_INT.c **** * Any reproduction, modification, translation, compilation, or representation of
  23:Generated_Source\PSoC4/CapSense_ADC_Adc_INT.c **** * this software except as specified above is prohibited without the express
  24:Generated_Source\PSoC4/CapSense_ADC_Adc_INT.c **** * written permission of Cypress.
  25:Generated_Source\PSoC4/CapSense_ADC_Adc_INT.c **** *
  26:Generated_Source\PSoC4/CapSense_ADC_Adc_INT.c **** * Disclaimer: CYPRESS MAKES NO WARRANTY OF ANY KIND, EXPRESS OR IMPLIED, WITH
  27:Generated_Source\PSoC4/CapSense_ADC_Adc_INT.c **** * REGARD TO THIS MATERIAL, INCLUDING, BUT NOT LIMITED TO, THE IMPLIED
  28:Generated_Source\PSoC4/CapSense_ADC_Adc_INT.c **** * WARRANTIES OF MERCHANTABILITY AND FITNESS FOR A PARTICULAR PURPOSE.
ARM GAS  C:\Users\CHUNGN~1\AppData\Local\Temp\ccK4RJCg.s 			page 2


  29:Generated_Source\PSoC4/CapSense_ADC_Adc_INT.c **** * Cypress reserves the right to make changes without further notice to the
  30:Generated_Source\PSoC4/CapSense_ADC_Adc_INT.c **** * materials described herein. Cypress does not assume any liability arising out
  31:Generated_Source\PSoC4/CapSense_ADC_Adc_INT.c **** * of the application or use of any product or circuit described herein. Cypress
  32:Generated_Source\PSoC4/CapSense_ADC_Adc_INT.c **** * does not authorize its products for use as critical components in life-support
  33:Generated_Source\PSoC4/CapSense_ADC_Adc_INT.c **** * systems where a malfunction or failure may reasonably be expected to result in
  34:Generated_Source\PSoC4/CapSense_ADC_Adc_INT.c **** * significant injury to the user. The inclusion of Cypress' product in a life-
  35:Generated_Source\PSoC4/CapSense_ADC_Adc_INT.c **** * support systems application implies that the manufacturer assumes all risk of
  36:Generated_Source\PSoC4/CapSense_ADC_Adc_INT.c **** * such use and in doing so indemnifies Cypress against all charges. Use may be
  37:Generated_Source\PSoC4/CapSense_ADC_Adc_INT.c **** * limited by and subject to the applicable Cypress software license agreement.
  38:Generated_Source\PSoC4/CapSense_ADC_Adc_INT.c **** *******************************************************************************/
  39:Generated_Source\PSoC4/CapSense_ADC_Adc_INT.c **** #include "cytypes.h"
  40:Generated_Source\PSoC4/CapSense_ADC_Adc_INT.c **** #include "cyfitter.h"
  41:Generated_Source\PSoC4/CapSense_ADC_Adc_INT.c **** #include "CyLib.h"
  42:Generated_Source\PSoC4/CapSense_ADC_Adc_INT.c **** #include "CapSense_ADC_Adc.h"
  43:Generated_Source\PSoC4/CapSense_ADC_Adc_INT.c **** #include "cyapicallbacks.h"
  44:Generated_Source\PSoC4/CapSense_ADC_Adc_INT.c **** 
  45:Generated_Source\PSoC4/CapSense_ADC_Adc_INT.c **** extern uint16 CapSense_ADC_AdcVref_mV;
  46:Generated_Source\PSoC4/CapSense_ADC_Adc_INT.c **** 
  47:Generated_Source\PSoC4/CapSense_ADC_Adc_INT.c **** /**
  48:Generated_Source\PSoC4/CapSense_ADC_Adc_INT.c **** * \if SECTION_ADC_INTERRUPT
  49:Generated_Source\PSoC4/CapSense_ADC_Adc_INT.c **** * \addtogroup group_capsense_interrupt
  50:Generated_Source\PSoC4/CapSense_ADC_Adc_INT.c **** * \{
  51:Generated_Source\PSoC4/CapSense_ADC_Adc_INT.c **** */
  52:Generated_Source\PSoC4/CapSense_ADC_Adc_INT.c **** 
  53:Generated_Source\PSoC4/CapSense_ADC_Adc_INT.c **** #if (CapSense_ADC_ADC_EN)    
  54:Generated_Source\PSoC4/CapSense_ADC_Adc_INT.c ****     
  55:Generated_Source\PSoC4/CapSense_ADC_Adc_INT.c **** /*******************************************************************************
  56:Generated_Source\PSoC4/CapSense_ADC_Adc_INT.c **** * Function Name: CapSense_ADC_AdcIntrHandler
  57:Generated_Source\PSoC4/CapSense_ADC_Adc_INT.c **** ****************************************************************************//**
  58:Generated_Source\PSoC4/CapSense_ADC_Adc_INT.c **** *
  59:Generated_Source\PSoC4/CapSense_ADC_Adc_INT.c **** * \brief
  60:Generated_Source\PSoC4/CapSense_ADC_Adc_INT.c **** *   This is an internal ISR function for the ADC implementation.
  61:Generated_Source\PSoC4/CapSense_ADC_Adc_INT.c **** *
  62:Generated_Source\PSoC4/CapSense_ADC_Adc_INT.c **** * \details
  63:Generated_Source\PSoC4/CapSense_ADC_Adc_INT.c **** *   This ISR is triggered after a measurement completes or during the calibration
  64:Generated_Source\PSoC4/CapSense_ADC_Adc_INT.c **** *   phases.
  65:Generated_Source\PSoC4/CapSense_ADC_Adc_INT.c **** *   
  66:Generated_Source\PSoC4/CapSense_ADC_Adc_INT.c **** *   To use the entry or exit callbacks, define
  67:Generated_Source\PSoC4/CapSense_ADC_Adc_INT.c **** *   CapSense_ADC_ADC_[ENTRY|EXIT]_CALLBACK
  68:Generated_Source\PSoC4/CapSense_ADC_Adc_INT.c **** *   and define the corresponding function, 
  69:Generated_Source\PSoC4/CapSense_ADC_Adc_INT.c **** *   CapSense_ADC_Adc[Entry|Exit]Callback().
  70:Generated_Source\PSoC4/CapSense_ADC_Adc_INT.c **** *
  71:Generated_Source\PSoC4/CapSense_ADC_Adc_INT.c **** *******************************************************************************/
  72:Generated_Source\PSoC4/CapSense_ADC_Adc_INT.c **** CY_ISR(CapSense_ADC_AdcIntrHandler)
  73:Generated_Source\PSoC4/CapSense_ADC_Adc_INT.c **** {
  30              		.loc 1 73 0
  31              		.cfi_startproc
  32              		@ args = 0, pretend = 0, frame = 0
  33              		@ frame_needed = 0, uses_anonymous_args = 0
  34 0000 F0B5     		push	{r4, r5, r6, r7, lr}
  35              		.cfi_def_cfa_offset 20
  36              		.cfi_offset 4, -20
  37              		.cfi_offset 5, -16
  38              		.cfi_offset 6, -12
  39              		.cfi_offset 7, -8
  40              		.cfi_offset 14, -4
  41 0002 4746     		mov	r7, r8
ARM GAS  C:\Users\CHUNGN~1\AppData\Local\Temp\ccK4RJCg.s 			page 3


  42 0004 80B4     		push	{r7}
  43              		.cfi_def_cfa_offset 24
  44              		.cfi_offset 8, -24
  74:Generated_Source\PSoC4/CapSense_ADC_Adc_INT.c ****     static uint16 tVssa2Vref;
  75:Generated_Source\PSoC4/CapSense_ADC_Adc_INT.c ****     static uint16 tFull;
  76:Generated_Source\PSoC4/CapSense_ADC_Adc_INT.c ****     static uint16 vMax_mV;
  77:Generated_Source\PSoC4/CapSense_ADC_Adc_INT.c **** 
  78:Generated_Source\PSoC4/CapSense_ADC_Adc_INT.c ****     uint32 tmpResult;
  79:Generated_Source\PSoC4/CapSense_ADC_Adc_INT.c ****     uint32 polarity;
  80:Generated_Source\PSoC4/CapSense_ADC_Adc_INT.c ****     uint8 adcFsmStatus;
  81:Generated_Source\PSoC4/CapSense_ADC_Adc_INT.c ****     uint8 tmpChId;
  82:Generated_Source\PSoC4/CapSense_ADC_Adc_INT.c **** 
  83:Generated_Source\PSoC4/CapSense_ADC_Adc_INT.c ****     #if (CapSense_ADC_ADC_FULLRANGE_MODE == CapSense_ADC_ADC_MEASURE_MODE)
  84:Generated_Source\PSoC4/CapSense_ADC_Adc_INT.c ****         uint8  interruptState;
  85:Generated_Source\PSoC4/CapSense_ADC_Adc_INT.c ****         uint32 newRegValue;
  86:Generated_Source\PSoC4/CapSense_ADC_Adc_INT.c **** 
  87:Generated_Source\PSoC4/CapSense_ADC_Adc_INT.c ****         static uint16 tVdda2Vref;
  88:Generated_Source\PSoC4/CapSense_ADC_Adc_INT.c ****         static uint16 tRecover;
  89:Generated_Source\PSoC4/CapSense_ADC_Adc_INT.c ****     #endif /* (CapSense_ADC_ADC_FULLRANGE_MODE == CapSense_ADC_ADC_MEASURE_MODE) */
  90:Generated_Source\PSoC4/CapSense_ADC_Adc_INT.c **** 
  91:Generated_Source\PSoC4/CapSense_ADC_Adc_INT.c ****     #ifdef CapSense_ADC_ADC_ENTRY_CALLBACK
  92:Generated_Source\PSoC4/CapSense_ADC_Adc_INT.c ****         CapSense_ADC_AdcEntryCallback();
  93:Generated_Source\PSoC4/CapSense_ADC_Adc_INT.c ****     #endif /* CapSense_ADC_ADC_ENTRY_CALLBACK */
  94:Generated_Source\PSoC4/CapSense_ADC_Adc_INT.c **** 
  95:Generated_Source\PSoC4/CapSense_ADC_Adc_INT.c ****     /* Un-request the interrupt. */
  96:Generated_Source\PSoC4/CapSense_ADC_Adc_INT.c ****     CY_SET_REG32(CapSense_ADC_AdcINTR_PTR, CapSense_ADC_AdcINTERRUPT_SET);
  45              		.loc 1 96 0
  46 0006 8022     		movs	r2, #128
  47 0008 5200     		lsls	r2, r2, #1
  48 000a 5D4B     		ldr	r3, .L14
  49 000c 1A60     		str	r2, [r3]
  97:Generated_Source\PSoC4/CapSense_ADC_Adc_INT.c ****     CY_SET_REG32(CapSense_ADC_AdcINTR_MASK_PTR, CapSense_ADC_AdcINTERRUPT_CLEAR);
  50              		.loc 1 97 0
  51 000e 0022     		movs	r2, #0
  52 0010 5C4B     		ldr	r3, .L14+4
  53 0012 1A60     		str	r2, [r3]
  98:Generated_Source\PSoC4/CapSense_ADC_Adc_INT.c ****     
  99:Generated_Source\PSoC4/CapSense_ADC_Adc_INT.c ****     /* Read ADC result and check for ADC_ABORT or ADC_OVERFLOW flags */
 100:Generated_Source\PSoC4/CapSense_ADC_Adc_INT.c ****     tmpResult = CY_GET_REG32(CapSense_ADC_AdcADC_RES_PTR);
  54              		.loc 1 100 0
  55 0014 5C4B     		ldr	r3, .L14+8
  56 0016 1C68     		ldr	r4, [r3]
  57              	.LVL0:
 101:Generated_Source\PSoC4/CapSense_ADC_Adc_INT.c ****     if (0uL == (tmpResult & CapSense_ADC_AdcADC_RES_ABORT_MASK))
  58              		.loc 1 101 0
  59 0018 002C     		cmp	r4, #0
  60 001a 00DA     		bge	.LCB26
  61 001c AAE0     		b	.L2	@long jump
  62              	.LCB26:
 102:Generated_Source\PSoC4/CapSense_ADC_Adc_INT.c ****     {
 103:Generated_Source\PSoC4/CapSense_ADC_Adc_INT.c ****         if (0uL == (tmpResult & CapSense_ADC_AdcADC_RES_OVERFLOW_MASK))
  63              		.loc 1 103 0
  64 001e 6300     		lsls	r3, r4, #1
  65 0020 00D5     		bpl	.LCB30
  66 0022 A3E0     		b	.L3	@long jump
  67              	.LCB30:
 104:Generated_Source\PSoC4/CapSense_ADC_Adc_INT.c ****         {
ARM GAS  C:\Users\CHUNGN~1\AppData\Local\Temp\ccK4RJCg.s 			page 4


 105:Generated_Source\PSoC4/CapSense_ADC_Adc_INT.c ****             /* Read ADC status, define polarity, value and ChId */
 106:Generated_Source\PSoC4/CapSense_ADC_Adc_INT.c ****             adcFsmStatus = (uint8)(CapSense_ADC_dsRam.adcStatus & CapSense_ADC_AdcSTATUS_FSM_MASK);
  68              		.loc 1 106 0
  69 0024 594B     		ldr	r3, .L14+12
  70 0026 187F     		ldrb	r0, [r3, #28]
  71 0028 0F23     		movs	r3, #15
  72 002a 0200     		movs	r2, r0
  73 002c 9A43     		bics	r2, r3
  74 002e 1300     		movs	r3, r2
  75              	.LVL1:
 107:Generated_Source\PSoC4/CapSense_ADC_Adc_INT.c ****             /* Select the polarity bit */
 108:Generated_Source\PSoC4/CapSense_ADC_Adc_INT.c ****             polarity = tmpResult & CapSense_ADC_AdcADC_RES_HSCMPPOL_MASK;
  76              		.loc 1 108 0
  77 0030 8022     		movs	r2, #128
  78 0032 5202     		lsls	r2, r2, #9
  79 0034 2240     		ands	r2, r4
  80 0036 1100     		movs	r1, r2
  81              	.LVL2:
 109:Generated_Source\PSoC4/CapSense_ADC_Adc_INT.c ****             /* Select the result value */
 110:Generated_Source\PSoC4/CapSense_ADC_Adc_INT.c ****             tmpResult &= CapSense_ADC_AdcADC_RES_VALUE_MASK;
  82              		.loc 1 110 0
  83 0038 2204     		lsls	r2, r4, #16
  84 003a 120C     		lsrs	r2, r2, #16
  85              	.LVL3:
 111:Generated_Source\PSoC4/CapSense_ADC_Adc_INT.c ****             tmpChId = CapSense_ADC_dsRam.adcStatus & (uint8)(CapSense_ADC_AdcSTATUS_LASTCHAN_MASK);
  86              		.loc 1 111 0
  87 003c 0F25     		movs	r5, #15
  88 003e 0540     		ands	r5, r0
  89              	.LVL4:
 112:Generated_Source\PSoC4/CapSense_ADC_Adc_INT.c **** 
 113:Generated_Source\PSoC4/CapSense_ADC_Adc_INT.c ****             /* ADC could have been converting or calibrating; handle each differently. */
 114:Generated_Source\PSoC4/CapSense_ADC_Adc_INT.c ****             switch (adcFsmStatus)
  90              		.loc 1 114 0
  91 0040 202B     		cmp	r3, #32
  92 0042 51D0     		beq	.L5
  93 0044 02D8     		bhi	.L6
  94 0046 102B     		cmp	r3, #16
  95 0048 41D0     		beq	.L7
  96 004a 96E0     		b	.L1
  97              	.L6:
  98 004c 302B     		cmp	r3, #48
  99 004e 64D0     		beq	.L8
 100 0050 402B     		cmp	r3, #64
 101 0052 00D0     		beq	.LCB64
 102 0054 91E0     		b	.L1	@long jump
 103              	.LCB64:
 115:Generated_Source\PSoC4/CapSense_ADC_Adc_INT.c ****             {
 116:Generated_Source\PSoC4/CapSense_ADC_Adc_INT.c ****             case CapSense_ADC_AdcSTATUS_CONVERTING:
 117:Generated_Source\PSoC4/CapSense_ADC_Adc_INT.c ****                 /*
 118:Generated_Source\PSoC4/CapSense_ADC_Adc_INT.c ****                 * After the converting will calculate an ADC result in mV depending on
 119:Generated_Source\PSoC4/CapSense_ADC_Adc_INT.c ****                 * sourcing or sinking mode. Checks for a saturation in all modes.
 120:Generated_Source\PSoC4/CapSense_ADC_Adc_INT.c ****                 */
 121:Generated_Source\PSoC4/CapSense_ADC_Adc_INT.c ****                 /* HSCMP polarity is 0:sink, 1:source */
 122:Generated_Source\PSoC4/CapSense_ADC_Adc_INT.c ****                 if(0uL != polarity) /* Sourcing */
 104              		.loc 1 122 0
 105 0056 0029     		cmp	r1, #0
 106 0058 0ED0     		beq	.L10
ARM GAS  C:\Users\CHUNGN~1\AppData\Local\Temp\ccK4RJCg.s 			page 5


 123:Generated_Source\PSoC4/CapSense_ADC_Adc_INT.c ****                 {
 124:Generated_Source\PSoC4/CapSense_ADC_Adc_INT.c ****                     /* Saturate result at tVssa2Vref */
 125:Generated_Source\PSoC4/CapSense_ADC_Adc_INT.c ****                     tmpResult = (tmpResult > (uint32)tVssa2Vref) ? (uint32)tVssa2Vref : tmpResult;
 107              		.loc 1 125 0
 108 005a 4D4B     		ldr	r3, .L14+16
 109              	.LVL5:
 110 005c 1B88     		ldrh	r3, [r3]
 111 005e 9A42     		cmp	r2, r3
 112 0060 00D9     		bls	.L11
 113 0062 1A00     		movs	r2, r3
 114              	.LVL6:
 115              	.L11:
 126:Generated_Source\PSoC4/CapSense_ADC_Adc_INT.c ****                     /* Scale result to Resolution range with rounding*/
 127:Generated_Source\PSoC4/CapSense_ADC_Adc_INT.c ****                     tmpResult = ((((uint32)tVssa2Vref - tmpResult) * CapSense_ADC_AdcRES_MAX) +
 116              		.loc 1 127 0
 117 0064 9A1A     		subs	r2, r3, r2
 118              	.LVL7:
 119 0066 9002     		lsls	r0, r2, #10
 120              	.LVL8:
 121 0068 801A     		subs	r0, r0, r2
 128:Generated_Source\PSoC4/CapSense_ADC_Adc_INT.c ****                                  ((uint32)tFull >> 1uL)) / (uint32)tFull;
 122              		.loc 1 128 0
 123 006a 494B     		ldr	r3, .L14+16
 124 006c 5988     		ldrh	r1, [r3, #2]
 125              	.LVL9:
 126 006e 4C08     		lsrs	r4, r1, #1
 127              	.LVL10:
 127:Generated_Source\PSoC4/CapSense_ADC_Adc_INT.c ****                                  ((uint32)tFull >> 1uL)) / (uint32)tFull;
 128              		.loc 1 127 0
 129 0070 0019     		adds	r0, r0, r4
 130 0072 FFF7FEFF 		bl	__aeabi_uidiv
 131              	.LVL11:
 132 0076 16E0     		b	.L12
 133              	.LVL12:
 134              	.L10:
 129:Generated_Source\PSoC4/CapSense_ADC_Adc_INT.c ****                 }
 130:Generated_Source\PSoC4/CapSense_ADC_Adc_INT.c ****                 else /* Sinking */
 131:Generated_Source\PSoC4/CapSense_ADC_Adc_INT.c ****                 {
 132:Generated_Source\PSoC4/CapSense_ADC_Adc_INT.c ****                     #if (CapSense_ADC_ADC_FULLRANGE_MODE == CapSense_ADC_ADC_MEASURE_MODE)
 133:Generated_Source\PSoC4/CapSense_ADC_Adc_INT.c ****                         /* Scale result with sink/source mismatch with rounding */
 134:Generated_Source\PSoC4/CapSense_ADC_Adc_INT.c ****                         tmpResult = (((uint32)((uint32)tRecover << 1u) * tmpResult) + ((uint32)tVss
 135              		.loc 1 134 0
 136 0078 454E     		ldr	r6, .L14+16
 137 007a B088     		ldrh	r0, [r6, #4]
 138 007c 4000     		lsls	r0, r0, #1
 139 007e 4243     		muls	r2, r0
 140              	.LVL13:
 141 0080 3488     		ldrh	r4, [r6]
 142              	.LVL14:
 143 0082 6008     		lsrs	r0, r4, #1
 144 0084 1018     		adds	r0, r2, r0
 145 0086 2100     		movs	r1, r4
 146              	.LVL15:
 147 0088 FFF7FEFF 		bl	__aeabi_uidiv
 148              	.LVL16:
 135:Generated_Source\PSoC4/CapSense_ADC_Adc_INT.c ****                         /* Saturate result at t_Vdda2Vref*/
 136:Generated_Source\PSoC4/CapSense_ADC_Adc_INT.c ****                         tmpResult = (tmpResult > (uint32)tVdda2Vref) ? (uint32)tVdda2Vref : tmpResu
ARM GAS  C:\Users\CHUNGN~1\AppData\Local\Temp\ccK4RJCg.s 			page 6


 149              		.loc 1 136 0
 150 008c F388     		ldrh	r3, [r6, #6]
 151 008e 9842     		cmp	r0, r3
 152 0090 00D9     		bls	.L13
 153 0092 1800     		movs	r0, r3
 154              	.LVL17:
 155              	.L13:
 137:Generated_Source\PSoC4/CapSense_ADC_Adc_INT.c ****                         /* Scale result to Resolution range with rounding */
 138:Generated_Source\PSoC4/CapSense_ADC_Adc_INT.c ****                         tmpResult = ((((uint32)tVssa2Vref + tmpResult) * CapSense_ADC_AdcRES_MAX)  
 156              		.loc 1 138 0
 157 0094 2018     		adds	r0, r4, r0
 158              	.LVL18:
 159 0096 8302     		lsls	r3, r0, #10
 160 0098 181A     		subs	r0, r3, r0
 139:Generated_Source\PSoC4/CapSense_ADC_Adc_INT.c ****                                      ((uint32)tFull >> 1uL)) / (uint32)tFull;
 161              		.loc 1 139 0
 162 009a 3D4B     		ldr	r3, .L14+16
 163 009c 5988     		ldrh	r1, [r3, #2]
 164 009e 4B08     		lsrs	r3, r1, #1
 138:Generated_Source\PSoC4/CapSense_ADC_Adc_INT.c ****                                      ((uint32)tFull >> 1uL)) / (uint32)tFull;
 165              		.loc 1 138 0
 166 00a0 C018     		adds	r0, r0, r3
 167 00a2 FFF7FEFF 		bl	__aeabi_uidiv
 168              	.LVL19:
 169              	.L12:
 140:Generated_Source\PSoC4/CapSense_ADC_Adc_INT.c ****                     #else /* (CapSense_ADC_ADC_FULLRANGE_MODE == CapSense_ADC_ADC_MEASURE_MODE) */
 141:Generated_Source\PSoC4/CapSense_ADC_Adc_INT.c ****                         /* In vref mode, we are not supposed to be sinking. Saturate */
 142:Generated_Source\PSoC4/CapSense_ADC_Adc_INT.c ****                         tmpResult = (uint32)tVssa2Vref * CapSense_ADC_AdcRES_MAX / (uint32)tFull;
 143:Generated_Source\PSoC4/CapSense_ADC_Adc_INT.c ****                     #endif /* (CapSense_ADC_ADC_FULLRANGE_MODE == CapSense_ADC_ADC_MEASURE_MODE) */
 144:Generated_Source\PSoC4/CapSense_ADC_Adc_INT.c ****                 }
 145:Generated_Source\PSoC4/CapSense_ADC_Adc_INT.c ****                 /* Store ADC result code */
 146:Generated_Source\PSoC4/CapSense_ADC_Adc_INT.c ****                 CapSense_ADC_dsRam.adcCode [tmpChId] = (uint16)(tmpResult);        
 170              		.loc 1 146 0
 171 00a6 394E     		ldr	r6, .L14+12
 172 00a8 2C00     		movs	r4, r5
 173 00aa 0C34     		adds	r4, r4, #12
 174 00ac 6400     		lsls	r4, r4, #1
 175 00ae 3319     		adds	r3, r6, r4
 176 00b0 5880     		strh	r0, [r3, #2]
 147:Generated_Source\PSoC4/CapSense_ADC_Adc_INT.c ****                 /* Scale result to mV with rounding and store it */
 148:Generated_Source\PSoC4/CapSense_ADC_Adc_INT.c ****                 tmpResult = ((uint32)vMax_mV * tmpResult) / CapSense_ADC_AdcRES_MAX;
 177              		.loc 1 148 0
 178 00b2 374B     		ldr	r3, .L14+16
 179 00b4 1B89     		ldrh	r3, [r3, #8]
 180 00b6 5843     		muls	r0, r3
 181              	.LVL20:
 182 00b8 3649     		ldr	r1, .L14+20
 183 00ba FFF7FEFF 		bl	__aeabi_uidiv
 184              	.LVL21:
 149:Generated_Source\PSoC4/CapSense_ADC_Adc_INT.c ****                 CapSense_ADC_dsRam.adcResult[tmpChId] = (uint16)(tmpResult);
 185              		.loc 1 149 0
 186 00be 3053     		strh	r0, [r6, r4]
 150:Generated_Source\PSoC4/CapSense_ADC_Adc_INT.c ****                 CapSense_ADC_SetAdcChannel(tmpChId, CapSense_ADC_AdcCHAN_DISCONNECT);
 187              		.loc 1 150 0
 188 00c0 0021     		movs	r1, #0
 189 00c2 2800     		movs	r0, r5
 190              	.LVL22:
ARM GAS  C:\Users\CHUNGN~1\AppData\Local\Temp\ccK4RJCg.s 			page 7


 191 00c4 FFF7FEFF 		bl	CapSense_ADC_SetAdcChannel
 192              	.LVL23:
 151:Generated_Source\PSoC4/CapSense_ADC_Adc_INT.c ****                 CapSense_ADC_dsRam.adcStatus = CapSense_ADC_AdcSTATUS_IDLE;
 193              		.loc 1 151 0
 194 00c8 0023     		movs	r3, #0
 195 00ca 3377     		strb	r3, [r6, #28]
 152:Generated_Source\PSoC4/CapSense_ADC_Adc_INT.c ****                 break;
 196              		.loc 1 152 0
 197 00cc 55E0     		b	.L1
 198              	.LVL24:
 199              	.L7:
 153:Generated_Source\PSoC4/CapSense_ADC_Adc_INT.c **** 
 154:Generated_Source\PSoC4/CapSense_ADC_Adc_INT.c ****             case CapSense_ADC_AdcSTATUS_CALIBPH1:
 155:Generated_Source\PSoC4/CapSense_ADC_Adc_INT.c ****                 /*
 156:Generated_Source\PSoC4/CapSense_ADC_Adc_INT.c ****                 * After the calibration phase 1 will define a time to charge Cref1 and Cref2 from V
 157:Generated_Source\PSoC4/CapSense_ADC_Adc_INT.c ****                 * clock cycles. In the full-range mode starts the next calibration phase 2. In the 
 158:Generated_Source\PSoC4/CapSense_ADC_Adc_INT.c ****                 * and recalibrate Idac if necessary.
 159:Generated_Source\PSoC4/CapSense_ADC_Adc_INT.c ****                 */
 160:Generated_Source\PSoC4/CapSense_ADC_Adc_INT.c ****                 tVssa2Vref = (uint16)tmpResult;
 200              		.loc 1 160 0
 201 00ce 304B     		ldr	r3, .L14+16
 202              	.LVL25:
 203 00d0 1C80     		strh	r4, [r3]
 161:Generated_Source\PSoC4/CapSense_ADC_Adc_INT.c **** 
 162:Generated_Source\PSoC4/CapSense_ADC_Adc_INT.c ****                 #if (CapSense_ADC_ADC_FULLRANGE_MODE == CapSense_ADC_ADC_MEASURE_MODE)
 163:Generated_Source\PSoC4/CapSense_ADC_Adc_INT.c ****                     /* Full range mode */
 164:Generated_Source\PSoC4/CapSense_ADC_Adc_INT.c ****                     CapSense_ADC_dsRam.adcStatus = CapSense_ADC_AdcSTATUS_CALIBPH2;
 204              		.loc 1 164 0
 205 00d2 2022     		movs	r2, #32
 206              	.LVL26:
 207 00d4 2D4B     		ldr	r3, .L14+12
 208 00d6 1A77     		strb	r2, [r3, #28]
 165:Generated_Source\PSoC4/CapSense_ADC_Adc_INT.c ****                     /* Un-mask ADC_RES interrupt (enable interrupt) */
 166:Generated_Source\PSoC4/CapSense_ADC_Adc_INT.c ****                     CY_SET_REG32(CapSense_ADC_AdcINTR_MASK_PTR, CapSense_ADC_AdcINTERRUPT_SET);
 209              		.loc 1 166 0
 210 00d8 E032     		adds	r2, r2, #224
 211 00da 2A4B     		ldr	r3, .L14+4
 212 00dc 1A60     		str	r2, [r3]
 167:Generated_Source\PSoC4/CapSense_ADC_Adc_INT.c ****                     CapSense_ADC_StartAdcFSM(CapSense_ADC_AdcMEASMODE_VREFBY2);
 213              		.loc 1 167 0
 214 00de 8020     		movs	r0, #128
 215              	.LVL27:
 216 00e0 8002     		lsls	r0, r0, #10
 217 00e2 FFF7FEFF 		bl	CapSense_ADC_StartAdcFSM
 218              	.LVL28:
 168:Generated_Source\PSoC4/CapSense_ADC_Adc_INT.c ****                     
 169:Generated_Source\PSoC4/CapSense_ADC_Adc_INT.c ****                 #else /* (CapSense_ADC_ADC_FULLRANGE_MODE == CapSense_ADC_ADC_MEASURE_MODE) */
 170:Generated_Source\PSoC4/CapSense_ADC_Adc_INT.c ****                     /* Vref range mode */
 171:Generated_Source\PSoC4/CapSense_ADC_Adc_INT.c ****                     vMax_mV = CapSense_ADC_AdcVref_mV;
 172:Generated_Source\PSoC4/CapSense_ADC_Adc_INT.c ****                     tFull = tVssa2Vref;
 173:Generated_Source\PSoC4/CapSense_ADC_Adc_INT.c ****                     CapSense_ADC_dsRam.adcStatus = CapSense_ADC_AdcSTATUS_IDLE;
 174:Generated_Source\PSoC4/CapSense_ADC_Adc_INT.c ****                     
 175:Generated_Source\PSoC4/CapSense_ADC_Adc_INT.c ****                 #endif /* (CapSense_ADC_ADC_FULLRANGE_MODE == CapSense_ADC_ADC_MEASURE_MODE) */
 176:Generated_Source\PSoC4/CapSense_ADC_Adc_INT.c **** 
 177:Generated_Source\PSoC4/CapSense_ADC_Adc_INT.c ****                 break;
 219              		.loc 1 177 0
 220 00e6 48E0     		b	.L1
ARM GAS  C:\Users\CHUNGN~1\AppData\Local\Temp\ccK4RJCg.s 			page 8


 221              	.LVL29:
 222              	.L5:
 178:Generated_Source\PSoC4/CapSense_ADC_Adc_INT.c **** 
 179:Generated_Source\PSoC4/CapSense_ADC_Adc_INT.c ****             
 180:Generated_Source\PSoC4/CapSense_ADC_Adc_INT.c ****             /* In vref mode not need further calibration */
 181:Generated_Source\PSoC4/CapSense_ADC_Adc_INT.c ****             #if (CapSense_ADC_ADC_FULLRANGE_MODE == CapSense_ADC_ADC_MEASURE_MODE)
 182:Generated_Source\PSoC4/CapSense_ADC_Adc_INT.c **** 
 183:Generated_Source\PSoC4/CapSense_ADC_Adc_INT.c ****                 case CapSense_ADC_AdcSTATUS_CALIBPH2:
 184:Generated_Source\PSoC4/CapSense_ADC_Adc_INT.c ****                     /*
 185:Generated_Source\PSoC4/CapSense_ADC_Adc_INT.c ****                     * After the calibration phase 2 will define a time to charge Cref1 and Cref2 to
 186:Generated_Source\PSoC4/CapSense_ADC_Adc_INT.c ****                     * a discharging them by a sinking from Vref during tVssa2Vref/2 time. This rech
 187:Generated_Source\PSoC4/CapSense_ADC_Adc_INT.c ****                     * and is proporional to an Idac_sourcing/Idac_sinking mismatch. Then charges ca
 188:Generated_Source\PSoC4/CapSense_ADC_Adc_INT.c ****                     * the next calibration phase 3.
 189:Generated_Source\PSoC4/CapSense_ADC_Adc_INT.c ****                     */
 190:Generated_Source\PSoC4/CapSense_ADC_Adc_INT.c ****                     tRecover = (uint16)tmpResult;
 223              		.loc 1 190 0
 224 00e8 294B     		ldr	r3, .L14+16
 225              	.LVL30:
 226 00ea 9C80     		strh	r4, [r3, #4]
 191:Generated_Source\PSoC4/CapSense_ADC_Adc_INT.c ****                     
 192:Generated_Source\PSoC4/CapSense_ADC_Adc_INT.c ****                     /* Disconnect amuxbusB, Connect VDDA to csdbusB */
 193:Generated_Source\PSoC4/CapSense_ADC_Adc_INT.c ****                     interruptState = CyEnterCriticalSection();
 227              		.loc 1 193 0
 228 00ec FFF7FEFF 		bl	CyEnterCriticalSection
 229              	.LVL31:
 194:Generated_Source\PSoC4/CapSense_ADC_Adc_INT.c ****                     newRegValue = CY_GET_REG32(CapSense_ADC_AdcSW_BYP_SEL_PTR);
 230              		.loc 1 194 0
 231 00f0 294A     		ldr	r2, .L14+24
 232 00f2 1168     		ldr	r1, [r2]
 233              	.LVL32:
 195:Generated_Source\PSoC4/CapSense_ADC_Adc_INT.c ****                     newRegValue &= (uint32)(~CapSense_ADC_AdcSW_BYP_DEFAULT);
 234              		.loc 1 195 0
 235 00f4 294B     		ldr	r3, .L14+28
 236 00f6 0B40     		ands	r3, r1
 237              	.LVL33:
 196:Generated_Source\PSoC4/CapSense_ADC_Adc_INT.c ****                     CY_SET_REG32(CapSense_ADC_AdcSW_BYP_SEL_PTR, newRegValue);
 238              		.loc 1 196 0
 239 00f8 1360     		str	r3, [r2]
 197:Generated_Source\PSoC4/CapSense_ADC_Adc_INT.c ****                     CyExitCriticalSection(interruptState);
 240              		.loc 1 197 0
 241 00fa FFF7FEFF 		bl	CyExitCriticalSection
 242              	.LVL34:
 198:Generated_Source\PSoC4/CapSense_ADC_Adc_INT.c ****                     
 199:Generated_Source\PSoC4/CapSense_ADC_Adc_INT.c ****                     CY_SET_REG32(CapSense_ADC_AdcSW_SHIELD_SEL_PTR, CapSense_ADC_AdcSW_SHIELD_VDDA2
 243              		.loc 1 199 0
 244 00fe 8023     		movs	r3, #128
 245              	.LVL35:
 246 0100 5B00     		lsls	r3, r3, #1
 247              	.LVL36:
 248 0102 274A     		ldr	r2, .L14+32
 249 0104 1360     		str	r3, [r2]
 200:Generated_Source\PSoC4/CapSense_ADC_Adc_INT.c **** 
 201:Generated_Source\PSoC4/CapSense_ADC_Adc_INT.c ****                     CapSense_ADC_dsRam.adcStatus = CapSense_ADC_AdcSTATUS_CALIBPH3;
 250              		.loc 1 201 0
 251 0106 3021     		movs	r1, #48
 252 0108 204A     		ldr	r2, .L14+12
 253 010a 1177     		strb	r1, [r2, #28]
ARM GAS  C:\Users\CHUNGN~1\AppData\Local\Temp\ccK4RJCg.s 			page 9


 202:Generated_Source\PSoC4/CapSense_ADC_Adc_INT.c ****                     /* Enable interrupt */
 203:Generated_Source\PSoC4/CapSense_ADC_Adc_INT.c ****                     CY_SET_REG32(CapSense_ADC_AdcINTR_MASK_PTR, CapSense_ADC_AdcINTERRUPT_SET);
 254              		.loc 1 203 0
 255 010c 1D4A     		ldr	r2, .L14+4
 256 010e 1360     		str	r3, [r2]
 204:Generated_Source\PSoC4/CapSense_ADC_Adc_INT.c ****                     CapSense_ADC_StartAdcFSM(CapSense_ADC_AdcMEASMODE_VIN);
 257              		.loc 1 204 0
 258 0110 C020     		movs	r0, #192
 259 0112 8002     		lsls	r0, r0, #10
 260 0114 FFF7FEFF 		bl	CapSense_ADC_StartAdcFSM
 261              	.LVL37:
 205:Generated_Source\PSoC4/CapSense_ADC_Adc_INT.c ****                     break;
 262              		.loc 1 205 0
 263 0118 2FE0     		b	.L1
 264              	.LVL38:
 265              	.L8:
 206:Generated_Source\PSoC4/CapSense_ADC_Adc_INT.c ****                     
 207:Generated_Source\PSoC4/CapSense_ADC_Adc_INT.c ****                 case CapSense_ADC_AdcSTATUS_CALIBPH3:
 208:Generated_Source\PSoC4/CapSense_ADC_Adc_INT.c ****                     /*
 209:Generated_Source\PSoC4/CapSense_ADC_Adc_INT.c ****                     * After the calibration phase 3 will define a time to discharge Cref1 and Cref2
 210:Generated_Source\PSoC4/CapSense_ADC_Adc_INT.c ****                     * a sinking. This time must be corrected to an Idac_sourcing/Idac_sinking misma
 211:Generated_Source\PSoC4/CapSense_ADC_Adc_INT.c ****                     * Calculates t_full, checks it for a target and recalibrate Idac if necessary. 
 212:Generated_Source\PSoC4/CapSense_ADC_Adc_INT.c ****                     */
 213:Generated_Source\PSoC4/CapSense_ADC_Adc_INT.c ****                     /* Reconnect amuxbusB, disconnect VDDA */
 214:Generated_Source\PSoC4/CapSense_ADC_Adc_INT.c ****                     CY_SET_REG32(CapSense_ADC_AdcSW_SHIELD_SEL_PTR, CapSense_ADC_AdcSW_SHIELD_DEFAU
 266              		.loc 1 214 0
 267 011a 0025     		movs	r5, #0
 268              	.LVL39:
 269 011c 204B     		ldr	r3, .L14+32
 270              	.LVL40:
 271 011e 1D60     		str	r5, [r3]
 215:Generated_Source\PSoC4/CapSense_ADC_Adc_INT.c ****                     
 216:Generated_Source\PSoC4/CapSense_ADC_Adc_INT.c ****                     interruptState = CyEnterCriticalSection();
 272              		.loc 1 216 0
 273 0120 FFF7FEFF 		bl	CyEnterCriticalSection
 274              	.LVL41:
 217:Generated_Source\PSoC4/CapSense_ADC_Adc_INT.c ****                     newRegValue = CY_GET_REG32(CapSense_ADC_AdcSW_BYP_SEL_PTR);
 275              		.loc 1 217 0
 276 0124 1C4A     		ldr	r2, .L14+24
 277 0126 1368     		ldr	r3, [r2]
 278              	.LVL42:
 218:Generated_Source\PSoC4/CapSense_ADC_Adc_INT.c ****                     newRegValue |= CapSense_ADC_AdcSW_BYP_DEFAULT;
 279              		.loc 1 218 0
 280 0128 8821     		movs	r1, #136
 281 012a 4903     		lsls	r1, r1, #13
 282 012c 0B43     		orrs	r3, r1
 283              	.LVL43:
 219:Generated_Source\PSoC4/CapSense_ADC_Adc_INT.c ****                     CY_SET_REG32(CapSense_ADC_AdcSW_BYP_SEL_PTR, newRegValue);
 284              		.loc 1 219 0
 285 012e 1360     		str	r3, [r2]
 220:Generated_Source\PSoC4/CapSense_ADC_Adc_INT.c ****                     CyExitCriticalSection(interruptState);
 286              		.loc 1 220 0
 287 0130 FFF7FEFF 		bl	CyExitCriticalSection
 288              	.LVL44:
 221:Generated_Source\PSoC4/CapSense_ADC_Adc_INT.c ****                     
 222:Generated_Source\PSoC4/CapSense_ADC_Adc_INT.c ****                     tVdda2Vref = (uint16)tmpResult;
 289              		.loc 1 222 0
ARM GAS  C:\Users\CHUNGN~1\AppData\Local\Temp\ccK4RJCg.s 			page 10


 290 0134 A0B2     		uxth	r0, r4
 291 0136 164E     		ldr	r6, .L14+16
 223:Generated_Source\PSoC4/CapSense_ADC_Adc_INT.c ****                     /* Calibrate tVdda2Vref with Sink/Source mismatch with rounding*/
 224:Generated_Source\PSoC4/CapSense_ADC_Adc_INT.c ****                     tVdda2Vref = (uint16)(((((uint32)tVdda2Vref << 1u) * tRecover) + ((uint32)tVssa
 292              		.loc 1 224 0
 293 0138 4400     		lsls	r4, r0, #1
 294              	.LVL45:
 295 013a B088     		ldrh	r0, [r6, #4]
 296 013c 6043     		muls	r0, r4
 297 013e 3788     		ldrh	r7, [r6]
 298 0140 7C08     		lsrs	r4, r7, #1
 299 0142 0019     		adds	r0, r0, r4
 300 0144 3900     		movs	r1, r7
 301 0146 FFF7FEFF 		bl	__aeabi_uidiv
 302              	.LVL46:
 303 014a 83B2     		uxth	r3, r0
 304 014c F380     		strh	r3, [r6, #6]
 225:Generated_Source\PSoC4/CapSense_ADC_Adc_INT.c ****                     /* Test whether the full range is 2-bits higher than adc resolution */
 226:Generated_Source\PSoC4/CapSense_ADC_Adc_INT.c ****                     tFull = (tVssa2Vref + tVdda2Vref);
 305              		.loc 1 226 0
 306 014e FA18     		adds	r2, r7, r3
 307 0150 7280     		strh	r2, [r6, #2]
 227:Generated_Source\PSoC4/CapSense_ADC_Adc_INT.c ****                     vMax_mV = CapSense_ADC_AdcVref_mV +
 228:Generated_Source\PSoC4/CapSense_ADC_Adc_INT.c ****                             (((CapSense_ADC_AdcVref_mV * tVdda2Vref) + (tVssa2Vref >> 1uL)) / tVssa
 308              		.loc 1 228 0
 309 0152 144A     		ldr	r2, .L14+36
 310 0154 1288     		ldrh	r2, [r2]
 311 0156 9046     		mov	r8, r2
 312 0158 5343     		muls	r3, r2
 313 015a 1819     		adds	r0, r3, r4
 314 015c 3900     		movs	r1, r7
 315 015e FFF7FEFF 		bl	__aeabi_idiv
 316              	.LVL47:
 227:Generated_Source\PSoC4/CapSense_ADC_Adc_INT.c ****                     vMax_mV = CapSense_ADC_AdcVref_mV +
 317              		.loc 1 227 0
 318 0162 4044     		add	r0, r0, r8
 319 0164 3081     		strh	r0, [r6, #8]
 229:Generated_Source\PSoC4/CapSense_ADC_Adc_INT.c **** 
 230:Generated_Source\PSoC4/CapSense_ADC_Adc_INT.c ****                     CapSense_ADC_dsRam.adcStatus = CapSense_ADC_AdcSTATUS_IDLE;
 320              		.loc 1 230 0
 321 0166 094B     		ldr	r3, .L14+12
 322 0168 1D77     		strb	r5, [r3, #28]
 231:Generated_Source\PSoC4/CapSense_ADC_Adc_INT.c **** 
 232:Generated_Source\PSoC4/CapSense_ADC_Adc_INT.c ****                     break;
 323              		.loc 1 232 0
 324 016a 06E0     		b	.L1
 325              	.LVL48:
 326              	.L3:
 233:Generated_Source\PSoC4/CapSense_ADC_Adc_INT.c **** 
 234:Generated_Source\PSoC4/CapSense_ADC_Adc_INT.c ****             #endif /* (CapSense_ADC_ADC_FULLRANGE_MODE == CapSense_ADC_ADC_MEASURE_MODE) */
 235:Generated_Source\PSoC4/CapSense_ADC_Adc_INT.c **** 
 236:Generated_Source\PSoC4/CapSense_ADC_Adc_INT.c ****             default:
 237:Generated_Source\PSoC4/CapSense_ADC_Adc_INT.c ****                 /* If interrupt is called without defined ADC state, do nothing. */
 238:Generated_Source\PSoC4/CapSense_ADC_Adc_INT.c ****                 break;
 239:Generated_Source\PSoC4/CapSense_ADC_Adc_INT.c ****             }
 240:Generated_Source\PSoC4/CapSense_ADC_Adc_INT.c ****         }
 241:Generated_Source\PSoC4/CapSense_ADC_Adc_INT.c ****         else
ARM GAS  C:\Users\CHUNGN~1\AppData\Local\Temp\ccK4RJCg.s 			page 11


 242:Generated_Source\PSoC4/CapSense_ADC_Adc_INT.c ****         {
 243:Generated_Source\PSoC4/CapSense_ADC_Adc_INT.c ****             CapSense_ADC_dsRam.adcStatus = CapSense_ADC_AdcSTATUS_OVERFLOW;
 327              		.loc 1 243 0
 328 016c 8022     		movs	r2, #128
 329 016e 074B     		ldr	r3, .L14+12
 330 0170 1A77     		strb	r2, [r3, #28]
 331 0172 02E0     		b	.L1
 332              	.L2:
 244:Generated_Source\PSoC4/CapSense_ADC_Adc_INT.c ****         }
 245:Generated_Source\PSoC4/CapSense_ADC_Adc_INT.c ****     }
 246:Generated_Source\PSoC4/CapSense_ADC_Adc_INT.c ****     else
 247:Generated_Source\PSoC4/CapSense_ADC_Adc_INT.c ****     {
 248:Generated_Source\PSoC4/CapSense_ADC_Adc_INT.c ****         CapSense_ADC_dsRam.adcStatus = CapSense_ADC_AdcSTATUS_IDLE;
 333              		.loc 1 248 0
 334 0174 0022     		movs	r2, #0
 335 0176 054B     		ldr	r3, .L14+12
 336 0178 1A77     		strb	r2, [r3, #28]
 337              	.LVL49:
 338              	.L1:
 249:Generated_Source\PSoC4/CapSense_ADC_Adc_INT.c ****     }
 250:Generated_Source\PSoC4/CapSense_ADC_Adc_INT.c ****     #ifdef CapSense_ADC_ADC_EXIT_CALLBACK
 251:Generated_Source\PSoC4/CapSense_ADC_Adc_INT.c ****         CapSense_ADC_AdcExitCallback();
 252:Generated_Source\PSoC4/CapSense_ADC_Adc_INT.c ****     #endif /* CapSense_ADC_ADC_EXIT_CALLBACK */
 253:Generated_Source\PSoC4/CapSense_ADC_Adc_INT.c **** }
 339              		.loc 1 253 0
 340              		@ sp needed
 341 017a 04BC     		pop	{r2}
 342 017c 9046     		mov	r8, r2
 343 017e F0BD     		pop	{r4, r5, r6, r7, pc}
 344              	.L15:
 345              		.align	2
 346              	.L14:
 347 0180 F0000B40 		.word	1074462960
 348 0184 F8000B40 		.word	1074462968
 349 0188 E0000B40 		.word	1074462944
 350 018c 00000000 		.word	CapSense_ADC_dsRam
 351 0190 00000000 		.word	.LANCHOR0
 352 0194 FF030000 		.word	1023
 353 0198 94020B40 		.word	1074463380
 354 019c FFFFEEFF 		.word	-1114113
 355 01a0 88020B40 		.word	1074463368
 356 01a4 00000000 		.word	CapSense_ADC_AdcVref_mV
 357              		.cfi_endproc
 358              	.LFE1:
 359              		.size	CapSense_ADC_AdcIntrHandler, .-CapSense_ADC_AdcIntrHandler
 360              		.bss
 361              		.align	1
 362              		.set	.LANCHOR0,. + 0
 363              		.type	tVssa2Vref.5037, %object
 364              		.size	tVssa2Vref.5037, 2
 365              	tVssa2Vref.5037:
 366 0000 0000     		.space	2
 367              		.type	tFull.5038, %object
 368              		.size	tFull.5038, 2
 369              	tFull.5038:
 370 0002 0000     		.space	2
 371              		.type	tRecover.5047, %object
ARM GAS  C:\Users\CHUNGN~1\AppData\Local\Temp\ccK4RJCg.s 			page 12


 372              		.size	tRecover.5047, 2
 373              	tRecover.5047:
 374 0004 0000     		.space	2
 375              		.type	tVdda2Vref.5046, %object
 376              		.size	tVdda2Vref.5046, 2
 377              	tVdda2Vref.5046:
 378 0006 0000     		.space	2
 379              		.type	vMax_mV.5039, %object
 380              		.size	vMax_mV.5039, 2
 381              	vMax_mV.5039:
 382 0008 0000     		.space	2
 383              		.text
 384              	.Letext0:
 385              		.file 2 "Generated_Source\\PSoC4\\cytypes.h"
 386              		.file 3 "Generated_Source\\PSoC4\\CapSense_ADC_Configuration.h"
 387              		.file 4 "Generated_Source\\PSoC4\\CapSense_ADC_Structure.h"
 388              		.file 5 "Generated_Source\\PSoC4\\CapSense_ADC_Adc.h"
 389              		.file 6 "Generated_Source\\PSoC4\\CyLib.h"
 390              		.section	.debug_info,"",%progbits
 391              	.Ldebug_info0:
 392 0000 79050000 		.4byte	0x579
 393 0004 0400     		.2byte	0x4
 394 0006 00000000 		.4byte	.Ldebug_abbrev0
 395 000a 04       		.byte	0x4
 396 000b 01       		.uleb128 0x1
 397 000c B2000000 		.4byte	.LASF85
 398 0010 0C       		.byte	0xc
 399 0011 49030000 		.4byte	.LASF86
 400 0015 79020000 		.4byte	.LASF87
 401 0019 00000000 		.4byte	.Ldebug_ranges0+0
 402 001d 00000000 		.4byte	0
 403 0021 00000000 		.4byte	.Ldebug_line0
 404 0025 02       		.uleb128 0x2
 405 0026 01       		.byte	0x1
 406 0027 06       		.byte	0x6
 407 0028 1A030000 		.4byte	.LASF0
 408 002c 02       		.uleb128 0x2
 409 002d 01       		.byte	0x1
 410 002e 08       		.byte	0x8
 411 002f EA020000 		.4byte	.LASF1
 412 0033 02       		.uleb128 0x2
 413 0034 02       		.byte	0x2
 414 0035 05       		.byte	0x5
 415 0036 85000000 		.4byte	.LASF2
 416 003a 02       		.uleb128 0x2
 417 003b 02       		.byte	0x2
 418 003c 07       		.byte	0x7
 419 003d 27040000 		.4byte	.LASF3
 420 0041 02       		.uleb128 0x2
 421 0042 04       		.byte	0x4
 422 0043 05       		.byte	0x5
 423 0044 18020000 		.4byte	.LASF4
 424 0048 02       		.uleb128 0x2
 425 0049 04       		.byte	0x4
 426 004a 07       		.byte	0x7
 427 004b BC030000 		.4byte	.LASF5
 428 004f 02       		.uleb128 0x2
ARM GAS  C:\Users\CHUNGN~1\AppData\Local\Temp\ccK4RJCg.s 			page 13


 429 0050 08       		.byte	0x8
 430 0051 05       		.byte	0x5
 431 0052 62010000 		.4byte	.LASF6
 432 0056 02       		.uleb128 0x2
 433 0057 08       		.byte	0x8
 434 0058 07       		.byte	0x7
 435 0059 26030000 		.4byte	.LASF7
 436 005d 03       		.uleb128 0x3
 437 005e 04       		.byte	0x4
 438 005f 05       		.byte	0x5
 439 0060 696E7400 		.ascii	"int\000"
 440 0064 02       		.uleb128 0x2
 441 0065 04       		.byte	0x4
 442 0066 07       		.byte	0x7
 443 0067 77030000 		.4byte	.LASF8
 444 006b 04       		.uleb128 0x4
 445 006c F7010000 		.4byte	.LASF9
 446 0070 02       		.byte	0x2
 447 0071 D201     		.2byte	0x1d2
 448 0073 2C000000 		.4byte	0x2c
 449 0077 04       		.uleb128 0x4
 450 0078 F0010000 		.4byte	.LASF10
 451 007c 02       		.byte	0x2
 452 007d D301     		.2byte	0x1d3
 453 007f 3A000000 		.4byte	0x3a
 454 0083 04       		.uleb128 0x4
 455 0084 8F040000 		.4byte	.LASF11
 456 0088 02       		.byte	0x2
 457 0089 D401     		.2byte	0x1d4
 458 008b 48000000 		.4byte	0x48
 459 008f 02       		.uleb128 0x2
 460 0090 04       		.byte	0x4
 461 0091 04       		.byte	0x4
 462 0092 FD010000 		.4byte	.LASF12
 463 0096 02       		.uleb128 0x2
 464 0097 08       		.byte	0x8
 465 0098 04       		.byte	0x4
 466 0099 B5040000 		.4byte	.LASF13
 467 009d 02       		.uleb128 0x2
 468 009e 01       		.byte	0x1
 469 009f 08       		.byte	0x8
 470 00a0 13020000 		.4byte	.LASF14
 471 00a4 04       		.uleb128 0x4
 472 00a5 D9030000 		.4byte	.LASF15
 473 00a9 02       		.byte	0x2
 474 00aa 7E02     		.2byte	0x27e
 475 00ac B0000000 		.4byte	0xb0
 476 00b0 05       		.uleb128 0x5
 477 00b1 83000000 		.4byte	0x83
 478 00b5 02       		.uleb128 0x2
 479 00b6 08       		.byte	0x8
 480 00b7 04       		.byte	0x4
 481 00b8 00000000 		.4byte	.LASF16
 482 00bc 02       		.uleb128 0x2
 483 00bd 04       		.byte	0x4
 484 00be 07       		.byte	0x7
 485 00bf A0000000 		.4byte	.LASF17
ARM GAS  C:\Users\CHUNGN~1\AppData\Local\Temp\ccK4RJCg.s 			page 14


 486 00c3 06       		.uleb128 0x6
 487 00c4 8C010000 		.4byte	.LASF18
 488 00c8 03       		.byte	0x3
 489 00c9 EA       		.byte	0xea
 490 00ca 77000000 		.4byte	0x77
 491 00ce 06       		.uleb128 0x6
 492 00cf 96040000 		.4byte	.LASF19
 493 00d3 03       		.byte	0x3
 494 00d4 EE       		.byte	0xee
 495 00d5 6B000000 		.4byte	0x6b
 496 00d9 07       		.uleb128 0x7
 497 00da 6B000000 		.4byte	0x6b
 498 00de E9000000 		.4byte	0xe9
 499 00e2 08       		.uleb128 0x8
 500 00e3 BC000000 		.4byte	0xbc
 501 00e7 00       		.byte	0
 502 00e8 00       		.byte	0
 503 00e9 09       		.uleb128 0x9
 504 00ea 12       		.byte	0x12
 505 00eb 04       		.byte	0x4
 506 00ec C9       		.byte	0xc9
 507 00ed 85010000 		.4byte	0x185
 508 00f1 0A       		.uleb128 0xa
 509 00f2 11040000 		.4byte	.LASF20
 510 00f6 04       		.byte	0x4
 511 00f7 CF       		.byte	0xcf
 512 00f8 77000000 		.4byte	0x77
 513 00fc 00       		.byte	0
 514 00fd 0A       		.uleb128 0xa
 515 00fe 48020000 		.4byte	.LASF21
 516 0102 04       		.byte	0x4
 517 0103 D4       		.byte	0xd4
 518 0104 C3000000 		.4byte	0xc3
 519 0108 02       		.byte	0x2
 520 0109 0A       		.uleb128 0xa
 521 010a BF010000 		.4byte	.LASF22
 522 010e 04       		.byte	0x4
 523 010f D9       		.byte	0xd9
 524 0110 6B000000 		.4byte	0x6b
 525 0114 04       		.byte	0x4
 526 0115 0A       		.uleb128 0xa
 527 0116 70040000 		.4byte	.LASF23
 528 011a 04       		.byte	0x4
 529 011b DE       		.byte	0xde
 530 011c 6B000000 		.4byte	0x6b
 531 0120 05       		.byte	0x5
 532 0121 0A       		.uleb128 0xa
 533 0122 65020000 		.4byte	.LASF24
 534 0126 04       		.byte	0x4
 535 0127 E3       		.byte	0xe3
 536 0128 6B000000 		.4byte	0x6b
 537 012c 06       		.byte	0x6
 538 012d 0A       		.uleb128 0xa
 539 012e 95000000 		.4byte	.LASF25
 540 0132 04       		.byte	0x4
 541 0133 E8       		.byte	0xe8
 542 0134 6B000000 		.4byte	0x6b
ARM GAS  C:\Users\CHUNGN~1\AppData\Local\Temp\ccK4RJCg.s 			page 15


 543 0138 07       		.byte	0x7
 544 0139 0A       		.uleb128 0xa
 545 013a 32000000 		.4byte	.LASF26
 546 013e 04       		.byte	0x4
 547 013f EE       		.byte	0xee
 548 0140 CE000000 		.4byte	0xce
 549 0144 08       		.byte	0x8
 550 0145 0A       		.uleb128 0xa
 551 0146 6A000000 		.4byte	.LASF27
 552 014a 04       		.byte	0x4
 553 014b F5       		.byte	0xf5
 554 014c D9000000 		.4byte	0xd9
 555 0150 09       		.byte	0x9
 556 0151 0A       		.uleb128 0xa
 557 0152 51020000 		.4byte	.LASF28
 558 0156 04       		.byte	0x4
 559 0157 FC       		.byte	0xfc
 560 0158 77000000 		.4byte	0x77
 561 015c 0A       		.byte	0xa
 562 015d 0B       		.uleb128 0xb
 563 015e A8010000 		.4byte	.LASF29
 564 0162 04       		.byte	0x4
 565 0163 0101     		.2byte	0x101
 566 0165 6B000000 		.4byte	0x6b
 567 0169 0C       		.byte	0xc
 568 016a 0B       		.uleb128 0xb
 569 016b 23050000 		.4byte	.LASF30
 570 016f 04       		.byte	0x4
 571 0170 0701     		.2byte	0x107
 572 0172 77000000 		.4byte	0x77
 573 0176 0E       		.byte	0xe
 574 0177 0B       		.uleb128 0xb
 575 0178 88040000 		.4byte	.LASF31
 576 017c 04       		.byte	0x4
 577 017d 0C01     		.2byte	0x10c
 578 017f 77000000 		.4byte	0x77
 579 0183 10       		.byte	0x10
 580 0184 00       		.byte	0
 581 0185 04       		.uleb128 0x4
 582 0186 2D050000 		.4byte	.LASF32
 583 018a 04       		.byte	0x4
 584 018b 0D01     		.2byte	0x10d
 585 018d E9000000 		.4byte	0xe9
 586 0191 0C       		.uleb128 0xc
 587 0192 48       		.byte	0x48
 588 0193 04       		.byte	0x4
 589 0194 1301     		.2byte	0x113
 590 0196 CF010000 		.4byte	0x1cf
 591 019a 0B       		.uleb128 0xb
 592 019b 03050000 		.4byte	.LASF33
 593 019f 04       		.byte	0x4
 594 01a0 1801     		.2byte	0x118
 595 01a2 85010000 		.4byte	0x185
 596 01a6 00       		.byte	0
 597 01a7 0B       		.uleb128 0xb
 598 01a8 0B050000 		.4byte	.LASF34
 599 01ac 04       		.byte	0x4
ARM GAS  C:\Users\CHUNGN~1\AppData\Local\Temp\ccK4RJCg.s 			page 16


 600 01ad 1D01     		.2byte	0x11d
 601 01af 85010000 		.4byte	0x185
 602 01b3 12       		.byte	0x12
 603 01b4 0B       		.uleb128 0xb
 604 01b5 13050000 		.4byte	.LASF35
 605 01b9 04       		.byte	0x4
 606 01ba 2201     		.2byte	0x122
 607 01bc 85010000 		.4byte	0x185
 608 01c0 24       		.byte	0x24
 609 01c1 0B       		.uleb128 0xb
 610 01c2 1B050000 		.4byte	.LASF36
 611 01c6 04       		.byte	0x4
 612 01c7 2701     		.2byte	0x127
 613 01c9 85010000 		.4byte	0x185
 614 01cd 36       		.byte	0x36
 615 01ce 00       		.byte	0
 616 01cf 04       		.uleb128 0x4
 617 01d0 D0010000 		.4byte	.LASF37
 618 01d4 04       		.byte	0x4
 619 01d5 2801     		.2byte	0x128
 620 01d7 91010000 		.4byte	0x191
 621 01db 0C       		.uleb128 0xc
 622 01dc 0A       		.byte	0xa
 623 01dd 04       		.byte	0x4
 624 01de 2E01     		.2byte	0x12e
 625 01e0 33020000 		.4byte	0x233
 626 01e4 0D       		.uleb128 0xd
 627 01e5 72617700 		.ascii	"raw\000"
 628 01e9 04       		.byte	0x4
 629 01ea 3301     		.2byte	0x133
 630 01ec 33020000 		.4byte	0x233
 631 01f0 00       		.byte	0
 632 01f1 0B       		.uleb128 0xb
 633 01f2 25000000 		.4byte	.LASF38
 634 01f6 04       		.byte	0x4
 635 01f7 3801     		.2byte	0x138
 636 01f9 33020000 		.4byte	0x233
 637 01fd 02       		.byte	0x2
 638 01fe 0B       		.uleb128 0xb
 639 01ff BC040000 		.4byte	.LASF39
 640 0203 04       		.byte	0x4
 641 0204 3E01     		.2byte	0x13e
 642 0206 D9000000 		.4byte	0xd9
 643 020a 04       		.byte	0x4
 644 020b 0B       		.uleb128 0xb
 645 020c 7F050000 		.4byte	.LASF40
 646 0210 04       		.byte	0x4
 647 0211 4301     		.2byte	0x143
 648 0213 C3000000 		.4byte	0xc3
 649 0217 06       		.byte	0x6
 650 0218 0B       		.uleb128 0xb
 651 0219 F5040000 		.4byte	.LASF41
 652 021d 04       		.byte	0x4
 653 021e 4801     		.2byte	0x148
 654 0220 43020000 		.4byte	0x243
 655 0224 08       		.byte	0x8
 656 0225 0B       		.uleb128 0xb
ARM GAS  C:\Users\CHUNGN~1\AppData\Local\Temp\ccK4RJCg.s 			page 17


 657 0226 4E010000 		.4byte	.LASF42
 658 022a 04       		.byte	0x4
 659 022b 4E01     		.2byte	0x14e
 660 022d D9000000 		.4byte	0xd9
 661 0231 09       		.byte	0x9
 662 0232 00       		.byte	0
 663 0233 07       		.uleb128 0x7
 664 0234 77000000 		.4byte	0x77
 665 0238 43020000 		.4byte	0x243
 666 023c 08       		.uleb128 0x8
 667 023d BC000000 		.4byte	0xbc
 668 0241 00       		.byte	0
 669 0242 00       		.byte	0
 670 0243 07       		.uleb128 0x7
 671 0244 CE000000 		.4byte	0xce
 672 0248 53020000 		.4byte	0x253
 673 024c 08       		.uleb128 0x8
 674 024d BC000000 		.4byte	0xbc
 675 0251 00       		.byte	0
 676 0252 00       		.byte	0
 677 0253 04       		.uleb128 0x4
 678 0254 2C020000 		.4byte	.LASF43
 679 0258 04       		.byte	0x4
 680 0259 4F01     		.2byte	0x14f
 681 025b DB010000 		.4byte	0x1db
 682 025f 0C       		.uleb128 0xc
 683 0260 28       		.byte	0x28
 684 0261 04       		.byte	0x4
 685 0262 5501     		.2byte	0x155
 686 0264 9D020000 		.4byte	0x29d
 687 0268 0B       		.uleb128 0xb
 688 0269 03050000 		.4byte	.LASF33
 689 026d 04       		.byte	0x4
 690 026e 5A01     		.2byte	0x15a
 691 0270 9D020000 		.4byte	0x29d
 692 0274 00       		.byte	0
 693 0275 0B       		.uleb128 0xb
 694 0276 0B050000 		.4byte	.LASF34
 695 027a 04       		.byte	0x4
 696 027b 5F01     		.2byte	0x15f
 697 027d 9D020000 		.4byte	0x29d
 698 0281 0A       		.byte	0xa
 699 0282 0B       		.uleb128 0xb
 700 0283 13050000 		.4byte	.LASF35
 701 0287 04       		.byte	0x4
 702 0288 6401     		.2byte	0x164
 703 028a 9D020000 		.4byte	0x29d
 704 028e 14       		.byte	0x14
 705 028f 0B       		.uleb128 0xb
 706 0290 1B050000 		.4byte	.LASF36
 707 0294 04       		.byte	0x4
 708 0295 6901     		.2byte	0x169
 709 0297 9D020000 		.4byte	0x29d
 710 029b 1E       		.byte	0x1e
 711 029c 00       		.byte	0
 712 029d 07       		.uleb128 0x7
 713 029e 53020000 		.4byte	0x253
ARM GAS  C:\Users\CHUNGN~1\AppData\Local\Temp\ccK4RJCg.s 			page 18


 714 02a2 AD020000 		.4byte	0x2ad
 715 02a6 08       		.uleb128 0x8
 716 02a7 BC000000 		.4byte	0xbc
 717 02ab 00       		.byte	0
 718 02ac 00       		.byte	0
 719 02ad 04       		.uleb128 0x4
 720 02ae C4040000 		.4byte	.LASF44
 721 02b2 04       		.byte	0x4
 722 02b3 6A01     		.2byte	0x16a
 723 02b5 5F020000 		.4byte	0x25f
 724 02b9 0C       		.uleb128 0xc
 725 02ba 9C       		.byte	0x9c
 726 02bb 04       		.byte	0x4
 727 02bc 7001     		.2byte	0x170
 728 02be E1030000 		.4byte	0x3e1
 729 02c2 0B       		.uleb128 0xb
 730 02c3 A9000000 		.4byte	.LASF45
 731 02c7 04       		.byte	0x4
 732 02c8 7601     		.2byte	0x176
 733 02ca 77000000 		.4byte	0x77
 734 02ce 00       		.byte	0
 735 02cf 0B       		.uleb128 0xb
 736 02d0 C7010000 		.4byte	.LASF46
 737 02d4 04       		.byte	0x4
 738 02d5 7B01     		.2byte	0x17b
 739 02d7 77000000 		.4byte	0x77
 740 02db 02       		.byte	0x2
 741 02dc 0B       		.uleb128 0xb
 742 02dd 70020000 		.4byte	.LASF47
 743 02e1 04       		.byte	0x4
 744 02e2 8101     		.2byte	0x181
 745 02e4 77000000 		.4byte	0x77
 746 02e8 04       		.byte	0x4
 747 02e9 0B       		.uleb128 0xb
 748 02ea 64040000 		.4byte	.LASF48
 749 02ee 04       		.byte	0x4
 750 02ef 8601     		.2byte	0x186
 751 02f1 77000000 		.4byte	0x77
 752 02f5 06       		.byte	0x6
 753 02f6 0B       		.uleb128 0xb
 754 02f7 F7030000 		.4byte	.LASF49
 755 02fb 04       		.byte	0x4
 756 02fc 8B01     		.2byte	0x18b
 757 02fe 83000000 		.4byte	0x83
 758 0302 08       		.byte	0x8
 759 0303 0B       		.uleb128 0xb
 760 0304 CE030000 		.4byte	.LASF50
 761 0308 04       		.byte	0x4
 762 0309 9001     		.2byte	0x190
 763 030b E1030000 		.4byte	0x3e1
 764 030f 0C       		.byte	0xc
 765 0310 0B       		.uleb128 0xb
 766 0311 DF020000 		.4byte	.LASF51
 767 0315 04       		.byte	0x4
 768 0316 9501     		.2byte	0x195
 769 0318 E1030000 		.4byte	0x3e1
 770 031c 10       		.byte	0x10
ARM GAS  C:\Users\CHUNGN~1\AppData\Local\Temp\ccK4RJCg.s 			page 19


 771 031d 0B       		.uleb128 0xb
 772 031e 6D050000 		.4byte	.LASF52
 773 0322 04       		.byte	0x4
 774 0323 A301     		.2byte	0x1a3
 775 0325 F1030000 		.4byte	0x3f1
 776 0329 14       		.byte	0x14
 777 032a 0B       		.uleb128 0xb
 778 032b 7B000000 		.4byte	.LASF53
 779 032f 04       		.byte	0x4
 780 0330 A901     		.2byte	0x1a9
 781 0332 33020000 		.4byte	0x233
 782 0336 18       		.byte	0x18
 783 0337 0B       		.uleb128 0xb
 784 0338 E5040000 		.4byte	.LASF54
 785 033c 04       		.byte	0x4
 786 033d AF01     		.2byte	0x1af
 787 033f 33020000 		.4byte	0x233
 788 0343 1A       		.byte	0x1a
 789 0344 0B       		.uleb128 0xb
 790 0345 B5010000 		.4byte	.LASF55
 791 0349 04       		.byte	0x4
 792 034a B401     		.2byte	0x1b4
 793 034c 6B000000 		.4byte	0x6b
 794 0350 1C       		.byte	0x1c
 795 0351 0B       		.uleb128 0xb
 796 0352 ED040000 		.4byte	.LASF56
 797 0356 04       		.byte	0x4
 798 0357 B901     		.2byte	0x1b9
 799 0359 6B000000 		.4byte	0x6b
 800 035d 1D       		.byte	0x1d
 801 035e 0B       		.uleb128 0xb
 802 035f 57010000 		.4byte	.LASF57
 803 0363 04       		.byte	0x4
 804 0364 BE01     		.2byte	0x1be
 805 0366 77000000 		.4byte	0x77
 806 036a 1E       		.byte	0x1e
 807 036b 0B       		.uleb128 0xb
 808 036c 5A040000 		.4byte	.LASF58
 809 0370 04       		.byte	0x4
 810 0371 C301     		.2byte	0x1c3
 811 0373 6B000000 		.4byte	0x6b
 812 0377 20       		.byte	0x20
 813 0378 0B       		.uleb128 0xb
 814 0379 5F050000 		.4byte	.LASF59
 815 037d 04       		.byte	0x4
 816 037e C801     		.2byte	0x1c8
 817 0380 6B000000 		.4byte	0x6b
 818 0384 21       		.byte	0x21
 819 0385 0B       		.uleb128 0xb
 820 0386 44010000 		.4byte	.LASF60
 821 038a 04       		.byte	0x4
 822 038b CD01     		.2byte	0x1cd
 823 038d 6B000000 		.4byte	0x6b
 824 0391 22       		.byte	0x22
 825 0392 0B       		.uleb128 0xb
 826 0393 0C000000 		.4byte	.LASF61
 827 0397 04       		.byte	0x4
ARM GAS  C:\Users\CHUNGN~1\AppData\Local\Temp\ccK4RJCg.s 			page 20


 828 0398 D201     		.2byte	0x1d2
 829 039a CF010000 		.4byte	0x1cf
 830 039e 24       		.byte	0x24
 831 039f 0B       		.uleb128 0xb
 832 03a0 3A040000 		.4byte	.LASF62
 833 03a4 04       		.byte	0x4
 834 03a5 D701     		.2byte	0x1d7
 835 03a7 AD020000 		.4byte	0x2ad
 836 03ab 6C       		.byte	0x6c
 837 03ac 0B       		.uleb128 0xb
 838 03ad 4F050000 		.4byte	.LASF63
 839 03b1 04       		.byte	0x4
 840 03b2 DC01     		.2byte	0x1dc
 841 03b4 6B000000 		.4byte	0x6b
 842 03b8 94       		.byte	0x94
 843 03b9 0B       		.uleb128 0xb
 844 03ba 03020000 		.4byte	.LASF64
 845 03be 04       		.byte	0x4
 846 03bf E101     		.2byte	0x1e1
 847 03c1 6B000000 		.4byte	0x6b
 848 03c5 95       		.byte	0x95
 849 03c6 0B       		.uleb128 0xb
 850 03c7 FE030000 		.4byte	.LASF65
 851 03cb 04       		.byte	0x4
 852 03cc E601     		.2byte	0x1e6
 853 03ce 77000000 		.4byte	0x77
 854 03d2 96       		.byte	0x96
 855 03d3 0B       		.uleb128 0xb
 856 03d4 15000000 		.4byte	.LASF66
 857 03d8 04       		.byte	0x4
 858 03d9 EB01     		.2byte	0x1eb
 859 03db 33020000 		.4byte	0x233
 860 03df 98       		.byte	0x98
 861 03e0 00       		.byte	0
 862 03e1 07       		.uleb128 0x7
 863 03e2 83000000 		.4byte	0x83
 864 03e6 F1030000 		.4byte	0x3f1
 865 03ea 08       		.uleb128 0x8
 866 03eb BC000000 		.4byte	0xbc
 867 03ef 00       		.byte	0
 868 03f0 00       		.byte	0
 869 03f1 07       		.uleb128 0x7
 870 03f2 6B000000 		.4byte	0x6b
 871 03f6 01040000 		.4byte	0x401
 872 03fa 08       		.uleb128 0x8
 873 03fb BC000000 		.4byte	0xbc
 874 03ff 03       		.byte	0x3
 875 0400 00       		.byte	0
 876 0401 04       		.uleb128 0x4
 877 0402 DF030000 		.4byte	.LASF67
 878 0406 04       		.byte	0x4
 879 0407 EC01     		.2byte	0x1ec
 880 0409 B9020000 		.4byte	0x2b9
 881 040d 0E       		.uleb128 0xe
 882 040e 70010000 		.4byte	.LASF88
 883 0412 01       		.byte	0x1
 884 0413 48       		.byte	0x48
ARM GAS  C:\Users\CHUNGN~1\AppData\Local\Temp\ccK4RJCg.s 			page 21


 885 0414 00000000 		.4byte	.LFB1
 886 0418 A8010000 		.4byte	.LFE1-.LFB1
 887 041c 01       		.uleb128 0x1
 888 041d 9C       		.byte	0x9c
 889 041e 39050000 		.4byte	0x539
 890 0422 0F       		.uleb128 0xf
 891 0423 1C040000 		.4byte	.LASF68
 892 0427 01       		.byte	0x1
 893 0428 4A       		.byte	0x4a
 894 0429 77000000 		.4byte	0x77
 895 042d 05       		.uleb128 0x5
 896 042e 03       		.byte	0x3
 897 042f 00000000 		.4byte	tVssa2Vref.5037
 898 0433 0F       		.uleb128 0xf
 899 0434 8F000000 		.4byte	.LASF69
 900 0438 01       		.byte	0x1
 901 0439 4B       		.byte	0x4b
 902 043a 77000000 		.4byte	0x77
 903 043e 05       		.uleb128 0x5
 904 043f 03       		.byte	0x3
 905 0440 02000000 		.4byte	tFull.5038
 906 0444 0F       		.uleb128 0xf
 907 0445 2A000000 		.4byte	.LASF70
 908 0449 01       		.byte	0x1
 909 044a 4C       		.byte	0x4c
 910 044b 77000000 		.4byte	0x77
 911 044f 05       		.uleb128 0x5
 912 0450 03       		.byte	0x3
 913 0451 08000000 		.4byte	vMax_mV.5039
 914 0455 10       		.uleb128 0x10
 915 0456 97030000 		.4byte	.LASF71
 916 045a 01       		.byte	0x1
 917 045b 4E       		.byte	0x4e
 918 045c 83000000 		.4byte	0x83
 919 0460 00000000 		.4byte	.LLST0
 920 0464 10       		.uleb128 0x10
 921 0465 11030000 		.4byte	.LASF72
 922 0469 01       		.byte	0x1
 923 046a 4F       		.byte	0x4f
 924 046b 83000000 		.4byte	0x83
 925 046f C5000000 		.4byte	.LLST1
 926 0473 10       		.uleb128 0x10
 927 0474 58020000 		.4byte	.LASF73
 928 0478 01       		.byte	0x1
 929 0479 50       		.byte	0x50
 930 047a 6B000000 		.4byte	0x6b
 931 047e 6B010000 		.4byte	.LLST2
 932 0482 10       		.uleb128 0x10
 933 0483 77050000 		.4byte	.LASF74
 934 0487 01       		.byte	0x1
 935 0488 51       		.byte	0x51
 936 0489 6B000000 		.4byte	0x6b
 937 048d EA010000 		.4byte	.LLST3
 938 0491 10       		.uleb128 0x10
 939 0492 79040000 		.4byte	.LASF75
 940 0496 01       		.byte	0x1
 941 0497 54       		.byte	0x54
ARM GAS  C:\Users\CHUNGN~1\AppData\Local\Temp\ccK4RJCg.s 			page 22


 942 0498 6B000000 		.4byte	0x6b
 943 049c 0C020000 		.4byte	.LLST4
 944 04a0 10       		.uleb128 0x10
 945 04a1 3D030000 		.4byte	.LASF76
 946 04a5 01       		.byte	0x1
 947 04a6 55       		.byte	0x55
 948 04a7 83000000 		.4byte	0x83
 949 04ab 2A020000 		.4byte	.LLST5
 950 04af 0F       		.uleb128 0xf
 951 04b0 21020000 		.4byte	.LASF77
 952 04b4 01       		.byte	0x1
 953 04b5 57       		.byte	0x57
 954 04b6 77000000 		.4byte	0x77
 955 04ba 05       		.uleb128 0x5
 956 04bb 03       		.byte	0x3
 957 04bc 06000000 		.4byte	tVdda2Vref.5046
 958 04c0 0F       		.uleb128 0xf
 959 04c1 72000000 		.4byte	.LASF78
 960 04c5 01       		.byte	0x1
 961 04c6 58       		.byte	0x58
 962 04c7 77000000 		.4byte	0x77
 963 04cb 05       		.uleb128 0x5
 964 04cc 03       		.byte	0x3
 965 04cd 04000000 		.4byte	tRecover.5047
 966 04d1 11       		.uleb128 0x11
 967 04d2 C8000000 		.4byte	.LVL23
 968 04d6 50050000 		.4byte	0x550
 969 04da EA040000 		.4byte	0x4ea
 970 04de 12       		.uleb128 0x12
 971 04df 01       		.uleb128 0x1
 972 04e0 50       		.byte	0x50
 973 04e1 02       		.uleb128 0x2
 974 04e2 75       		.byte	0x75
 975 04e3 00       		.sleb128 0
 976 04e4 12       		.uleb128 0x12
 977 04e5 01       		.uleb128 0x1
 978 04e6 51       		.byte	0x51
 979 04e7 01       		.uleb128 0x1
 980 04e8 30       		.byte	0x30
 981 04e9 00       		.byte	0
 982 04ea 11       		.uleb128 0x11
 983 04eb E6000000 		.4byte	.LVL28
 984 04ef 5B050000 		.4byte	0x55b
 985 04f3 FF040000 		.4byte	0x4ff
 986 04f7 12       		.uleb128 0x12
 987 04f8 01       		.uleb128 0x1
 988 04f9 50       		.byte	0x50
 989 04fa 03       		.uleb128 0x3
 990 04fb 40       		.byte	0x40
 991 04fc 3D       		.byte	0x3d
 992 04fd 24       		.byte	0x24
 993 04fe 00       		.byte	0
 994 04ff 13       		.uleb128 0x13
 995 0500 F0000000 		.4byte	.LVL31
 996 0504 66050000 		.4byte	0x566
 997 0508 13       		.uleb128 0x13
 998 0509 FE000000 		.4byte	.LVL34
ARM GAS  C:\Users\CHUNGN~1\AppData\Local\Temp\ccK4RJCg.s 			page 23


 999 050d 71050000 		.4byte	0x571
 1000 0511 11       		.uleb128 0x11
 1001 0512 18010000 		.4byte	.LVL37
 1002 0516 5B050000 		.4byte	0x55b
 1003 051a 26050000 		.4byte	0x526
 1004 051e 12       		.uleb128 0x12
 1005 051f 01       		.uleb128 0x1
 1006 0520 50       		.byte	0x50
 1007 0521 03       		.uleb128 0x3
 1008 0522 48       		.byte	0x48
 1009 0523 3D       		.byte	0x3d
 1010 0524 24       		.byte	0x24
 1011 0525 00       		.byte	0
 1012 0526 13       		.uleb128 0x13
 1013 0527 24010000 		.4byte	.LVL41
 1014 052b 66050000 		.4byte	0x566
 1015 052f 13       		.uleb128 0x13
 1016 0530 34010000 		.4byte	.LVL44
 1017 0534 71050000 		.4byte	0x571
 1018 0538 00       		.byte	0
 1019 0539 14       		.uleb128 0x14
 1020 053a 84030000 		.4byte	.LASF79
 1021 053e 04       		.byte	0x4
 1022 053f F403     		.2byte	0x3f4
 1023 0541 01040000 		.4byte	0x401
 1024 0545 15       		.uleb128 0x15
 1025 0546 42040000 		.4byte	.LASF80
 1026 054a 01       		.byte	0x1
 1027 054b 2D       		.byte	0x2d
 1028 054c 77000000 		.4byte	0x77
 1029 0550 16       		.uleb128 0x16
 1030 0551 A1030000 		.4byte	.LASF81
 1031 0555 A1030000 		.4byte	.LASF81
 1032 0559 05       		.byte	0x5
 1033 055a 5B       		.byte	0x5b
 1034 055b 16       		.uleb128 0x16
 1035 055c F8020000 		.4byte	.LASF82
 1036 0560 F8020000 		.4byte	.LASF82
 1037 0564 05       		.byte	0x5
 1038 0565 5D       		.byte	0x5d
 1039 0566 16       		.uleb128 0x16
 1040 0567 53000000 		.4byte	.LASF83
 1041 056b 53000000 		.4byte	.LASF83
 1042 056f 06       		.byte	0x6
 1043 0570 E5       		.byte	0xe5
 1044 0571 16       		.uleb128 0x16
 1045 0572 3D000000 		.4byte	.LASF84
 1046 0576 3D000000 		.4byte	.LASF84
 1047 057a 06       		.byte	0x6
 1048 057b E6       		.byte	0xe6
 1049 057c 00       		.byte	0
 1050              		.section	.debug_abbrev,"",%progbits
 1051              	.Ldebug_abbrev0:
 1052 0000 01       		.uleb128 0x1
 1053 0001 11       		.uleb128 0x11
 1054 0002 01       		.byte	0x1
 1055 0003 25       		.uleb128 0x25
ARM GAS  C:\Users\CHUNGN~1\AppData\Local\Temp\ccK4RJCg.s 			page 24


 1056 0004 0E       		.uleb128 0xe
 1057 0005 13       		.uleb128 0x13
 1058 0006 0B       		.uleb128 0xb
 1059 0007 03       		.uleb128 0x3
 1060 0008 0E       		.uleb128 0xe
 1061 0009 1B       		.uleb128 0x1b
 1062 000a 0E       		.uleb128 0xe
 1063 000b 55       		.uleb128 0x55
 1064 000c 17       		.uleb128 0x17
 1065 000d 11       		.uleb128 0x11
 1066 000e 01       		.uleb128 0x1
 1067 000f 10       		.uleb128 0x10
 1068 0010 17       		.uleb128 0x17
 1069 0011 00       		.byte	0
 1070 0012 00       		.byte	0
 1071 0013 02       		.uleb128 0x2
 1072 0014 24       		.uleb128 0x24
 1073 0015 00       		.byte	0
 1074 0016 0B       		.uleb128 0xb
 1075 0017 0B       		.uleb128 0xb
 1076 0018 3E       		.uleb128 0x3e
 1077 0019 0B       		.uleb128 0xb
 1078 001a 03       		.uleb128 0x3
 1079 001b 0E       		.uleb128 0xe
 1080 001c 00       		.byte	0
 1081 001d 00       		.byte	0
 1082 001e 03       		.uleb128 0x3
 1083 001f 24       		.uleb128 0x24
 1084 0020 00       		.byte	0
 1085 0021 0B       		.uleb128 0xb
 1086 0022 0B       		.uleb128 0xb
 1087 0023 3E       		.uleb128 0x3e
 1088 0024 0B       		.uleb128 0xb
 1089 0025 03       		.uleb128 0x3
 1090 0026 08       		.uleb128 0x8
 1091 0027 00       		.byte	0
 1092 0028 00       		.byte	0
 1093 0029 04       		.uleb128 0x4
 1094 002a 16       		.uleb128 0x16
 1095 002b 00       		.byte	0
 1096 002c 03       		.uleb128 0x3
 1097 002d 0E       		.uleb128 0xe
 1098 002e 3A       		.uleb128 0x3a
 1099 002f 0B       		.uleb128 0xb
 1100 0030 3B       		.uleb128 0x3b
 1101 0031 05       		.uleb128 0x5
 1102 0032 49       		.uleb128 0x49
 1103 0033 13       		.uleb128 0x13
 1104 0034 00       		.byte	0
 1105 0035 00       		.byte	0
 1106 0036 05       		.uleb128 0x5
 1107 0037 35       		.uleb128 0x35
 1108 0038 00       		.byte	0
 1109 0039 49       		.uleb128 0x49
 1110 003a 13       		.uleb128 0x13
 1111 003b 00       		.byte	0
 1112 003c 00       		.byte	0
ARM GAS  C:\Users\CHUNGN~1\AppData\Local\Temp\ccK4RJCg.s 			page 25


 1113 003d 06       		.uleb128 0x6
 1114 003e 16       		.uleb128 0x16
 1115 003f 00       		.byte	0
 1116 0040 03       		.uleb128 0x3
 1117 0041 0E       		.uleb128 0xe
 1118 0042 3A       		.uleb128 0x3a
 1119 0043 0B       		.uleb128 0xb
 1120 0044 3B       		.uleb128 0x3b
 1121 0045 0B       		.uleb128 0xb
 1122 0046 49       		.uleb128 0x49
 1123 0047 13       		.uleb128 0x13
 1124 0048 00       		.byte	0
 1125 0049 00       		.byte	0
 1126 004a 07       		.uleb128 0x7
 1127 004b 01       		.uleb128 0x1
 1128 004c 01       		.byte	0x1
 1129 004d 49       		.uleb128 0x49
 1130 004e 13       		.uleb128 0x13
 1131 004f 01       		.uleb128 0x1
 1132 0050 13       		.uleb128 0x13
 1133 0051 00       		.byte	0
 1134 0052 00       		.byte	0
 1135 0053 08       		.uleb128 0x8
 1136 0054 21       		.uleb128 0x21
 1137 0055 00       		.byte	0
 1138 0056 49       		.uleb128 0x49
 1139 0057 13       		.uleb128 0x13
 1140 0058 2F       		.uleb128 0x2f
 1141 0059 0B       		.uleb128 0xb
 1142 005a 00       		.byte	0
 1143 005b 00       		.byte	0
 1144 005c 09       		.uleb128 0x9
 1145 005d 13       		.uleb128 0x13
 1146 005e 01       		.byte	0x1
 1147 005f 0B       		.uleb128 0xb
 1148 0060 0B       		.uleb128 0xb
 1149 0061 3A       		.uleb128 0x3a
 1150 0062 0B       		.uleb128 0xb
 1151 0063 3B       		.uleb128 0x3b
 1152 0064 0B       		.uleb128 0xb
 1153 0065 01       		.uleb128 0x1
 1154 0066 13       		.uleb128 0x13
 1155 0067 00       		.byte	0
 1156 0068 00       		.byte	0
 1157 0069 0A       		.uleb128 0xa
 1158 006a 0D       		.uleb128 0xd
 1159 006b 00       		.byte	0
 1160 006c 03       		.uleb128 0x3
 1161 006d 0E       		.uleb128 0xe
 1162 006e 3A       		.uleb128 0x3a
 1163 006f 0B       		.uleb128 0xb
 1164 0070 3B       		.uleb128 0x3b
 1165 0071 0B       		.uleb128 0xb
 1166 0072 49       		.uleb128 0x49
 1167 0073 13       		.uleb128 0x13
 1168 0074 38       		.uleb128 0x38
 1169 0075 0B       		.uleb128 0xb
ARM GAS  C:\Users\CHUNGN~1\AppData\Local\Temp\ccK4RJCg.s 			page 26


 1170 0076 00       		.byte	0
 1171 0077 00       		.byte	0
 1172 0078 0B       		.uleb128 0xb
 1173 0079 0D       		.uleb128 0xd
 1174 007a 00       		.byte	0
 1175 007b 03       		.uleb128 0x3
 1176 007c 0E       		.uleb128 0xe
 1177 007d 3A       		.uleb128 0x3a
 1178 007e 0B       		.uleb128 0xb
 1179 007f 3B       		.uleb128 0x3b
 1180 0080 05       		.uleb128 0x5
 1181 0081 49       		.uleb128 0x49
 1182 0082 13       		.uleb128 0x13
 1183 0083 38       		.uleb128 0x38
 1184 0084 0B       		.uleb128 0xb
 1185 0085 00       		.byte	0
 1186 0086 00       		.byte	0
 1187 0087 0C       		.uleb128 0xc
 1188 0088 13       		.uleb128 0x13
 1189 0089 01       		.byte	0x1
 1190 008a 0B       		.uleb128 0xb
 1191 008b 0B       		.uleb128 0xb
 1192 008c 3A       		.uleb128 0x3a
 1193 008d 0B       		.uleb128 0xb
 1194 008e 3B       		.uleb128 0x3b
 1195 008f 05       		.uleb128 0x5
 1196 0090 01       		.uleb128 0x1
 1197 0091 13       		.uleb128 0x13
 1198 0092 00       		.byte	0
 1199 0093 00       		.byte	0
 1200 0094 0D       		.uleb128 0xd
 1201 0095 0D       		.uleb128 0xd
 1202 0096 00       		.byte	0
 1203 0097 03       		.uleb128 0x3
 1204 0098 08       		.uleb128 0x8
 1205 0099 3A       		.uleb128 0x3a
 1206 009a 0B       		.uleb128 0xb
 1207 009b 3B       		.uleb128 0x3b
 1208 009c 05       		.uleb128 0x5
 1209 009d 49       		.uleb128 0x49
 1210 009e 13       		.uleb128 0x13
 1211 009f 38       		.uleb128 0x38
 1212 00a0 0B       		.uleb128 0xb
 1213 00a1 00       		.byte	0
 1214 00a2 00       		.byte	0
 1215 00a3 0E       		.uleb128 0xe
 1216 00a4 2E       		.uleb128 0x2e
 1217 00a5 01       		.byte	0x1
 1218 00a6 3F       		.uleb128 0x3f
 1219 00a7 19       		.uleb128 0x19
 1220 00a8 03       		.uleb128 0x3
 1221 00a9 0E       		.uleb128 0xe
 1222 00aa 3A       		.uleb128 0x3a
 1223 00ab 0B       		.uleb128 0xb
 1224 00ac 3B       		.uleb128 0x3b
 1225 00ad 0B       		.uleb128 0xb
 1226 00ae 27       		.uleb128 0x27
ARM GAS  C:\Users\CHUNGN~1\AppData\Local\Temp\ccK4RJCg.s 			page 27


 1227 00af 19       		.uleb128 0x19
 1228 00b0 11       		.uleb128 0x11
 1229 00b1 01       		.uleb128 0x1
 1230 00b2 12       		.uleb128 0x12
 1231 00b3 06       		.uleb128 0x6
 1232 00b4 40       		.uleb128 0x40
 1233 00b5 18       		.uleb128 0x18
 1234 00b6 9642     		.uleb128 0x2116
 1235 00b8 19       		.uleb128 0x19
 1236 00b9 01       		.uleb128 0x1
 1237 00ba 13       		.uleb128 0x13
 1238 00bb 00       		.byte	0
 1239 00bc 00       		.byte	0
 1240 00bd 0F       		.uleb128 0xf
 1241 00be 34       		.uleb128 0x34
 1242 00bf 00       		.byte	0
 1243 00c0 03       		.uleb128 0x3
 1244 00c1 0E       		.uleb128 0xe
 1245 00c2 3A       		.uleb128 0x3a
 1246 00c3 0B       		.uleb128 0xb
 1247 00c4 3B       		.uleb128 0x3b
 1248 00c5 0B       		.uleb128 0xb
 1249 00c6 49       		.uleb128 0x49
 1250 00c7 13       		.uleb128 0x13
 1251 00c8 02       		.uleb128 0x2
 1252 00c9 18       		.uleb128 0x18
 1253 00ca 00       		.byte	0
 1254 00cb 00       		.byte	0
 1255 00cc 10       		.uleb128 0x10
 1256 00cd 34       		.uleb128 0x34
 1257 00ce 00       		.byte	0
 1258 00cf 03       		.uleb128 0x3
 1259 00d0 0E       		.uleb128 0xe
 1260 00d1 3A       		.uleb128 0x3a
 1261 00d2 0B       		.uleb128 0xb
 1262 00d3 3B       		.uleb128 0x3b
 1263 00d4 0B       		.uleb128 0xb
 1264 00d5 49       		.uleb128 0x49
 1265 00d6 13       		.uleb128 0x13
 1266 00d7 02       		.uleb128 0x2
 1267 00d8 17       		.uleb128 0x17
 1268 00d9 00       		.byte	0
 1269 00da 00       		.byte	0
 1270 00db 11       		.uleb128 0x11
 1271 00dc 898201   		.uleb128 0x4109
 1272 00df 01       		.byte	0x1
 1273 00e0 11       		.uleb128 0x11
 1274 00e1 01       		.uleb128 0x1
 1275 00e2 31       		.uleb128 0x31
 1276 00e3 13       		.uleb128 0x13
 1277 00e4 01       		.uleb128 0x1
 1278 00e5 13       		.uleb128 0x13
 1279 00e6 00       		.byte	0
 1280 00e7 00       		.byte	0
 1281 00e8 12       		.uleb128 0x12
 1282 00e9 8A8201   		.uleb128 0x410a
 1283 00ec 00       		.byte	0
ARM GAS  C:\Users\CHUNGN~1\AppData\Local\Temp\ccK4RJCg.s 			page 28


 1284 00ed 02       		.uleb128 0x2
 1285 00ee 18       		.uleb128 0x18
 1286 00ef 9142     		.uleb128 0x2111
 1287 00f1 18       		.uleb128 0x18
 1288 00f2 00       		.byte	0
 1289 00f3 00       		.byte	0
 1290 00f4 13       		.uleb128 0x13
 1291 00f5 898201   		.uleb128 0x4109
 1292 00f8 00       		.byte	0
 1293 00f9 11       		.uleb128 0x11
 1294 00fa 01       		.uleb128 0x1
 1295 00fb 31       		.uleb128 0x31
 1296 00fc 13       		.uleb128 0x13
 1297 00fd 00       		.byte	0
 1298 00fe 00       		.byte	0
 1299 00ff 14       		.uleb128 0x14
 1300 0100 34       		.uleb128 0x34
 1301 0101 00       		.byte	0
 1302 0102 03       		.uleb128 0x3
 1303 0103 0E       		.uleb128 0xe
 1304 0104 3A       		.uleb128 0x3a
 1305 0105 0B       		.uleb128 0xb
 1306 0106 3B       		.uleb128 0x3b
 1307 0107 05       		.uleb128 0x5
 1308 0108 49       		.uleb128 0x49
 1309 0109 13       		.uleb128 0x13
 1310 010a 3F       		.uleb128 0x3f
 1311 010b 19       		.uleb128 0x19
 1312 010c 3C       		.uleb128 0x3c
 1313 010d 19       		.uleb128 0x19
 1314 010e 00       		.byte	0
 1315 010f 00       		.byte	0
 1316 0110 15       		.uleb128 0x15
 1317 0111 34       		.uleb128 0x34
 1318 0112 00       		.byte	0
 1319 0113 03       		.uleb128 0x3
 1320 0114 0E       		.uleb128 0xe
 1321 0115 3A       		.uleb128 0x3a
 1322 0116 0B       		.uleb128 0xb
 1323 0117 3B       		.uleb128 0x3b
 1324 0118 0B       		.uleb128 0xb
 1325 0119 49       		.uleb128 0x49
 1326 011a 13       		.uleb128 0x13
 1327 011b 3F       		.uleb128 0x3f
 1328 011c 19       		.uleb128 0x19
 1329 011d 3C       		.uleb128 0x3c
 1330 011e 19       		.uleb128 0x19
 1331 011f 00       		.byte	0
 1332 0120 00       		.byte	0
 1333 0121 16       		.uleb128 0x16
 1334 0122 2E       		.uleb128 0x2e
 1335 0123 00       		.byte	0
 1336 0124 3F       		.uleb128 0x3f
 1337 0125 19       		.uleb128 0x19
 1338 0126 3C       		.uleb128 0x3c
 1339 0127 19       		.uleb128 0x19
 1340 0128 6E       		.uleb128 0x6e
ARM GAS  C:\Users\CHUNGN~1\AppData\Local\Temp\ccK4RJCg.s 			page 29


 1341 0129 0E       		.uleb128 0xe
 1342 012a 03       		.uleb128 0x3
 1343 012b 0E       		.uleb128 0xe
 1344 012c 3A       		.uleb128 0x3a
 1345 012d 0B       		.uleb128 0xb
 1346 012e 3B       		.uleb128 0x3b
 1347 012f 0B       		.uleb128 0xb
 1348 0130 00       		.byte	0
 1349 0131 00       		.byte	0
 1350 0132 00       		.byte	0
 1351              		.section	.debug_loc,"",%progbits
 1352              	.Ldebug_loc0:
 1353              	.LLST0:
 1354 0000 18000000 		.4byte	.LVL0
 1355 0004 3C000000 		.4byte	.LVL3
 1356 0008 0100     		.2byte	0x1
 1357 000a 54       		.byte	0x54
 1358 000b 3C000000 		.4byte	.LVL3
 1359 000f 66000000 		.4byte	.LVL7
 1360 0013 0100     		.2byte	0x1
 1361 0015 52       		.byte	0x52
 1362 0016 76000000 		.4byte	.LVL11
 1363 001a 78000000 		.4byte	.LVL12
 1364 001e 0100     		.2byte	0x1
 1365 0020 50       		.byte	0x50
 1366 0021 78000000 		.4byte	.LVL12
 1367 0025 80000000 		.4byte	.LVL13
 1368 0029 0100     		.2byte	0x1
 1369 002b 52       		.byte	0x52
 1370 002c 80000000 		.4byte	.LVL13
 1371 0030 82000000 		.4byte	.LVL14
 1372 0034 0700     		.2byte	0x7
 1373 0036 74       		.byte	0x74
 1374 0037 00       		.sleb128 0
 1375 0038 40       		.byte	0x40
 1376 0039 24       		.byte	0x24
 1377 003a 40       		.byte	0x40
 1378 003b 25       		.byte	0x25
 1379 003c 9F       		.byte	0x9f
 1380 003d 8C000000 		.4byte	.LVL16
 1381 0041 96000000 		.4byte	.LVL18
 1382 0045 0100     		.2byte	0x1
 1383 0047 50       		.byte	0x50
 1384 0048 A6000000 		.4byte	.LVL19
 1385 004c B8000000 		.4byte	.LVL20
 1386 0050 0100     		.2byte	0x1
 1387 0052 50       		.byte	0x50
 1388 0053 BE000000 		.4byte	.LVL21
 1389 0057 C4000000 		.4byte	.LVL22
 1390 005b 0100     		.2byte	0x1
 1391 005d 50       		.byte	0x50
 1392 005e CE000000 		.4byte	.LVL24
 1393 0062 D4000000 		.4byte	.LVL26
 1394 0066 0100     		.2byte	0x1
 1395 0068 52       		.byte	0x52
 1396 0069 D4000000 		.4byte	.LVL26
 1397 006d E8000000 		.4byte	.LVL29
ARM GAS  C:\Users\CHUNGN~1\AppData\Local\Temp\ccK4RJCg.s 			page 30


 1398 0071 0700     		.2byte	0x7
 1399 0073 74       		.byte	0x74
 1400 0074 00       		.sleb128 0
 1401 0075 40       		.byte	0x40
 1402 0076 24       		.byte	0x24
 1403 0077 40       		.byte	0x40
 1404 0078 25       		.byte	0x25
 1405 0079 9F       		.byte	0x9f
 1406 007a E8000000 		.4byte	.LVL29
 1407 007e EF000000 		.4byte	.LVL31-1
 1408 0082 0100     		.2byte	0x1
 1409 0084 52       		.byte	0x52
 1410 0085 EF000000 		.4byte	.LVL31-1
 1411 0089 1A010000 		.4byte	.LVL38
 1412 008d 0700     		.2byte	0x7
 1413 008f 74       		.byte	0x74
 1414 0090 00       		.sleb128 0
 1415 0091 40       		.byte	0x40
 1416 0092 24       		.byte	0x24
 1417 0093 40       		.byte	0x40
 1418 0094 25       		.byte	0x25
 1419 0095 9F       		.byte	0x9f
 1420 0096 1A010000 		.4byte	.LVL38
 1421 009a 23010000 		.4byte	.LVL41-1
 1422 009e 0100     		.2byte	0x1
 1423 00a0 52       		.byte	0x52
 1424 00a1 23010000 		.4byte	.LVL41-1
 1425 00a5 3A010000 		.4byte	.LVL45
 1426 00a9 0700     		.2byte	0x7
 1427 00ab 74       		.byte	0x74
 1428 00ac 00       		.sleb128 0
 1429 00ad 40       		.byte	0x40
 1430 00ae 24       		.byte	0x24
 1431 00af 40       		.byte	0x40
 1432 00b0 25       		.byte	0x25
 1433 00b1 9F       		.byte	0x9f
 1434 00b2 6C010000 		.4byte	.LVL48
 1435 00b6 7A010000 		.4byte	.LVL49
 1436 00ba 0100     		.2byte	0x1
 1437 00bc 54       		.byte	0x54
 1438 00bd 00000000 		.4byte	0
 1439 00c1 00000000 		.4byte	0
 1440              	.LLST1:
 1441 00c5 38000000 		.4byte	.LVL2
 1442 00c9 6E000000 		.4byte	.LVL9
 1443 00cd 0100     		.2byte	0x1
 1444 00cf 51       		.byte	0x51
 1445 00d0 6E000000 		.4byte	.LVL9
 1446 00d4 70000000 		.4byte	.LVL10
 1447 00d8 0700     		.2byte	0x7
 1448 00da 74       		.byte	0x74
 1449 00db 00       		.sleb128 0
 1450 00dc 40       		.byte	0x40
 1451 00dd 3C       		.byte	0x3c
 1452 00de 24       		.byte	0x24
 1453 00df 1A       		.byte	0x1a
 1454 00e0 9F       		.byte	0x9f
ARM GAS  C:\Users\CHUNGN~1\AppData\Local\Temp\ccK4RJCg.s 			page 31


 1455 00e1 78000000 		.4byte	.LVL12
 1456 00e5 88000000 		.4byte	.LVL15
 1457 00e9 0100     		.2byte	0x1
 1458 00eb 51       		.byte	0x51
 1459 00ec CE000000 		.4byte	.LVL24
 1460 00f0 E5000000 		.4byte	.LVL28-1
 1461 00f4 0100     		.2byte	0x1
 1462 00f6 51       		.byte	0x51
 1463 00f7 E5000000 		.4byte	.LVL28-1
 1464 00fb E8000000 		.4byte	.LVL29
 1465 00ff 0700     		.2byte	0x7
 1466 0101 74       		.byte	0x74
 1467 0102 00       		.sleb128 0
 1468 0103 40       		.byte	0x40
 1469 0104 3C       		.byte	0x3c
 1470 0105 24       		.byte	0x24
 1471 0106 1A       		.byte	0x1a
 1472 0107 9F       		.byte	0x9f
 1473 0108 E8000000 		.4byte	.LVL29
 1474 010c EF000000 		.4byte	.LVL31-1
 1475 0110 0100     		.2byte	0x1
 1476 0112 51       		.byte	0x51
 1477 0113 EF000000 		.4byte	.LVL31-1
 1478 0117 00010000 		.4byte	.LVL35
 1479 011b 0700     		.2byte	0x7
 1480 011d 74       		.byte	0x74
 1481 011e 00       		.sleb128 0
 1482 011f 40       		.byte	0x40
 1483 0120 3C       		.byte	0x3c
 1484 0121 24       		.byte	0x24
 1485 0122 1A       		.byte	0x1a
 1486 0123 9F       		.byte	0x9f
 1487 0124 00010000 		.4byte	.LVL35
 1488 0128 02010000 		.4byte	.LVL36
 1489 012c 0800     		.2byte	0x8
 1490 012e 73       		.byte	0x73
 1491 012f 00       		.sleb128 0
 1492 0130 39       		.byte	0x39
 1493 0131 24       		.byte	0x24
 1494 0132 74       		.byte	0x74
 1495 0133 00       		.sleb128 0
 1496 0134 1A       		.byte	0x1a
 1497 0135 9F       		.byte	0x9f
 1498 0136 02010000 		.4byte	.LVL36
 1499 013a 1A010000 		.4byte	.LVL38
 1500 013e 0700     		.2byte	0x7
 1501 0140 74       		.byte	0x74
 1502 0141 00       		.sleb128 0
 1503 0142 40       		.byte	0x40
 1504 0143 3C       		.byte	0x3c
 1505 0144 24       		.byte	0x24
 1506 0145 1A       		.byte	0x1a
 1507 0146 9F       		.byte	0x9f
 1508 0147 1A010000 		.4byte	.LVL38
 1509 014b 23010000 		.4byte	.LVL41-1
 1510 014f 0100     		.2byte	0x1
 1511 0151 51       		.byte	0x51
ARM GAS  C:\Users\CHUNGN~1\AppData\Local\Temp\ccK4RJCg.s 			page 32


 1512 0152 23010000 		.4byte	.LVL41-1
 1513 0156 3A010000 		.4byte	.LVL45
 1514 015a 0700     		.2byte	0x7
 1515 015c 74       		.byte	0x74
 1516 015d 00       		.sleb128 0
 1517 015e 40       		.byte	0x40
 1518 015f 3C       		.byte	0x3c
 1519 0160 24       		.byte	0x24
 1520 0161 1A       		.byte	0x1a
 1521 0162 9F       		.byte	0x9f
 1522 0163 00000000 		.4byte	0
 1523 0167 00000000 		.4byte	0
 1524              	.LLST2:
 1525 016b 30000000 		.4byte	.LVL1
 1526 016f 5C000000 		.4byte	.LVL5
 1527 0173 0100     		.2byte	0x1
 1528 0175 53       		.byte	0x53
 1529 0176 5C000000 		.4byte	.LVL5
 1530 017a 68000000 		.4byte	.LVL8
 1531 017e 0600     		.2byte	0x6
 1532 0180 70       		.byte	0x70
 1533 0181 00       		.sleb128 0
 1534 0182 09       		.byte	0x9
 1535 0183 F0       		.byte	0xf0
 1536 0184 1A       		.byte	0x1a
 1537 0185 9F       		.byte	0x9f
 1538 0186 78000000 		.4byte	.LVL12
 1539 018a 8B000000 		.4byte	.LVL16-1
 1540 018e 0100     		.2byte	0x1
 1541 0190 53       		.byte	0x53
 1542 0191 CE000000 		.4byte	.LVL24
 1543 0195 D0000000 		.4byte	.LVL25
 1544 0199 0100     		.2byte	0x1
 1545 019b 53       		.byte	0x53
 1546 019c D0000000 		.4byte	.LVL25
 1547 01a0 E0000000 		.4byte	.LVL27
 1548 01a4 0600     		.2byte	0x6
 1549 01a6 70       		.byte	0x70
 1550 01a7 00       		.sleb128 0
 1551 01a8 09       		.byte	0x9
 1552 01a9 F0       		.byte	0xf0
 1553 01aa 1A       		.byte	0x1a
 1554 01ab 9F       		.byte	0x9f
 1555 01ac E8000000 		.4byte	.LVL29
 1556 01b0 EA000000 		.4byte	.LVL30
 1557 01b4 0100     		.2byte	0x1
 1558 01b6 53       		.byte	0x53
 1559 01b7 EA000000 		.4byte	.LVL30
 1560 01bb EF000000 		.4byte	.LVL31-1
 1561 01bf 0600     		.2byte	0x6
 1562 01c1 70       		.byte	0x70
 1563 01c2 00       		.sleb128 0
 1564 01c3 09       		.byte	0x9
 1565 01c4 F0       		.byte	0xf0
 1566 01c5 1A       		.byte	0x1a
 1567 01c6 9F       		.byte	0x9f
 1568 01c7 1A010000 		.4byte	.LVL38
ARM GAS  C:\Users\CHUNGN~1\AppData\Local\Temp\ccK4RJCg.s 			page 33


 1569 01cb 1E010000 		.4byte	.LVL40
 1570 01cf 0100     		.2byte	0x1
 1571 01d1 53       		.byte	0x53
 1572 01d2 1E010000 		.4byte	.LVL40
 1573 01d6 23010000 		.4byte	.LVL41-1
 1574 01da 0600     		.2byte	0x6
 1575 01dc 70       		.byte	0x70
 1576 01dd 00       		.sleb128 0
 1577 01de 09       		.byte	0x9
 1578 01df F0       		.byte	0xf0
 1579 01e0 1A       		.byte	0x1a
 1580 01e1 9F       		.byte	0x9f
 1581 01e2 00000000 		.4byte	0
 1582 01e6 00000000 		.4byte	0
 1583              	.LLST3:
 1584 01ea 40000000 		.4byte	.LVL4
 1585 01ee 1C010000 		.4byte	.LVL39
 1586 01f2 0100     		.2byte	0x1
 1587 01f4 55       		.byte	0x55
 1588 01f5 1C010000 		.4byte	.LVL39
 1589 01f9 23010000 		.4byte	.LVL41-1
 1590 01fd 0500     		.2byte	0x5
 1591 01ff 70       		.byte	0x70
 1592 0200 00       		.sleb128 0
 1593 0201 3F       		.byte	0x3f
 1594 0202 1A       		.byte	0x1a
 1595 0203 9F       		.byte	0x9f
 1596 0204 00000000 		.4byte	0
 1597 0208 00000000 		.4byte	0
 1598              	.LLST4:
 1599 020c F0000000 		.4byte	.LVL31
 1600 0210 FD000000 		.4byte	.LVL34-1
 1601 0214 0100     		.2byte	0x1
 1602 0216 50       		.byte	0x50
 1603 0217 24010000 		.4byte	.LVL41
 1604 021b 33010000 		.4byte	.LVL44-1
 1605 021f 0100     		.2byte	0x1
 1606 0221 50       		.byte	0x50
 1607 0222 00000000 		.4byte	0
 1608 0226 00000000 		.4byte	0
 1609              	.LLST5:
 1610 022a F4000000 		.4byte	.LVL32
 1611 022e F8000000 		.4byte	.LVL33
 1612 0232 0100     		.2byte	0x1
 1613 0234 51       		.byte	0x51
 1614 0235 F8000000 		.4byte	.LVL33
 1615 0239 FD000000 		.4byte	.LVL34-1
 1616 023d 0100     		.2byte	0x1
 1617 023f 53       		.byte	0x53
 1618 0240 28010000 		.4byte	.LVL42
 1619 0244 33010000 		.4byte	.LVL44-1
 1620 0248 0100     		.2byte	0x1
 1621 024a 53       		.byte	0x53
 1622 024b 00000000 		.4byte	0
 1623 024f 00000000 		.4byte	0
 1624              		.section	.debug_aranges,"",%progbits
 1625 0000 1C000000 		.4byte	0x1c
ARM GAS  C:\Users\CHUNGN~1\AppData\Local\Temp\ccK4RJCg.s 			page 34


 1626 0004 0200     		.2byte	0x2
 1627 0006 00000000 		.4byte	.Ldebug_info0
 1628 000a 04       		.byte	0x4
 1629 000b 00       		.byte	0
 1630 000c 0000     		.2byte	0
 1631 000e 0000     		.2byte	0
 1632 0010 00000000 		.4byte	.LFB1
 1633 0014 A8010000 		.4byte	.LFE1-.LFB1
 1634 0018 00000000 		.4byte	0
 1635 001c 00000000 		.4byte	0
 1636              		.section	.debug_ranges,"",%progbits
 1637              	.Ldebug_ranges0:
 1638 0000 00000000 		.4byte	.LFB1
 1639 0004 A8010000 		.4byte	.LFE1
 1640 0008 00000000 		.4byte	0
 1641 000c 00000000 		.4byte	0
 1642              		.section	.debug_line,"",%progbits
 1643              	.Ldebug_line0:
 1644 0000 08010000 		.section	.debug_str,"MS",%progbits,1
 1644      0200AE00 
 1644      00000201 
 1644      FB0E0D00 
 1644      01010101 
 1645              	.LASF16:
 1646 0000 6C6F6E67 		.ascii	"long double\000"
 1646      20646F75 
 1646      626C6500 
 1647              	.LASF61:
 1648 000c 77646774 		.ascii	"wdgtList\000"
 1648      4C697374 
 1648      00
 1649              	.LASF66:
 1650 0015 736E7254 		.ascii	"snrTestRawCount\000"
 1650      65737452 
 1650      6177436F 
 1650      756E7400 
 1651              	.LASF38:
 1652 0025 62736C6E 		.ascii	"bsln\000"
 1652      00
 1653              	.LASF70:
 1654 002a 764D6178 		.ascii	"vMax_mV\000"
 1654      5F6D5600 
 1655              	.LASF26:
 1656 0032 6C6F7742 		.ascii	"lowBslnRst\000"
 1656      736C6E52 
 1656      737400
 1657              	.LASF84:
 1658 003d 43794578 		.ascii	"CyExitCriticalSection\000"
 1658      69744372 
 1658      69746963 
 1658      616C5365 
 1658      6374696F 
 1659              	.LASF83:
 1660 0053 4379456E 		.ascii	"CyEnterCriticalSection\000"
 1660      74657243 
 1660      72697469 
 1660      63616C53 
ARM GAS  C:\Users\CHUNGN~1\AppData\Local\Temp\ccK4RJCg.s 			page 35


 1660      65637469 
 1661              	.LASF27:
 1662 006a 69646163 		.ascii	"idacMod\000"
 1662      4D6F6400 
 1663              	.LASF78:
 1664 0072 74526563 		.ascii	"tRecover\000"
 1664      6F766572 
 1664      00
 1665              	.LASF53:
 1666 007b 61646352 		.ascii	"adcResult\000"
 1666      6573756C 
 1666      7400
 1667              	.LASF2:
 1668 0085 73686F72 		.ascii	"short int\000"
 1668      7420696E 
 1668      7400
 1669              	.LASF69:
 1670 008f 7446756C 		.ascii	"tFull\000"
 1670      6C00
 1671              	.LASF25:
 1672 0095 6F6E4465 		.ascii	"onDebounce\000"
 1672      626F756E 
 1672      636500
 1673              	.LASF17:
 1674 00a0 73697A65 		.ascii	"sizetype\000"
 1674      74797065 
 1674      00
 1675              	.LASF45:
 1676 00a9 636F6E66 		.ascii	"configId\000"
 1676      69674964 
 1676      00
 1677              	.LASF85:
 1678 00b2 474E5520 		.ascii	"GNU C11 5.4.1 20160609 (release) [ARM/embedded-5-br"
 1678      43313120 
 1678      352E342E 
 1678      31203230 
 1678      31363036 
 1679 00e5 616E6368 		.ascii	"anch revision 237715] -mcpu=cortex-m0plus -mthumb -"
 1679      20726576 
 1679      6973696F 
 1679      6E203233 
 1679      37373135 
 1680 0118 67202D4F 		.ascii	"g -Og -ffunction-sections -ffat-lto-objects\000"
 1680      67202D66 
 1680      66756E63 
 1680      74696F6E 
 1680      2D736563 
 1681              	.LASF60:
 1682 0144 61646341 		.ascii	"adcAzTime\000"
 1682      7A54696D 
 1682      6500
 1683              	.LASF42:
 1684 014e 69646163 		.ascii	"idacComp\000"
 1684      436F6D70 
 1684      00
 1685              	.LASF57:
 1686 0157 63736430 		.ascii	"csd0Config\000"
ARM GAS  C:\Users\CHUNGN~1\AppData\Local\Temp\ccK4RJCg.s 			page 36


 1686      436F6E66 
 1686      696700
 1687              	.LASF6:
 1688 0162 6C6F6E67 		.ascii	"long long int\000"
 1688      206C6F6E 
 1688      6720696E 
 1688      7400
 1689              	.LASF88:
 1690 0170 43617053 		.ascii	"CapSense_ADC_AdcIntrHandler\000"
 1690      656E7365 
 1690      5F414443 
 1690      5F416463 
 1690      496E7472 
 1691              	.LASF18:
 1692 018c 43617053 		.ascii	"CapSense_ADC_THRESHOLD_TYPE\000"
 1692      656E7365 
 1692      5F414443 
 1692      5F544852 
 1692      4553484F 
 1693              	.LASF29:
 1694 01a8 736E7343 		.ascii	"snsClkSource\000"
 1694      6C6B536F 
 1694      75726365 
 1694      00
 1695              	.LASF55:
 1696 01b5 61646353 		.ascii	"adcStatus\000"
 1696      74617475 
 1696      7300
 1697              	.LASF22:
 1698 01bf 6E6F6973 		.ascii	"noiseTh\000"
 1698      65546800 
 1699              	.LASF46:
 1700 01c7 64657669 		.ascii	"deviceId\000"
 1700      63654964 
 1700      00
 1701              	.LASF37:
 1702 01d0 43617053 		.ascii	"CapSense_ADC_RAM_WD_LIST_STRUCT\000"
 1702      656E7365 
 1702      5F414443 
 1702      5F52414D 
 1702      5F57445F 
 1703              	.LASF10:
 1704 01f0 75696E74 		.ascii	"uint16\000"
 1704      313600
 1705              	.LASF9:
 1706 01f7 75696E74 		.ascii	"uint8\000"
 1706      3800
 1707              	.LASF12:
 1708 01fd 666C6F61 		.ascii	"float\000"
 1708      7400
 1709              	.LASF64:
 1710 0203 736E7254 		.ascii	"snrTestSensorId\000"
 1710      65737453 
 1710      656E736F 
 1710      72496400 
 1711              	.LASF14:
 1712 0213 63686172 		.ascii	"char\000"
ARM GAS  C:\Users\CHUNGN~1\AppData\Local\Temp\ccK4RJCg.s 			page 37


 1712      00
 1713              	.LASF4:
 1714 0218 6C6F6E67 		.ascii	"long int\000"
 1714      20696E74 
 1714      00
 1715              	.LASF77:
 1716 0221 74566464 		.ascii	"tVdda2Vref\000"
 1716      61325672 
 1716      656600
 1717              	.LASF43:
 1718 022c 43617053 		.ascii	"CapSense_ADC_RAM_SNS_STRUCT\000"
 1718      656E7365 
 1718      5F414443 
 1718      5F52414D 
 1718      5F534E53 
 1719              	.LASF21:
 1720 0248 66696E67 		.ascii	"fingerTh\000"
 1720      65725468 
 1720      00
 1721              	.LASF28:
 1722 0251 736E7343 		.ascii	"snsClk\000"
 1722      6C6B00
 1723              	.LASF73:
 1724 0258 61646346 		.ascii	"adcFsmStatus\000"
 1724      736D5374 
 1724      61747573 
 1724      00
 1725              	.LASF24:
 1726 0265 68797374 		.ascii	"hysteresis\000"
 1726      65726573 
 1726      697300
 1727              	.LASF47:
 1728 0270 74756E65 		.ascii	"tunerCmd\000"
 1728      72436D64 
 1728      00
 1729              	.LASF87:
 1730 0279 453A5C5F 		.ascii	"E:\\_MAKIPOS\\Tecomen_Korio\\Cypress_workspace\\TEC"
 1730      4D414B49 
 1730      504F535C 
 1730      5465636F 
 1730      6D656E5F 
 1731 02a8 4F4D454E 		.ascii	"OMEN_KORIO\\CE210311_CapSense_P4_ADC_Sequential01.c"
 1731      5F4B4F52 
 1731      494F5C43 
 1731      45323130 
 1731      3331315F 
 1732 02da 7964736E 		.ascii	"ydsn\000"
 1732      00
 1733              	.LASF51:
 1734 02df 77646774 		.ascii	"wdgtStatus\000"
 1734      53746174 
 1734      757300
 1735              	.LASF1:
 1736 02ea 756E7369 		.ascii	"unsigned char\000"
 1736      676E6564 
 1736      20636861 
 1736      7200
ARM GAS  C:\Users\CHUNGN~1\AppData\Local\Temp\ccK4RJCg.s 			page 38


 1737              	.LASF82:
 1738 02f8 43617053 		.ascii	"CapSense_ADC_StartAdcFSM\000"
 1738      656E7365 
 1738      5F414443 
 1738      5F537461 
 1738      72744164 
 1739              	.LASF72:
 1740 0311 706F6C61 		.ascii	"polarity\000"
 1740      72697479 
 1740      00
 1741              	.LASF0:
 1742 031a 7369676E 		.ascii	"signed char\000"
 1742      65642063 
 1742      68617200 
 1743              	.LASF7:
 1744 0326 6C6F6E67 		.ascii	"long long unsigned int\000"
 1744      206C6F6E 
 1744      6720756E 
 1744      7369676E 
 1744      65642069 
 1745              	.LASF76:
 1746 033d 6E657752 		.ascii	"newRegValue\000"
 1746      65675661 
 1746      6C756500 
 1747              	.LASF86:
 1748 0349 47656E65 		.ascii	"Generated_Source\\PSoC4\\CapSense_ADC_Adc_INT.c\000"
 1748      72617465 
 1748      645F536F 
 1748      75726365 
 1748      5C50536F 
 1749              	.LASF8:
 1750 0377 756E7369 		.ascii	"unsigned int\000"
 1750      676E6564 
 1750      20696E74 
 1750      00
 1751              	.LASF79:
 1752 0384 43617053 		.ascii	"CapSense_ADC_dsRam\000"
 1752      656E7365 
 1752      5F414443 
 1752      5F647352 
 1752      616D00
 1753              	.LASF71:
 1754 0397 746D7052 		.ascii	"tmpResult\000"
 1754      6573756C 
 1754      7400
 1755              	.LASF81:
 1756 03a1 43617053 		.ascii	"CapSense_ADC_SetAdcChannel\000"
 1756      656E7365 
 1756      5F414443 
 1756      5F536574 
 1756      41646343 
 1757              	.LASF5:
 1758 03bc 6C6F6E67 		.ascii	"long unsigned int\000"
 1758      20756E73 
 1758      69676E65 
 1758      6420696E 
 1758      7400
ARM GAS  C:\Users\CHUNGN~1\AppData\Local\Temp\ccK4RJCg.s 			page 39


 1759              	.LASF50:
 1760 03ce 77646774 		.ascii	"wdgtEnable\000"
 1760      456E6162 
 1760      6C6500
 1761              	.LASF15:
 1762 03d9 72656733 		.ascii	"reg32\000"
 1762      3200
 1763              	.LASF67:
 1764 03df 43617053 		.ascii	"CapSense_ADC_RAM_STRUCT\000"
 1764      656E7365 
 1764      5F414443 
 1764      5F52414D 
 1764      5F535452 
 1765              	.LASF49:
 1766 03f7 73746174 		.ascii	"status\000"
 1766      757300
 1767              	.LASF65:
 1768 03fe 736E7254 		.ascii	"snrTestScanCounter\000"
 1768      65737453 
 1768      63616E43 
 1768      6F756E74 
 1768      657200
 1769              	.LASF20:
 1770 0411 7265736F 		.ascii	"resolution\000"
 1770      6C757469 
 1770      6F6E00
 1771              	.LASF68:
 1772 041c 74567373 		.ascii	"tVssa2Vref\000"
 1772      61325672 
 1772      656600
 1773              	.LASF3:
 1774 0427 73686F72 		.ascii	"short unsigned int\000"
 1774      7420756E 
 1774      7369676E 
 1774      65642069 
 1774      6E7400
 1775              	.LASF62:
 1776 043a 736E734C 		.ascii	"snsList\000"
 1776      69737400 
 1777              	.LASF80:
 1778 0442 43617053 		.ascii	"CapSense_ADC_AdcVref_mV\000"
 1778      656E7365 
 1778      5F414443 
 1778      5F416463 
 1778      56726566 
 1779              	.LASF58:
 1780 045a 6D6F6443 		.ascii	"modCsdClk\000"
 1780      7364436C 
 1780      6B00
 1781              	.LASF48:
 1782 0464 7363616E 		.ascii	"scanCounter\000"
 1782      436F756E 
 1782      74657200 
 1783              	.LASF23:
 1784 0470 6E4E6F69 		.ascii	"nNoiseTh\000"
 1784      73655468 
 1784      00
ARM GAS  C:\Users\CHUNGN~1\AppData\Local\Temp\ccK4RJCg.s 			page 40


 1785              	.LASF75:
 1786 0479 696E7465 		.ascii	"interruptState\000"
 1786      72727570 
 1786      74537461 
 1786      746500
 1787              	.LASF31:
 1788 0488 73696750 		.ascii	"sigPFC\000"
 1788      464300
 1789              	.LASF11:
 1790 048f 75696E74 		.ascii	"uint32\000"
 1790      333200
 1791              	.LASF19:
 1792 0496 43617053 		.ascii	"CapSense_ADC_LOW_BSLN_RST_TYPE\000"
 1792      656E7365 
 1792      5F414443 
 1792      5F4C4F57 
 1792      5F42534C 
 1793              	.LASF13:
 1794 04b5 646F7562 		.ascii	"double\000"
 1794      6C6500
 1795              	.LASF39:
 1796 04bc 62736C6E 		.ascii	"bslnExt\000"
 1796      45787400 
 1797              	.LASF44:
 1798 04c4 43617053 		.ascii	"CapSense_ADC_RAM_SNS_LIST_STRUCT\000"
 1798      656E7365 
 1798      5F414443 
 1798      5F52414D 
 1798      5F534E53 
 1799              	.LASF54:
 1800 04e5 61646343 		.ascii	"adcCode\000"
 1800      6F646500 
 1801              	.LASF56:
 1802 04ed 61646349 		.ascii	"adcIdac\000"
 1802      64616300 
 1803              	.LASF41:
 1804 04f5 6E656742 		.ascii	"negBslnRstCnt\000"
 1804      736C6E52 
 1804      7374436E 
 1804      7400
 1805              	.LASF33:
 1806 0503 62757474 		.ascii	"button0\000"
 1806      6F6E3000 
 1807              	.LASF34:
 1808 050b 62757474 		.ascii	"button1\000"
 1808      6F6E3100 
 1809              	.LASF35:
 1810 0513 62757474 		.ascii	"button2\000"
 1810      6F6E3200 
 1811              	.LASF36:
 1812 051b 62757474 		.ascii	"button3\000"
 1812      6F6E3300 
 1813              	.LASF30:
 1814 0523 66696E67 		.ascii	"fingerCap\000"
 1814      65724361 
 1814      7000
 1815              	.LASF32:
ARM GAS  C:\Users\CHUNGN~1\AppData\Local\Temp\ccK4RJCg.s 			page 41


 1816 052d 43617053 		.ascii	"CapSense_ADC_RAM_WD_BUTTON_STRUCT\000"
 1816      656E7365 
 1816      5F414443 
 1816      5F52414D 
 1816      5F57445F 
 1817              	.LASF63:
 1818 054f 736E7254 		.ascii	"snrTestWidgetId\000"
 1818      65737457 
 1818      69646765 
 1818      74496400 
 1819              	.LASF59:
 1820 055f 61646352 		.ascii	"adcResolution\000"
 1820      65736F6C 
 1820      7574696F 
 1820      6E00
 1821              	.LASF52:
 1822 056d 736E7353 		.ascii	"snsStatus\000"
 1822      74617475 
 1822      7300
 1823              	.LASF74:
 1824 0577 746D7043 		.ascii	"tmpChId\000"
 1824      68496400 
 1825              	.LASF40:
 1826 057f 64696666 		.ascii	"diff\000"
 1826      00
 1827              		.ident	"GCC: (GNU Tools for ARM Embedded Processors) 5.4.1 20160609 (release) [ARM/embedded-5-bran
