ARM GAS  C:\Users\CHUNGN~1\AppData\Local\Temp\ccsEfZNk.s 			page 1


   1              		.syntax unified
   2              		.cpu cortex-m0plus
   3              		.fpu softvfp
   4              		.eabi_attribute 20, 1
   5              		.eabi_attribute 21, 1
   6              		.eabi_attribute 23, 3
   7              		.eabi_attribute 24, 1
   8              		.eabi_attribute 25, 1
   9              		.eabi_attribute 26, 1
  10              		.eabi_attribute 30, 1
  11              		.eabi_attribute 34, 0
  12              		.eabi_attribute 18, 4
  13              		.thumb
  14              		.syntax unified
  15              		.file	"EZI2C.c"
  16              		.text
  17              	.Ltext0:
  18              		.cfi_sections	.debug_frame
  19              		.section	.text.EZI2C_ScbEnableIntr,"ax",%progbits
  20              		.align	2
  21              		.code	16
  22              		.thumb_func
  23              		.type	EZI2C_ScbEnableIntr, %function
  24              	EZI2C_ScbEnableIntr:
  25              	.LFB8:
  26              		.file 1 "Generated_Source\\PSoC4\\EZI2C.c"
   1:Generated_Source\PSoC4/EZI2C.c **** /***************************************************************************//**
   2:Generated_Source\PSoC4/EZI2C.c **** * \file EZI2C.c
   3:Generated_Source\PSoC4/EZI2C.c **** * \version 3.20
   4:Generated_Source\PSoC4/EZI2C.c **** *
   5:Generated_Source\PSoC4/EZI2C.c **** * \brief
   6:Generated_Source\PSoC4/EZI2C.c **** *  This file provides the source code to the API for the SCB Component.
   7:Generated_Source\PSoC4/EZI2C.c **** *
   8:Generated_Source\PSoC4/EZI2C.c **** * Note:
   9:Generated_Source\PSoC4/EZI2C.c **** *
  10:Generated_Source\PSoC4/EZI2C.c **** *******************************************************************************
  11:Generated_Source\PSoC4/EZI2C.c **** * \copyright
  12:Generated_Source\PSoC4/EZI2C.c **** * Copyright 2013-2016, Cypress Semiconductor Corporation.  All rights reserved.
  13:Generated_Source\PSoC4/EZI2C.c **** * You may use this file only in accordance with the license, terms, conditions,
  14:Generated_Source\PSoC4/EZI2C.c **** * disclaimers, and limitations in the end user license agreement accompanying
  15:Generated_Source\PSoC4/EZI2C.c **** * the software package with which this file was provided.
  16:Generated_Source\PSoC4/EZI2C.c **** *******************************************************************************/
  17:Generated_Source\PSoC4/EZI2C.c **** 
  18:Generated_Source\PSoC4/EZI2C.c **** #include "EZI2C_PVT.h"
  19:Generated_Source\PSoC4/EZI2C.c **** 
  20:Generated_Source\PSoC4/EZI2C.c **** #if (EZI2C_SCB_MODE_I2C_INC)
  21:Generated_Source\PSoC4/EZI2C.c ****     #include "EZI2C_I2C_PVT.h"
  22:Generated_Source\PSoC4/EZI2C.c **** #endif /* (EZI2C_SCB_MODE_I2C_INC) */
  23:Generated_Source\PSoC4/EZI2C.c **** 
  24:Generated_Source\PSoC4/EZI2C.c **** #if (EZI2C_SCB_MODE_EZI2C_INC)
  25:Generated_Source\PSoC4/EZI2C.c ****     #include "EZI2C_EZI2C_PVT.h"
  26:Generated_Source\PSoC4/EZI2C.c **** #endif /* (EZI2C_SCB_MODE_EZI2C_INC) */
  27:Generated_Source\PSoC4/EZI2C.c **** 
  28:Generated_Source\PSoC4/EZI2C.c **** #if (EZI2C_SCB_MODE_SPI_INC || EZI2C_SCB_MODE_UART_INC)
  29:Generated_Source\PSoC4/EZI2C.c ****     #include "EZI2C_SPI_UART_PVT.h"
  30:Generated_Source\PSoC4/EZI2C.c **** #endif /* (EZI2C_SCB_MODE_SPI_INC || EZI2C_SCB_MODE_UART_INC) */
  31:Generated_Source\PSoC4/EZI2C.c **** 
ARM GAS  C:\Users\CHUNGN~1\AppData\Local\Temp\ccsEfZNk.s 			page 2


  32:Generated_Source\PSoC4/EZI2C.c **** 
  33:Generated_Source\PSoC4/EZI2C.c **** /***************************************
  34:Generated_Source\PSoC4/EZI2C.c **** *    Run Time Configuration Vars
  35:Generated_Source\PSoC4/EZI2C.c **** ***************************************/
  36:Generated_Source\PSoC4/EZI2C.c **** 
  37:Generated_Source\PSoC4/EZI2C.c **** /* Stores internal component configuration for Unconfigured mode */
  38:Generated_Source\PSoC4/EZI2C.c **** #if (EZI2C_SCB_MODE_UNCONFIG_CONST_CFG)
  39:Generated_Source\PSoC4/EZI2C.c ****     /* Common configuration variables */
  40:Generated_Source\PSoC4/EZI2C.c ****     uint8 EZI2C_scbMode = EZI2C_SCB_MODE_UNCONFIG;
  41:Generated_Source\PSoC4/EZI2C.c ****     uint8 EZI2C_scbEnableWake;
  42:Generated_Source\PSoC4/EZI2C.c ****     uint8 EZI2C_scbEnableIntr;
  43:Generated_Source\PSoC4/EZI2C.c **** 
  44:Generated_Source\PSoC4/EZI2C.c ****     /* I2C configuration variables */
  45:Generated_Source\PSoC4/EZI2C.c ****     uint8 EZI2C_mode;
  46:Generated_Source\PSoC4/EZI2C.c ****     uint8 EZI2C_acceptAddr;
  47:Generated_Source\PSoC4/EZI2C.c **** 
  48:Generated_Source\PSoC4/EZI2C.c ****     /* SPI/UART configuration variables */
  49:Generated_Source\PSoC4/EZI2C.c ****     volatile uint8 * EZI2C_rxBuffer;
  50:Generated_Source\PSoC4/EZI2C.c ****     uint8  EZI2C_rxDataBits;
  51:Generated_Source\PSoC4/EZI2C.c ****     uint32 EZI2C_rxBufferSize;
  52:Generated_Source\PSoC4/EZI2C.c **** 
  53:Generated_Source\PSoC4/EZI2C.c ****     volatile uint8 * EZI2C_txBuffer;
  54:Generated_Source\PSoC4/EZI2C.c ****     uint8  EZI2C_txDataBits;
  55:Generated_Source\PSoC4/EZI2C.c ****     uint32 EZI2C_txBufferSize;
  56:Generated_Source\PSoC4/EZI2C.c **** 
  57:Generated_Source\PSoC4/EZI2C.c ****     /* EZI2C configuration variables */
  58:Generated_Source\PSoC4/EZI2C.c ****     uint8 EZI2C_numberOfAddr;
  59:Generated_Source\PSoC4/EZI2C.c ****     uint8 EZI2C_subAddrSize;
  60:Generated_Source\PSoC4/EZI2C.c **** #endif /* (EZI2C_SCB_MODE_UNCONFIG_CONST_CFG) */
  61:Generated_Source\PSoC4/EZI2C.c **** 
  62:Generated_Source\PSoC4/EZI2C.c **** 
  63:Generated_Source\PSoC4/EZI2C.c **** /***************************************
  64:Generated_Source\PSoC4/EZI2C.c **** *     Common SCB Vars
  65:Generated_Source\PSoC4/EZI2C.c **** ***************************************/
  66:Generated_Source\PSoC4/EZI2C.c **** /**
  67:Generated_Source\PSoC4/EZI2C.c **** * \addtogroup group_general
  68:Generated_Source\PSoC4/EZI2C.c **** * \{
  69:Generated_Source\PSoC4/EZI2C.c **** */
  70:Generated_Source\PSoC4/EZI2C.c **** 
  71:Generated_Source\PSoC4/EZI2C.c **** /** EZI2C_initVar indicates whether the EZI2C 
  72:Generated_Source\PSoC4/EZI2C.c **** *  component has been initialized. The variable is initialized to 0 
  73:Generated_Source\PSoC4/EZI2C.c **** *  and set to 1 the first time SCB_Start() is called. This allows 
  74:Generated_Source\PSoC4/EZI2C.c **** *  the component to restart without reinitialization after the first 
  75:Generated_Source\PSoC4/EZI2C.c **** *  call to the EZI2C_Start() routine.
  76:Generated_Source\PSoC4/EZI2C.c **** *
  77:Generated_Source\PSoC4/EZI2C.c **** *  If re-initialization of the component is required, then the 
  78:Generated_Source\PSoC4/EZI2C.c **** *  EZI2C_Init() function can be called before the 
  79:Generated_Source\PSoC4/EZI2C.c **** *  EZI2C_Start() or EZI2C_Enable() function.
  80:Generated_Source\PSoC4/EZI2C.c **** */
  81:Generated_Source\PSoC4/EZI2C.c **** uint8 EZI2C_initVar = 0u;
  82:Generated_Source\PSoC4/EZI2C.c **** 
  83:Generated_Source\PSoC4/EZI2C.c **** 
  84:Generated_Source\PSoC4/EZI2C.c **** #if (! (EZI2C_SCB_MODE_I2C_CONST_CFG || \
  85:Generated_Source\PSoC4/EZI2C.c ****         EZI2C_SCB_MODE_EZI2C_CONST_CFG))
  86:Generated_Source\PSoC4/EZI2C.c ****     /** This global variable stores TX interrupt sources after 
  87:Generated_Source\PSoC4/EZI2C.c ****     * EZI2C_Stop() is called. Only these TX interrupt sources 
  88:Generated_Source\PSoC4/EZI2C.c ****     * will be restored on a subsequent EZI2C_Enable() call.
ARM GAS  C:\Users\CHUNGN~1\AppData\Local\Temp\ccsEfZNk.s 			page 3


  89:Generated_Source\PSoC4/EZI2C.c ****     */
  90:Generated_Source\PSoC4/EZI2C.c ****     uint16 EZI2C_IntrTxMask = 0u;
  91:Generated_Source\PSoC4/EZI2C.c **** #endif /* (! (EZI2C_SCB_MODE_I2C_CONST_CFG || \
  92:Generated_Source\PSoC4/EZI2C.c ****               EZI2C_SCB_MODE_EZI2C_CONST_CFG)) */
  93:Generated_Source\PSoC4/EZI2C.c **** /** \} globals */
  94:Generated_Source\PSoC4/EZI2C.c **** 
  95:Generated_Source\PSoC4/EZI2C.c **** #if (EZI2C_SCB_IRQ_INTERNAL)
  96:Generated_Source\PSoC4/EZI2C.c **** #if !defined (CY_REMOVE_EZI2C_CUSTOM_INTR_HANDLER)
  97:Generated_Source\PSoC4/EZI2C.c ****     void (*EZI2C_customIntrHandler)(void) = NULL;
  98:Generated_Source\PSoC4/EZI2C.c **** #endif /* !defined (CY_REMOVE_EZI2C_CUSTOM_INTR_HANDLER) */
  99:Generated_Source\PSoC4/EZI2C.c **** #endif /* (EZI2C_SCB_IRQ_INTERNAL) */
 100:Generated_Source\PSoC4/EZI2C.c **** 
 101:Generated_Source\PSoC4/EZI2C.c **** 
 102:Generated_Source\PSoC4/EZI2C.c **** /***************************************
 103:Generated_Source\PSoC4/EZI2C.c **** *    Private Function Prototypes
 104:Generated_Source\PSoC4/EZI2C.c **** ***************************************/
 105:Generated_Source\PSoC4/EZI2C.c **** 
 106:Generated_Source\PSoC4/EZI2C.c **** static void EZI2C_ScbEnableIntr(void);
 107:Generated_Source\PSoC4/EZI2C.c **** static void EZI2C_ScbModeStop(void);
 108:Generated_Source\PSoC4/EZI2C.c **** static void EZI2C_ScbModePostEnable(void);
 109:Generated_Source\PSoC4/EZI2C.c **** 
 110:Generated_Source\PSoC4/EZI2C.c **** 
 111:Generated_Source\PSoC4/EZI2C.c **** /*******************************************************************************
 112:Generated_Source\PSoC4/EZI2C.c **** * Function Name: EZI2C_Init
 113:Generated_Source\PSoC4/EZI2C.c **** ****************************************************************************//**
 114:Generated_Source\PSoC4/EZI2C.c **** *
 115:Generated_Source\PSoC4/EZI2C.c **** *  Initializes the EZI2C component to operate in one of the selected
 116:Generated_Source\PSoC4/EZI2C.c **** *  configurations: I2C, SPI, UART or EZI2C.
 117:Generated_Source\PSoC4/EZI2C.c **** *  When the configuration is set to "Unconfigured SCB", this function does
 118:Generated_Source\PSoC4/EZI2C.c **** *  not do any initialization. Use mode-specific initialization APIs instead:
 119:Generated_Source\PSoC4/EZI2C.c **** *  EZI2C_I2CInit, EZI2C_SpiInit, 
 120:Generated_Source\PSoC4/EZI2C.c **** *  EZI2C_UartInit or EZI2C_EzI2CInit.
 121:Generated_Source\PSoC4/EZI2C.c **** *
 122:Generated_Source\PSoC4/EZI2C.c **** *******************************************************************************/
 123:Generated_Source\PSoC4/EZI2C.c **** void EZI2C_Init(void)
 124:Generated_Source\PSoC4/EZI2C.c **** {
 125:Generated_Source\PSoC4/EZI2C.c **** #if (EZI2C_SCB_MODE_UNCONFIG_CONST_CFG)
 126:Generated_Source\PSoC4/EZI2C.c ****     if (EZI2C_SCB_MODE_UNCONFIG_RUNTM_CFG)
 127:Generated_Source\PSoC4/EZI2C.c ****     {
 128:Generated_Source\PSoC4/EZI2C.c ****         EZI2C_initVar = 0u;
 129:Generated_Source\PSoC4/EZI2C.c ****     }
 130:Generated_Source\PSoC4/EZI2C.c ****     else
 131:Generated_Source\PSoC4/EZI2C.c ****     {
 132:Generated_Source\PSoC4/EZI2C.c ****         /* Initialization was done before this function call */
 133:Generated_Source\PSoC4/EZI2C.c ****     }
 134:Generated_Source\PSoC4/EZI2C.c **** 
 135:Generated_Source\PSoC4/EZI2C.c **** #elif (EZI2C_SCB_MODE_I2C_CONST_CFG)
 136:Generated_Source\PSoC4/EZI2C.c ****     EZI2C_I2CInit();
 137:Generated_Source\PSoC4/EZI2C.c **** 
 138:Generated_Source\PSoC4/EZI2C.c **** #elif (EZI2C_SCB_MODE_SPI_CONST_CFG)
 139:Generated_Source\PSoC4/EZI2C.c ****     EZI2C_SpiInit();
 140:Generated_Source\PSoC4/EZI2C.c **** 
 141:Generated_Source\PSoC4/EZI2C.c **** #elif (EZI2C_SCB_MODE_UART_CONST_CFG)
 142:Generated_Source\PSoC4/EZI2C.c ****     EZI2C_UartInit();
 143:Generated_Source\PSoC4/EZI2C.c **** 
 144:Generated_Source\PSoC4/EZI2C.c **** #elif (EZI2C_SCB_MODE_EZI2C_CONST_CFG)
 145:Generated_Source\PSoC4/EZI2C.c ****     EZI2C_EzI2CInit();
ARM GAS  C:\Users\CHUNGN~1\AppData\Local\Temp\ccsEfZNk.s 			page 4


 146:Generated_Source\PSoC4/EZI2C.c **** 
 147:Generated_Source\PSoC4/EZI2C.c **** #endif /* (EZI2C_SCB_MODE_UNCONFIG_CONST_CFG) */
 148:Generated_Source\PSoC4/EZI2C.c **** }
 149:Generated_Source\PSoC4/EZI2C.c **** 
 150:Generated_Source\PSoC4/EZI2C.c **** 
 151:Generated_Source\PSoC4/EZI2C.c **** /*******************************************************************************
 152:Generated_Source\PSoC4/EZI2C.c **** * Function Name: EZI2C_Enable
 153:Generated_Source\PSoC4/EZI2C.c **** ****************************************************************************//**
 154:Generated_Source\PSoC4/EZI2C.c **** *
 155:Generated_Source\PSoC4/EZI2C.c **** *  Enables EZI2C component operation: activates the hardware and 
 156:Generated_Source\PSoC4/EZI2C.c **** *  internal interrupt. It also restores TX interrupt sources disabled after the 
 157:Generated_Source\PSoC4/EZI2C.c **** *  EZI2C_Stop() function was called (note that level-triggered TX 
 158:Generated_Source\PSoC4/EZI2C.c **** *  interrupt sources remain disabled to not cause code lock-up).
 159:Generated_Source\PSoC4/EZI2C.c **** *  For I2C and EZI2C modes the interrupt is internal and mandatory for 
 160:Generated_Source\PSoC4/EZI2C.c **** *  operation. For SPI and UART modes the interrupt can be configured as none, 
 161:Generated_Source\PSoC4/EZI2C.c **** *  internal or external.
 162:Generated_Source\PSoC4/EZI2C.c **** *  The EZI2C configuration should be not changed when the component
 163:Generated_Source\PSoC4/EZI2C.c **** *  is enabled. Any configuration changes should be made after disabling the 
 164:Generated_Source\PSoC4/EZI2C.c **** *  component.
 165:Generated_Source\PSoC4/EZI2C.c **** *  When configuration is set to “Unconfigured EZI2C”, the component 
 166:Generated_Source\PSoC4/EZI2C.c **** *  must first be initialized to operate in one of the following configurations: 
 167:Generated_Source\PSoC4/EZI2C.c **** *  I2C, SPI, UART or EZ I2C, using the mode-specific initialization API. 
 168:Generated_Source\PSoC4/EZI2C.c **** *  Otherwise this function does not enable the component.
 169:Generated_Source\PSoC4/EZI2C.c **** *
 170:Generated_Source\PSoC4/EZI2C.c **** *******************************************************************************/
 171:Generated_Source\PSoC4/EZI2C.c **** void EZI2C_Enable(void)
 172:Generated_Source\PSoC4/EZI2C.c **** {
 173:Generated_Source\PSoC4/EZI2C.c **** #if (EZI2C_SCB_MODE_UNCONFIG_CONST_CFG)
 174:Generated_Source\PSoC4/EZI2C.c ****     /* Enable SCB block, only if it is already configured */
 175:Generated_Source\PSoC4/EZI2C.c ****     if (!EZI2C_SCB_MODE_UNCONFIG_RUNTM_CFG)
 176:Generated_Source\PSoC4/EZI2C.c ****     {
 177:Generated_Source\PSoC4/EZI2C.c ****         EZI2C_CTRL_REG |= EZI2C_CTRL_ENABLED;
 178:Generated_Source\PSoC4/EZI2C.c **** 
 179:Generated_Source\PSoC4/EZI2C.c ****         EZI2C_ScbEnableIntr();
 180:Generated_Source\PSoC4/EZI2C.c **** 
 181:Generated_Source\PSoC4/EZI2C.c ****         /* Call PostEnable function specific to current operation mode */
 182:Generated_Source\PSoC4/EZI2C.c ****         EZI2C_ScbModePostEnable();
 183:Generated_Source\PSoC4/EZI2C.c ****     }
 184:Generated_Source\PSoC4/EZI2C.c **** #else
 185:Generated_Source\PSoC4/EZI2C.c ****     EZI2C_CTRL_REG |= EZI2C_CTRL_ENABLED;
 186:Generated_Source\PSoC4/EZI2C.c **** 
 187:Generated_Source\PSoC4/EZI2C.c ****     EZI2C_ScbEnableIntr();
 188:Generated_Source\PSoC4/EZI2C.c **** 
 189:Generated_Source\PSoC4/EZI2C.c ****     /* Call PostEnable function specific to current operation mode */
 190:Generated_Source\PSoC4/EZI2C.c ****     EZI2C_ScbModePostEnable();
 191:Generated_Source\PSoC4/EZI2C.c **** #endif /* (EZI2C_SCB_MODE_UNCONFIG_CONST_CFG) */
 192:Generated_Source\PSoC4/EZI2C.c **** }
 193:Generated_Source\PSoC4/EZI2C.c **** 
 194:Generated_Source\PSoC4/EZI2C.c **** 
 195:Generated_Source\PSoC4/EZI2C.c **** /*******************************************************************************
 196:Generated_Source\PSoC4/EZI2C.c **** * Function Name: EZI2C_Start
 197:Generated_Source\PSoC4/EZI2C.c **** ****************************************************************************//**
 198:Generated_Source\PSoC4/EZI2C.c **** *
 199:Generated_Source\PSoC4/EZI2C.c **** *  Invokes EZI2C_Init() and EZI2C_Enable().
 200:Generated_Source\PSoC4/EZI2C.c **** *  After this function call, the component is enabled and ready for operation.
 201:Generated_Source\PSoC4/EZI2C.c **** *  When configuration is set to "Unconfigured SCB", the component must first be
 202:Generated_Source\PSoC4/EZI2C.c **** *  initialized to operate in one of the following configurations: I2C, SPI, UART
ARM GAS  C:\Users\CHUNGN~1\AppData\Local\Temp\ccsEfZNk.s 			page 5


 203:Generated_Source\PSoC4/EZI2C.c **** *  or EZI2C. Otherwise this function does not enable the component.
 204:Generated_Source\PSoC4/EZI2C.c **** *
 205:Generated_Source\PSoC4/EZI2C.c **** * \globalvars
 206:Generated_Source\PSoC4/EZI2C.c **** *  EZI2C_initVar - used to check initial configuration, modified
 207:Generated_Source\PSoC4/EZI2C.c **** *  on first function call.
 208:Generated_Source\PSoC4/EZI2C.c **** *
 209:Generated_Source\PSoC4/EZI2C.c **** *******************************************************************************/
 210:Generated_Source\PSoC4/EZI2C.c **** void EZI2C_Start(void)
 211:Generated_Source\PSoC4/EZI2C.c **** {
 212:Generated_Source\PSoC4/EZI2C.c ****     if (0u == EZI2C_initVar)
 213:Generated_Source\PSoC4/EZI2C.c ****     {
 214:Generated_Source\PSoC4/EZI2C.c ****         EZI2C_Init();
 215:Generated_Source\PSoC4/EZI2C.c ****         EZI2C_initVar = 1u; /* Component was initialized */
 216:Generated_Source\PSoC4/EZI2C.c ****     }
 217:Generated_Source\PSoC4/EZI2C.c **** 
 218:Generated_Source\PSoC4/EZI2C.c ****     EZI2C_Enable();
 219:Generated_Source\PSoC4/EZI2C.c **** }
 220:Generated_Source\PSoC4/EZI2C.c **** 
 221:Generated_Source\PSoC4/EZI2C.c **** 
 222:Generated_Source\PSoC4/EZI2C.c **** /*******************************************************************************
 223:Generated_Source\PSoC4/EZI2C.c **** * Function Name: EZI2C_Stop
 224:Generated_Source\PSoC4/EZI2C.c **** ****************************************************************************//**
 225:Generated_Source\PSoC4/EZI2C.c **** *
 226:Generated_Source\PSoC4/EZI2C.c **** *  Disables the EZI2C component: disable the hardware and internal 
 227:Generated_Source\PSoC4/EZI2C.c **** *  interrupt. It also disables all TX interrupt sources so as not to cause an 
 228:Generated_Source\PSoC4/EZI2C.c **** *  unexpected interrupt trigger because after the component is enabled, the 
 229:Generated_Source\PSoC4/EZI2C.c **** *  TX FIFO is empty.
 230:Generated_Source\PSoC4/EZI2C.c **** *  Refer to the function EZI2C_Enable() for the interrupt 
 231:Generated_Source\PSoC4/EZI2C.c **** *  configuration details.
 232:Generated_Source\PSoC4/EZI2C.c **** *  This function disables the SCB component without checking to see if 
 233:Generated_Source\PSoC4/EZI2C.c **** *  communication is in progress. Before calling this function it may be 
 234:Generated_Source\PSoC4/EZI2C.c **** *  necessary to check the status of communication to make sure communication 
 235:Generated_Source\PSoC4/EZI2C.c **** *  is complete. If this is not done then communication could be stopped mid 
 236:Generated_Source\PSoC4/EZI2C.c **** *  byte and corrupted data could result.
 237:Generated_Source\PSoC4/EZI2C.c **** *
 238:Generated_Source\PSoC4/EZI2C.c **** *******************************************************************************/
 239:Generated_Source\PSoC4/EZI2C.c **** void EZI2C_Stop(void)
 240:Generated_Source\PSoC4/EZI2C.c **** {
 241:Generated_Source\PSoC4/EZI2C.c **** #if (EZI2C_SCB_IRQ_INTERNAL)
 242:Generated_Source\PSoC4/EZI2C.c ****     EZI2C_DisableInt();
 243:Generated_Source\PSoC4/EZI2C.c **** #endif /* (EZI2C_SCB_IRQ_INTERNAL) */
 244:Generated_Source\PSoC4/EZI2C.c **** 
 245:Generated_Source\PSoC4/EZI2C.c ****     /* Call Stop function specific to current operation mode */
 246:Generated_Source\PSoC4/EZI2C.c ****     EZI2C_ScbModeStop();
 247:Generated_Source\PSoC4/EZI2C.c **** 
 248:Generated_Source\PSoC4/EZI2C.c ****     /* Disable SCB IP */
 249:Generated_Source\PSoC4/EZI2C.c ****     EZI2C_CTRL_REG &= (uint32) ~EZI2C_CTRL_ENABLED;
 250:Generated_Source\PSoC4/EZI2C.c **** 
 251:Generated_Source\PSoC4/EZI2C.c ****     /* Disable all TX interrupt sources so as not to cause an unexpected
 252:Generated_Source\PSoC4/EZI2C.c ****     * interrupt trigger after the component will be enabled because the 
 253:Generated_Source\PSoC4/EZI2C.c ****     * TX FIFO is empty.
 254:Generated_Source\PSoC4/EZI2C.c ****     * For SCB IP v0, it is critical as it does not mask-out interrupt
 255:Generated_Source\PSoC4/EZI2C.c ****     * sources when it is disabled. This can cause a code lock-up in the
 256:Generated_Source\PSoC4/EZI2C.c ****     * interrupt handler because TX FIFO cannot be loaded after the block
 257:Generated_Source\PSoC4/EZI2C.c ****     * is disabled.
 258:Generated_Source\PSoC4/EZI2C.c ****     */
 259:Generated_Source\PSoC4/EZI2C.c ****     EZI2C_SetTxInterruptMode(EZI2C_NO_INTR_SOURCES);
ARM GAS  C:\Users\CHUNGN~1\AppData\Local\Temp\ccsEfZNk.s 			page 6


 260:Generated_Source\PSoC4/EZI2C.c **** 
 261:Generated_Source\PSoC4/EZI2C.c **** #if (EZI2C_SCB_IRQ_INTERNAL)
 262:Generated_Source\PSoC4/EZI2C.c ****     EZI2C_ClearPendingInt();
 263:Generated_Source\PSoC4/EZI2C.c **** #endif /* (EZI2C_SCB_IRQ_INTERNAL) */
 264:Generated_Source\PSoC4/EZI2C.c **** }
 265:Generated_Source\PSoC4/EZI2C.c **** 
 266:Generated_Source\PSoC4/EZI2C.c **** 
 267:Generated_Source\PSoC4/EZI2C.c **** /*******************************************************************************
 268:Generated_Source\PSoC4/EZI2C.c **** * Function Name: EZI2C_SetRxFifoLevel
 269:Generated_Source\PSoC4/EZI2C.c **** ****************************************************************************//**
 270:Generated_Source\PSoC4/EZI2C.c **** *
 271:Generated_Source\PSoC4/EZI2C.c **** *  Sets level in the RX FIFO to generate a RX level interrupt.
 272:Generated_Source\PSoC4/EZI2C.c **** *  When the RX FIFO has more entries than the RX FIFO level an RX level
 273:Generated_Source\PSoC4/EZI2C.c **** *  interrupt request is generated.
 274:Generated_Source\PSoC4/EZI2C.c **** *
 275:Generated_Source\PSoC4/EZI2C.c **** *  \param level: Level in the RX FIFO to generate RX level interrupt.
 276:Generated_Source\PSoC4/EZI2C.c **** *   The range of valid level values is between 0 and RX FIFO depth - 1.
 277:Generated_Source\PSoC4/EZI2C.c **** *
 278:Generated_Source\PSoC4/EZI2C.c **** *******************************************************************************/
 279:Generated_Source\PSoC4/EZI2C.c **** void EZI2C_SetRxFifoLevel(uint32 level)
 280:Generated_Source\PSoC4/EZI2C.c **** {
 281:Generated_Source\PSoC4/EZI2C.c ****     uint32 rxFifoCtrl;
 282:Generated_Source\PSoC4/EZI2C.c **** 
 283:Generated_Source\PSoC4/EZI2C.c ****     rxFifoCtrl = EZI2C_RX_FIFO_CTRL_REG;
 284:Generated_Source\PSoC4/EZI2C.c **** 
 285:Generated_Source\PSoC4/EZI2C.c ****     rxFifoCtrl &= ((uint32) ~EZI2C_RX_FIFO_CTRL_TRIGGER_LEVEL_MASK); /* Clear level mask bits */
 286:Generated_Source\PSoC4/EZI2C.c ****     rxFifoCtrl |= ((uint32) (EZI2C_RX_FIFO_CTRL_TRIGGER_LEVEL_MASK & level));
 287:Generated_Source\PSoC4/EZI2C.c **** 
 288:Generated_Source\PSoC4/EZI2C.c ****     EZI2C_RX_FIFO_CTRL_REG = rxFifoCtrl;
 289:Generated_Source\PSoC4/EZI2C.c **** }
 290:Generated_Source\PSoC4/EZI2C.c **** 
 291:Generated_Source\PSoC4/EZI2C.c **** 
 292:Generated_Source\PSoC4/EZI2C.c **** /*******************************************************************************
 293:Generated_Source\PSoC4/EZI2C.c **** * Function Name: EZI2C_SetTxFifoLevel
 294:Generated_Source\PSoC4/EZI2C.c **** ****************************************************************************//**
 295:Generated_Source\PSoC4/EZI2C.c **** *
 296:Generated_Source\PSoC4/EZI2C.c **** *  Sets level in the TX FIFO to generate a TX level interrupt.
 297:Generated_Source\PSoC4/EZI2C.c **** *  When the TX FIFO has less entries than the TX FIFO level an TX level
 298:Generated_Source\PSoC4/EZI2C.c **** *  interrupt request is generated.
 299:Generated_Source\PSoC4/EZI2C.c **** *
 300:Generated_Source\PSoC4/EZI2C.c **** *  \param level: Level in the TX FIFO to generate TX level interrupt.
 301:Generated_Source\PSoC4/EZI2C.c **** *   The range of valid level values is between 0 and TX FIFO depth - 1.
 302:Generated_Source\PSoC4/EZI2C.c **** *
 303:Generated_Source\PSoC4/EZI2C.c **** *******************************************************************************/
 304:Generated_Source\PSoC4/EZI2C.c **** void EZI2C_SetTxFifoLevel(uint32 level)
 305:Generated_Source\PSoC4/EZI2C.c **** {
 306:Generated_Source\PSoC4/EZI2C.c ****     uint32 txFifoCtrl;
 307:Generated_Source\PSoC4/EZI2C.c **** 
 308:Generated_Source\PSoC4/EZI2C.c ****     txFifoCtrl = EZI2C_TX_FIFO_CTRL_REG;
 309:Generated_Source\PSoC4/EZI2C.c **** 
 310:Generated_Source\PSoC4/EZI2C.c ****     txFifoCtrl &= ((uint32) ~EZI2C_TX_FIFO_CTRL_TRIGGER_LEVEL_MASK); /* Clear level mask bits */
 311:Generated_Source\PSoC4/EZI2C.c ****     txFifoCtrl |= ((uint32) (EZI2C_TX_FIFO_CTRL_TRIGGER_LEVEL_MASK & level));
 312:Generated_Source\PSoC4/EZI2C.c **** 
 313:Generated_Source\PSoC4/EZI2C.c ****     EZI2C_TX_FIFO_CTRL_REG = txFifoCtrl;
 314:Generated_Source\PSoC4/EZI2C.c **** }
 315:Generated_Source\PSoC4/EZI2C.c **** 
 316:Generated_Source\PSoC4/EZI2C.c **** 
ARM GAS  C:\Users\CHUNGN~1\AppData\Local\Temp\ccsEfZNk.s 			page 7


 317:Generated_Source\PSoC4/EZI2C.c **** #if (EZI2C_SCB_IRQ_INTERNAL)
 318:Generated_Source\PSoC4/EZI2C.c ****     /*******************************************************************************
 319:Generated_Source\PSoC4/EZI2C.c ****     * Function Name: EZI2C_SetCustomInterruptHandler
 320:Generated_Source\PSoC4/EZI2C.c ****     ****************************************************************************//**
 321:Generated_Source\PSoC4/EZI2C.c ****     *
 322:Generated_Source\PSoC4/EZI2C.c ****     *  Registers a function to be called by the internal interrupt handler.
 323:Generated_Source\PSoC4/EZI2C.c ****     *  First the function that is registered is called, then the internal interrupt
 324:Generated_Source\PSoC4/EZI2C.c ****     *  handler performs any operation such as software buffer management functions
 325:Generated_Source\PSoC4/EZI2C.c ****     *  before the interrupt returns.  It is the user's responsibility not to break
 326:Generated_Source\PSoC4/EZI2C.c ****     *  the software buffer operations. Only one custom handler is supported, which
 327:Generated_Source\PSoC4/EZI2C.c ****     *  is the function provided by the most recent call.
 328:Generated_Source\PSoC4/EZI2C.c ****     *  At the initialization time no custom handler is registered.
 329:Generated_Source\PSoC4/EZI2C.c ****     *
 330:Generated_Source\PSoC4/EZI2C.c ****     *  \param func: Pointer to the function to register.
 331:Generated_Source\PSoC4/EZI2C.c ****     *        The value NULL indicates to remove the current custom interrupt
 332:Generated_Source\PSoC4/EZI2C.c ****     *        handler.
 333:Generated_Source\PSoC4/EZI2C.c ****     *
 334:Generated_Source\PSoC4/EZI2C.c ****     *******************************************************************************/
 335:Generated_Source\PSoC4/EZI2C.c ****     void EZI2C_SetCustomInterruptHandler(void (*func)(void))
 336:Generated_Source\PSoC4/EZI2C.c ****     {
 337:Generated_Source\PSoC4/EZI2C.c ****     #if !defined (CY_REMOVE_EZI2C_CUSTOM_INTR_HANDLER)
 338:Generated_Source\PSoC4/EZI2C.c ****         EZI2C_customIntrHandler = func; /* Register interrupt handler */
 339:Generated_Source\PSoC4/EZI2C.c ****     #else
 340:Generated_Source\PSoC4/EZI2C.c ****         if (NULL != func)
 341:Generated_Source\PSoC4/EZI2C.c ****         {
 342:Generated_Source\PSoC4/EZI2C.c ****             /* Suppress compiler warning */
 343:Generated_Source\PSoC4/EZI2C.c ****         }
 344:Generated_Source\PSoC4/EZI2C.c ****     #endif /* !defined (CY_REMOVE_EZI2C_CUSTOM_INTR_HANDLER) */
 345:Generated_Source\PSoC4/EZI2C.c ****     }
 346:Generated_Source\PSoC4/EZI2C.c **** #endif /* (EZI2C_SCB_IRQ_INTERNAL) */
 347:Generated_Source\PSoC4/EZI2C.c **** 
 348:Generated_Source\PSoC4/EZI2C.c **** 
 349:Generated_Source\PSoC4/EZI2C.c **** /*******************************************************************************
 350:Generated_Source\PSoC4/EZI2C.c **** * Function Name: EZI2C_ScbModeEnableIntr
 351:Generated_Source\PSoC4/EZI2C.c **** ****************************************************************************//**
 352:Generated_Source\PSoC4/EZI2C.c **** *
 353:Generated_Source\PSoC4/EZI2C.c **** *  Enables an interrupt for a specific mode.
 354:Generated_Source\PSoC4/EZI2C.c **** *
 355:Generated_Source\PSoC4/EZI2C.c **** *******************************************************************************/
 356:Generated_Source\PSoC4/EZI2C.c **** static void EZI2C_ScbEnableIntr(void)
 357:Generated_Source\PSoC4/EZI2C.c **** {
  27              		.loc 1 357 0
  28              		.cfi_startproc
  29              		@ args = 0, pretend = 0, frame = 0
  30              		@ frame_needed = 0, uses_anonymous_args = 0
  31 0000 10B5     		push	{r4, lr}
  32              		.cfi_def_cfa_offset 8
  33              		.cfi_offset 4, -8
  34              		.cfi_offset 14, -4
 358:Generated_Source\PSoC4/EZI2C.c **** #if (EZI2C_SCB_IRQ_INTERNAL)
 359:Generated_Source\PSoC4/EZI2C.c ****     /* Enable interrupt in NVIC */
 360:Generated_Source\PSoC4/EZI2C.c ****     #if (EZI2C_SCB_MODE_UNCONFIG_CONST_CFG)
 361:Generated_Source\PSoC4/EZI2C.c ****         if (0u != EZI2C_scbEnableIntr)
 362:Generated_Source\PSoC4/EZI2C.c ****         {
 363:Generated_Source\PSoC4/EZI2C.c ****             EZI2C_EnableInt();
 364:Generated_Source\PSoC4/EZI2C.c ****         }
 365:Generated_Source\PSoC4/EZI2C.c **** 
ARM GAS  C:\Users\CHUNGN~1\AppData\Local\Temp\ccsEfZNk.s 			page 8


 366:Generated_Source\PSoC4/EZI2C.c ****     #else
 367:Generated_Source\PSoC4/EZI2C.c ****         EZI2C_EnableInt();
  35              		.loc 1 367 0
  36 0002 0820     		movs	r0, #8
  37 0004 FFF7FEFF 		bl	CyIntEnable
  38              	.LVL0:
 368:Generated_Source\PSoC4/EZI2C.c **** 
 369:Generated_Source\PSoC4/EZI2C.c ****     #endif /* (EZI2C_SCB_MODE_UNCONFIG_CONST_CFG) */
 370:Generated_Source\PSoC4/EZI2C.c **** #endif /* (EZI2C_SCB_IRQ_INTERNAL) */
 371:Generated_Source\PSoC4/EZI2C.c **** }
  39              		.loc 1 371 0
  40              		@ sp needed
  41 0008 10BD     		pop	{r4, pc}
  42              		.cfi_endproc
  43              	.LFE8:
  44              		.size	EZI2C_ScbEnableIntr, .-EZI2C_ScbEnableIntr
  45 000a C046     		.section	.text.EZI2C_ScbModeStop,"ax",%progbits
  46              		.align	2
  47              		.code	16
  48              		.thumb_func
  49              		.type	EZI2C_ScbModeStop, %function
  50              	EZI2C_ScbModeStop:
  51              	.LFB10:
 372:Generated_Source\PSoC4/EZI2C.c **** 
 373:Generated_Source\PSoC4/EZI2C.c **** 
 374:Generated_Source\PSoC4/EZI2C.c **** /*******************************************************************************
 375:Generated_Source\PSoC4/EZI2C.c **** * Function Name: EZI2C_ScbModePostEnable
 376:Generated_Source\PSoC4/EZI2C.c **** ****************************************************************************//**
 377:Generated_Source\PSoC4/EZI2C.c **** *
 378:Generated_Source\PSoC4/EZI2C.c **** *  Calls the PostEnable function for a specific operation mode.
 379:Generated_Source\PSoC4/EZI2C.c **** *
 380:Generated_Source\PSoC4/EZI2C.c **** *******************************************************************************/
 381:Generated_Source\PSoC4/EZI2C.c **** static void EZI2C_ScbModePostEnable(void)
 382:Generated_Source\PSoC4/EZI2C.c **** {
 383:Generated_Source\PSoC4/EZI2C.c **** #if (EZI2C_SCB_MODE_UNCONFIG_CONST_CFG)
 384:Generated_Source\PSoC4/EZI2C.c **** #if (!EZI2C_CY_SCBIP_V1)
 385:Generated_Source\PSoC4/EZI2C.c ****     if (EZI2C_SCB_MODE_SPI_RUNTM_CFG)
 386:Generated_Source\PSoC4/EZI2C.c ****     {
 387:Generated_Source\PSoC4/EZI2C.c ****         EZI2C_SpiPostEnable();
 388:Generated_Source\PSoC4/EZI2C.c ****     }
 389:Generated_Source\PSoC4/EZI2C.c ****     else if (EZI2C_SCB_MODE_UART_RUNTM_CFG)
 390:Generated_Source\PSoC4/EZI2C.c ****     {
 391:Generated_Source\PSoC4/EZI2C.c ****         EZI2C_UartPostEnable();
 392:Generated_Source\PSoC4/EZI2C.c ****     }
 393:Generated_Source\PSoC4/EZI2C.c ****     else
 394:Generated_Source\PSoC4/EZI2C.c ****     {
 395:Generated_Source\PSoC4/EZI2C.c ****         /* Unknown mode: do nothing */
 396:Generated_Source\PSoC4/EZI2C.c ****     }
 397:Generated_Source\PSoC4/EZI2C.c **** #endif /* (!EZI2C_CY_SCBIP_V1) */
 398:Generated_Source\PSoC4/EZI2C.c **** 
 399:Generated_Source\PSoC4/EZI2C.c **** #elif (EZI2C_SCB_MODE_SPI_CONST_CFG)
 400:Generated_Source\PSoC4/EZI2C.c ****     EZI2C_SpiPostEnable();
 401:Generated_Source\PSoC4/EZI2C.c **** 
 402:Generated_Source\PSoC4/EZI2C.c **** #elif (EZI2C_SCB_MODE_UART_CONST_CFG)
 403:Generated_Source\PSoC4/EZI2C.c ****     EZI2C_UartPostEnable();
 404:Generated_Source\PSoC4/EZI2C.c **** 
 405:Generated_Source\PSoC4/EZI2C.c **** #else
ARM GAS  C:\Users\CHUNGN~1\AppData\Local\Temp\ccsEfZNk.s 			page 9


 406:Generated_Source\PSoC4/EZI2C.c ****     /* Unknown mode: do nothing */
 407:Generated_Source\PSoC4/EZI2C.c **** #endif /* (EZI2C_SCB_MODE_UNCONFIG_CONST_CFG) */
 408:Generated_Source\PSoC4/EZI2C.c **** }
 409:Generated_Source\PSoC4/EZI2C.c **** 
 410:Generated_Source\PSoC4/EZI2C.c **** 
 411:Generated_Source\PSoC4/EZI2C.c **** /*******************************************************************************
 412:Generated_Source\PSoC4/EZI2C.c **** * Function Name: EZI2C_ScbModeStop
 413:Generated_Source\PSoC4/EZI2C.c **** ****************************************************************************//**
 414:Generated_Source\PSoC4/EZI2C.c **** *
 415:Generated_Source\PSoC4/EZI2C.c **** *  Calls the Stop function for a specific operation mode.
 416:Generated_Source\PSoC4/EZI2C.c **** *
 417:Generated_Source\PSoC4/EZI2C.c **** *******************************************************************************/
 418:Generated_Source\PSoC4/EZI2C.c **** static void EZI2C_ScbModeStop(void)
 419:Generated_Source\PSoC4/EZI2C.c **** {
  52              		.loc 1 419 0
  53              		.cfi_startproc
  54              		@ args = 0, pretend = 0, frame = 0
  55              		@ frame_needed = 0, uses_anonymous_args = 0
  56 0000 10B5     		push	{r4, lr}
  57              		.cfi_def_cfa_offset 8
  58              		.cfi_offset 4, -8
  59              		.cfi_offset 14, -4
 420:Generated_Source\PSoC4/EZI2C.c **** #if (EZI2C_SCB_MODE_UNCONFIG_CONST_CFG)
 421:Generated_Source\PSoC4/EZI2C.c ****     if (EZI2C_SCB_MODE_I2C_RUNTM_CFG)
 422:Generated_Source\PSoC4/EZI2C.c ****     {
 423:Generated_Source\PSoC4/EZI2C.c ****         EZI2C_I2CStop();
 424:Generated_Source\PSoC4/EZI2C.c ****     }
 425:Generated_Source\PSoC4/EZI2C.c ****     else if (EZI2C_SCB_MODE_EZI2C_RUNTM_CFG)
 426:Generated_Source\PSoC4/EZI2C.c ****     {
 427:Generated_Source\PSoC4/EZI2C.c ****         EZI2C_EzI2CStop();
 428:Generated_Source\PSoC4/EZI2C.c ****     }
 429:Generated_Source\PSoC4/EZI2C.c **** #if (!EZI2C_CY_SCBIP_V1)
 430:Generated_Source\PSoC4/EZI2C.c ****     else if (EZI2C_SCB_MODE_SPI_RUNTM_CFG)
 431:Generated_Source\PSoC4/EZI2C.c ****     {
 432:Generated_Source\PSoC4/EZI2C.c ****         EZI2C_SpiStop();
 433:Generated_Source\PSoC4/EZI2C.c ****     }
 434:Generated_Source\PSoC4/EZI2C.c ****     else if (EZI2C_SCB_MODE_UART_RUNTM_CFG)
 435:Generated_Source\PSoC4/EZI2C.c ****     {
 436:Generated_Source\PSoC4/EZI2C.c ****         EZI2C_UartStop();
 437:Generated_Source\PSoC4/EZI2C.c ****     }
 438:Generated_Source\PSoC4/EZI2C.c **** #endif /* (!EZI2C_CY_SCBIP_V1) */
 439:Generated_Source\PSoC4/EZI2C.c ****     else
 440:Generated_Source\PSoC4/EZI2C.c ****     {
 441:Generated_Source\PSoC4/EZI2C.c ****         /* Unknown mode: do nothing */
 442:Generated_Source\PSoC4/EZI2C.c ****     }
 443:Generated_Source\PSoC4/EZI2C.c **** #elif (EZI2C_SCB_MODE_I2C_CONST_CFG)
 444:Generated_Source\PSoC4/EZI2C.c ****     EZI2C_I2CStop();
 445:Generated_Source\PSoC4/EZI2C.c **** 
 446:Generated_Source\PSoC4/EZI2C.c **** #elif (EZI2C_SCB_MODE_EZI2C_CONST_CFG)
 447:Generated_Source\PSoC4/EZI2C.c ****     EZI2C_EzI2CStop();
  60              		.loc 1 447 0
  61 0002 FFF7FEFF 		bl	EZI2C_EzI2CStop
  62              	.LVL1:
 448:Generated_Source\PSoC4/EZI2C.c **** 
 449:Generated_Source\PSoC4/EZI2C.c **** #elif (EZI2C_SCB_MODE_SPI_CONST_CFG)
 450:Generated_Source\PSoC4/EZI2C.c ****     EZI2C_SpiStop();
 451:Generated_Source\PSoC4/EZI2C.c **** 
ARM GAS  C:\Users\CHUNGN~1\AppData\Local\Temp\ccsEfZNk.s 			page 10


 452:Generated_Source\PSoC4/EZI2C.c **** #elif (EZI2C_SCB_MODE_UART_CONST_CFG)
 453:Generated_Source\PSoC4/EZI2C.c ****     EZI2C_UartStop();
 454:Generated_Source\PSoC4/EZI2C.c **** 
 455:Generated_Source\PSoC4/EZI2C.c **** #else
 456:Generated_Source\PSoC4/EZI2C.c ****     /* Unknown mode: do nothing */
 457:Generated_Source\PSoC4/EZI2C.c **** #endif /* (EZI2C_SCB_MODE_UNCONFIG_CONST_CFG) */
 458:Generated_Source\PSoC4/EZI2C.c **** }
  63              		.loc 1 458 0
  64              		@ sp needed
  65 0006 10BD     		pop	{r4, pc}
  66              		.cfi_endproc
  67              	.LFE10:
  68              		.size	EZI2C_ScbModeStop, .-EZI2C_ScbModeStop
  69              		.section	.text.EZI2C_Init,"ax",%progbits
  70              		.align	2
  71              		.global	EZI2C_Init
  72              		.code	16
  73              		.thumb_func
  74              		.type	EZI2C_Init, %function
  75              	EZI2C_Init:
  76              	.LFB1:
 124:Generated_Source\PSoC4/EZI2C.c **** #if (EZI2C_SCB_MODE_UNCONFIG_CONST_CFG)
  77              		.loc 1 124 0
  78              		.cfi_startproc
  79              		@ args = 0, pretend = 0, frame = 0
  80              		@ frame_needed = 0, uses_anonymous_args = 0
  81 0000 10B5     		push	{r4, lr}
  82              		.cfi_def_cfa_offset 8
  83              		.cfi_offset 4, -8
  84              		.cfi_offset 14, -4
 145:Generated_Source\PSoC4/EZI2C.c **** 
  85              		.loc 1 145 0
  86 0002 FFF7FEFF 		bl	EZI2C_EzI2CInit
  87              	.LVL2:
 148:Generated_Source\PSoC4/EZI2C.c **** 
  88              		.loc 1 148 0
  89              		@ sp needed
  90 0006 10BD     		pop	{r4, pc}
  91              		.cfi_endproc
  92              	.LFE1:
  93              		.size	EZI2C_Init, .-EZI2C_Init
  94              		.section	.text.EZI2C_Enable,"ax",%progbits
  95              		.align	2
  96              		.global	EZI2C_Enable
  97              		.code	16
  98              		.thumb_func
  99              		.type	EZI2C_Enable, %function
 100              	EZI2C_Enable:
 101              	.LFB2:
 172:Generated_Source\PSoC4/EZI2C.c **** #if (EZI2C_SCB_MODE_UNCONFIG_CONST_CFG)
 102              		.loc 1 172 0
 103              		.cfi_startproc
 104              		@ args = 0, pretend = 0, frame = 0
 105              		@ frame_needed = 0, uses_anonymous_args = 0
 106 0000 10B5     		push	{r4, lr}
 107              		.cfi_def_cfa_offset 8
 108              		.cfi_offset 4, -8
ARM GAS  C:\Users\CHUNGN~1\AppData\Local\Temp\ccsEfZNk.s 			page 11


 109              		.cfi_offset 14, -4
 185:Generated_Source\PSoC4/EZI2C.c **** 
 110              		.loc 1 185 0
 111 0002 044A     		ldr	r2, .L5
 112 0004 1368     		ldr	r3, [r2]
 113 0006 8021     		movs	r1, #128
 114 0008 0906     		lsls	r1, r1, #24
 115 000a 0B43     		orrs	r3, r1
 116 000c 1360     		str	r3, [r2]
 187:Generated_Source\PSoC4/EZI2C.c **** 
 117              		.loc 1 187 0
 118 000e FFF7FEFF 		bl	EZI2C_ScbEnableIntr
 119              	.LVL3:
 192:Generated_Source\PSoC4/EZI2C.c **** 
 120              		.loc 1 192 0
 121              		@ sp needed
 122 0012 10BD     		pop	{r4, pc}
 123              	.L6:
 124              		.align	2
 125              	.L5:
 126 0014 00000940 		.word	1074331648
 127              		.cfi_endproc
 128              	.LFE2:
 129              		.size	EZI2C_Enable, .-EZI2C_Enable
 130              		.section	.text.EZI2C_Start,"ax",%progbits
 131              		.align	2
 132              		.global	EZI2C_Start
 133              		.code	16
 134              		.thumb_func
 135              		.type	EZI2C_Start, %function
 136              	EZI2C_Start:
 137              	.LFB3:
 211:Generated_Source\PSoC4/EZI2C.c ****     if (0u == EZI2C_initVar)
 138              		.loc 1 211 0
 139              		.cfi_startproc
 140              		@ args = 0, pretend = 0, frame = 0
 141              		@ frame_needed = 0, uses_anonymous_args = 0
 142 0000 10B5     		push	{r4, lr}
 143              		.cfi_def_cfa_offset 8
 144              		.cfi_offset 4, -8
 145              		.cfi_offset 14, -4
 212:Generated_Source\PSoC4/EZI2C.c ****     {
 146              		.loc 1 212 0
 147 0002 064B     		ldr	r3, .L9
 148 0004 1B78     		ldrb	r3, [r3]
 149 0006 002B     		cmp	r3, #0
 150 0008 04D1     		bne	.L8
 214:Generated_Source\PSoC4/EZI2C.c ****         EZI2C_initVar = 1u; /* Component was initialized */
 151              		.loc 1 214 0
 152 000a FFF7FEFF 		bl	EZI2C_Init
 153              	.LVL4:
 215:Generated_Source\PSoC4/EZI2C.c ****     }
 154              		.loc 1 215 0
 155 000e 0122     		movs	r2, #1
 156 0010 024B     		ldr	r3, .L9
 157 0012 1A70     		strb	r2, [r3]
 158              	.L8:
ARM GAS  C:\Users\CHUNGN~1\AppData\Local\Temp\ccsEfZNk.s 			page 12


 218:Generated_Source\PSoC4/EZI2C.c **** }
 159              		.loc 1 218 0
 160 0014 FFF7FEFF 		bl	EZI2C_Enable
 161              	.LVL5:
 219:Generated_Source\PSoC4/EZI2C.c **** 
 162              		.loc 1 219 0
 163              		@ sp needed
 164 0018 10BD     		pop	{r4, pc}
 165              	.L10:
 166 001a C046     		.align	2
 167              	.L9:
 168 001c 00000000 		.word	.LANCHOR0
 169              		.cfi_endproc
 170              	.LFE3:
 171              		.size	EZI2C_Start, .-EZI2C_Start
 172              		.section	.text.EZI2C_Stop,"ax",%progbits
 173              		.align	2
 174              		.global	EZI2C_Stop
 175              		.code	16
 176              		.thumb_func
 177              		.type	EZI2C_Stop, %function
 178              	EZI2C_Stop:
 179              	.LFB4:
 240:Generated_Source\PSoC4/EZI2C.c **** #if (EZI2C_SCB_IRQ_INTERNAL)
 180              		.loc 1 240 0
 181              		.cfi_startproc
 182              		@ args = 0, pretend = 0, frame = 0
 183              		@ frame_needed = 0, uses_anonymous_args = 0
 184 0000 10B5     		push	{r4, lr}
 185              		.cfi_def_cfa_offset 8
 186              		.cfi_offset 4, -8
 187              		.cfi_offset 14, -4
 242:Generated_Source\PSoC4/EZI2C.c **** #endif /* (EZI2C_SCB_IRQ_INTERNAL) */
 188              		.loc 1 242 0
 189 0002 0820     		movs	r0, #8
 190 0004 FFF7FEFF 		bl	CyIntDisable
 191              	.LVL6:
 246:Generated_Source\PSoC4/EZI2C.c **** 
 192              		.loc 1 246 0
 193 0008 FFF7FEFF 		bl	EZI2C_ScbModeStop
 194              	.LVL7:
 249:Generated_Source\PSoC4/EZI2C.c **** 
 195              		.loc 1 249 0
 196 000c 054A     		ldr	r2, .L12
 197 000e 1368     		ldr	r3, [r2]
 198 0010 5B00     		lsls	r3, r3, #1
 199 0012 5B08     		lsrs	r3, r3, #1
 200 0014 1360     		str	r3, [r2]
 259:Generated_Source\PSoC4/EZI2C.c **** 
 201              		.loc 1 259 0
 202 0016 0022     		movs	r2, #0
 203 0018 034B     		ldr	r3, .L12+4
 204 001a 1A60     		str	r2, [r3]
 262:Generated_Source\PSoC4/EZI2C.c **** #endif /* (EZI2C_SCB_IRQ_INTERNAL) */
 205              		.loc 1 262 0
 206 001c 0820     		movs	r0, #8
 207 001e FFF7FEFF 		bl	CyIntClearPending
ARM GAS  C:\Users\CHUNGN~1\AppData\Local\Temp\ccsEfZNk.s 			page 13


 208              	.LVL8:
 264:Generated_Source\PSoC4/EZI2C.c **** 
 209              		.loc 1 264 0
 210              		@ sp needed
 211 0022 10BD     		pop	{r4, pc}
 212              	.L13:
 213              		.align	2
 214              	.L12:
 215 0024 00000940 		.word	1074331648
 216 0028 880F0940 		.word	1074335624
 217              		.cfi_endproc
 218              	.LFE4:
 219              		.size	EZI2C_Stop, .-EZI2C_Stop
 220              		.section	.text.EZI2C_SetRxFifoLevel,"ax",%progbits
 221              		.align	2
 222              		.global	EZI2C_SetRxFifoLevel
 223              		.code	16
 224              		.thumb_func
 225              		.type	EZI2C_SetRxFifoLevel, %function
 226              	EZI2C_SetRxFifoLevel:
 227              	.LFB5:
 280:Generated_Source\PSoC4/EZI2C.c ****     uint32 rxFifoCtrl;
 228              		.loc 1 280 0
 229              		.cfi_startproc
 230              		@ args = 0, pretend = 0, frame = 0
 231              		@ frame_needed = 0, uses_anonymous_args = 0
 232              		@ link register save eliminated.
 233              	.LVL9:
 283:Generated_Source\PSoC4/EZI2C.c **** 
 234              		.loc 1 283 0
 235 0000 034A     		ldr	r2, .L15
 236 0002 1368     		ldr	r3, [r2]
 237              	.LVL10:
 285:Generated_Source\PSoC4/EZI2C.c ****     rxFifoCtrl |= ((uint32) (EZI2C_RX_FIFO_CTRL_TRIGGER_LEVEL_MASK & level));
 238              		.loc 1 285 0
 239 0004 0F21     		movs	r1, #15
 240 0006 8B43     		bics	r3, r1
 241              	.LVL11:
 286:Generated_Source\PSoC4/EZI2C.c **** 
 242              		.loc 1 286 0
 243 0008 0840     		ands	r0, r1
 244              	.LVL12:
 245 000a 1843     		orrs	r0, r3
 246              	.LVL13:
 288:Generated_Source\PSoC4/EZI2C.c **** }
 247              		.loc 1 288 0
 248 000c 1060     		str	r0, [r2]
 289:Generated_Source\PSoC4/EZI2C.c **** 
 249              		.loc 1 289 0
 250              		@ sp needed
 251 000e 7047     		bx	lr
 252              	.L16:
 253              		.align	2
 254              	.L15:
 255 0010 04030940 		.word	1074332420
 256              		.cfi_endproc
 257              	.LFE5:
ARM GAS  C:\Users\CHUNGN~1\AppData\Local\Temp\ccsEfZNk.s 			page 14


 258              		.size	EZI2C_SetRxFifoLevel, .-EZI2C_SetRxFifoLevel
 259              		.section	.text.EZI2C_SetTxFifoLevel,"ax",%progbits
 260              		.align	2
 261              		.global	EZI2C_SetTxFifoLevel
 262              		.code	16
 263              		.thumb_func
 264              		.type	EZI2C_SetTxFifoLevel, %function
 265              	EZI2C_SetTxFifoLevel:
 266              	.LFB6:
 305:Generated_Source\PSoC4/EZI2C.c ****     uint32 txFifoCtrl;
 267              		.loc 1 305 0
 268              		.cfi_startproc
 269              		@ args = 0, pretend = 0, frame = 0
 270              		@ frame_needed = 0, uses_anonymous_args = 0
 271              		@ link register save eliminated.
 272              	.LVL14:
 308:Generated_Source\PSoC4/EZI2C.c **** 
 273              		.loc 1 308 0
 274 0000 034A     		ldr	r2, .L18
 275 0002 1368     		ldr	r3, [r2]
 276              	.LVL15:
 310:Generated_Source\PSoC4/EZI2C.c ****     txFifoCtrl |= ((uint32) (EZI2C_TX_FIFO_CTRL_TRIGGER_LEVEL_MASK & level));
 277              		.loc 1 310 0
 278 0004 0F21     		movs	r1, #15
 279 0006 8B43     		bics	r3, r1
 280              	.LVL16:
 311:Generated_Source\PSoC4/EZI2C.c **** 
 281              		.loc 1 311 0
 282 0008 0840     		ands	r0, r1
 283              	.LVL17:
 284 000a 1843     		orrs	r0, r3
 285              	.LVL18:
 313:Generated_Source\PSoC4/EZI2C.c **** }
 286              		.loc 1 313 0
 287 000c 1060     		str	r0, [r2]
 314:Generated_Source\PSoC4/EZI2C.c **** 
 288              		.loc 1 314 0
 289              		@ sp needed
 290 000e 7047     		bx	lr
 291              	.L19:
 292              		.align	2
 293              	.L18:
 294 0010 04020940 		.word	1074332164
 295              		.cfi_endproc
 296              	.LFE6:
 297              		.size	EZI2C_SetTxFifoLevel, .-EZI2C_SetTxFifoLevel
 298              		.section	.text.EZI2C_SetCustomInterruptHandler,"ax",%progbits
 299              		.align	2
 300              		.global	EZI2C_SetCustomInterruptHandler
 301              		.code	16
 302              		.thumb_func
 303              		.type	EZI2C_SetCustomInterruptHandler, %function
 304              	EZI2C_SetCustomInterruptHandler:
 305              	.LFB7:
 336:Generated_Source\PSoC4/EZI2C.c ****     #if !defined (CY_REMOVE_EZI2C_CUSTOM_INTR_HANDLER)
 306              		.loc 1 336 0
 307              		.cfi_startproc
ARM GAS  C:\Users\CHUNGN~1\AppData\Local\Temp\ccsEfZNk.s 			page 15


 308              		@ args = 0, pretend = 0, frame = 0
 309              		@ frame_needed = 0, uses_anonymous_args = 0
 310              		@ link register save eliminated.
 311              	.LVL19:
 338:Generated_Source\PSoC4/EZI2C.c ****     #else
 312              		.loc 1 338 0
 313 0000 014B     		ldr	r3, .L21
 314 0002 5860     		str	r0, [r3, #4]
 345:Generated_Source\PSoC4/EZI2C.c **** #endif /* (EZI2C_SCB_IRQ_INTERNAL) */
 315              		.loc 1 345 0
 316              		@ sp needed
 317 0004 7047     		bx	lr
 318              	.L22:
 319 0006 C046     		.align	2
 320              	.L21:
 321 0008 00000000 		.word	.LANCHOR0
 322              		.cfi_endproc
 323              	.LFE7:
 324              		.size	EZI2C_SetCustomInterruptHandler, .-EZI2C_SetCustomInterruptHandler
 325              		.global	EZI2C_customIntrHandler
 326              		.global	EZI2C_initVar
 327              		.bss
 328              		.align	2
 329              		.set	.LANCHOR0,. + 0
 330              		.type	EZI2C_initVar, %object
 331              		.size	EZI2C_initVar, 1
 332              	EZI2C_initVar:
 333 0000 00       		.space	1
 334 0001 000000   		.space	3
 335              		.type	EZI2C_customIntrHandler, %object
 336              		.size	EZI2C_customIntrHandler, 4
 337              	EZI2C_customIntrHandler:
 338 0004 00000000 		.space	4
 339              		.text
 340              	.Letext0:
 341              		.file 2 "Generated_Source\\PSoC4/cytypes.h"
 342              		.file 3 "Generated_Source\\PSoC4/CyLib.h"
 343              		.file 4 "Generated_Source\\PSoC4\\EZI2C_EZI2C_PVT.h"
 344              		.section	.debug_info,"",%progbits
 345              	.Ldebug_info0:
 346 0000 94020000 		.4byte	0x294
 347 0004 0400     		.2byte	0x4
 348 0006 00000000 		.4byte	.Ldebug_abbrev0
 349 000a 04       		.byte	0x4
 350 000b 01       		.uleb128 0x1
 351 000c 49020000 		.4byte	.LASF37
 352 0010 0C       		.byte	0xc
 353 0011 E7020000 		.4byte	.LASF38
 354 0015 75010000 		.4byte	.LASF39
 355 0019 00000000 		.4byte	.Ldebug_ranges0+0
 356 001d 00000000 		.4byte	0
 357 0021 00000000 		.4byte	.Ldebug_line0
 358 0025 02       		.uleb128 0x2
 359 0026 01       		.byte	0x1
 360 0027 06       		.byte	0x6
 361 0028 DB020000 		.4byte	.LASF0
 362 002c 02       		.uleb128 0x2
ARM GAS  C:\Users\CHUNGN~1\AppData\Local\Temp\ccsEfZNk.s 			page 16


 363 002d 01       		.byte	0x1
 364 002e 08       		.byte	0x8
 365 002f A1000000 		.4byte	.LASF1
 366 0033 02       		.uleb128 0x2
 367 0034 02       		.byte	0x2
 368 0035 05       		.byte	0x5
 369 0036 F3010000 		.4byte	.LASF2
 370 003a 02       		.uleb128 0x2
 371 003b 02       		.byte	0x2
 372 003c 07       		.byte	0x7
 373 003d 63000000 		.4byte	.LASF3
 374 0041 02       		.uleb128 0x2
 375 0042 04       		.byte	0x4
 376 0043 05       		.byte	0x5
 377 0044 26020000 		.4byte	.LASF4
 378 0048 02       		.uleb128 0x2
 379 0049 04       		.byte	0x4
 380 004a 07       		.byte	0x7
 381 004b AF000000 		.4byte	.LASF5
 382 004f 02       		.uleb128 0x2
 383 0050 08       		.byte	0x8
 384 0051 05       		.byte	0x5
 385 0052 62010000 		.4byte	.LASF6
 386 0056 02       		.uleb128 0x2
 387 0057 08       		.byte	0x8
 388 0058 07       		.byte	0x7
 389 0059 1B010000 		.4byte	.LASF7
 390 005d 03       		.uleb128 0x3
 391 005e 04       		.byte	0x4
 392 005f 05       		.byte	0x5
 393 0060 696E7400 		.ascii	"int\000"
 394 0064 02       		.uleb128 0x2
 395 0065 04       		.byte	0x4
 396 0066 07       		.byte	0x7
 397 0067 0E010000 		.4byte	.LASF8
 398 006b 04       		.uleb128 0x4
 399 006c C1000000 		.4byte	.LASF9
 400 0070 02       		.byte	0x2
 401 0071 D201     		.2byte	0x1d2
 402 0073 2C000000 		.4byte	0x2c
 403 0077 04       		.uleb128 0x4
 404 0078 07010000 		.4byte	.LASF10
 405 007c 02       		.byte	0x2
 406 007d D401     		.2byte	0x1d4
 407 007f 48000000 		.4byte	0x48
 408 0083 02       		.uleb128 0x2
 409 0084 04       		.byte	0x4
 410 0085 04       		.byte	0x4
 411 0086 9B000000 		.4byte	.LASF11
 412 008a 02       		.uleb128 0x2
 413 008b 08       		.byte	0x8
 414 008c 04       		.byte	0x4
 415 008d EF000000 		.4byte	.LASF12
 416 0091 02       		.uleb128 0x2
 417 0092 01       		.byte	0x1
 418 0093 08       		.byte	0x8
 419 0094 70010000 		.4byte	.LASF13
ARM GAS  C:\Users\CHUNGN~1\AppData\Local\Temp\ccsEfZNk.s 			page 17


 420 0098 04       		.uleb128 0x4
 421 0099 00000000 		.4byte	.LASF14
 422 009d 02       		.byte	0x2
 423 009e 7E02     		.2byte	0x27e
 424 00a0 A4000000 		.4byte	0xa4
 425 00a4 05       		.uleb128 0x5
 426 00a5 77000000 		.4byte	0x77
 427 00a9 06       		.uleb128 0x6
 428 00aa 04       		.byte	0x4
 429 00ab AF000000 		.4byte	0xaf
 430 00af 07       		.uleb128 0x7
 431 00b0 02       		.uleb128 0x2
 432 00b1 08       		.byte	0x8
 433 00b2 04       		.byte	0x4
 434 00b3 3D020000 		.4byte	.LASF15
 435 00b7 02       		.uleb128 0x2
 436 00b8 04       		.byte	0x4
 437 00b9 07       		.byte	0x7
 438 00ba 59010000 		.4byte	.LASF16
 439 00be 08       		.uleb128 0x8
 440 00bf 11000000 		.4byte	.LASF17
 441 00c3 01       		.byte	0x1
 442 00c4 6401     		.2byte	0x164
 443 00c6 00000000 		.4byte	.LFB8
 444 00ca 0A000000 		.4byte	.LFE8-.LFB8
 445 00ce 01       		.uleb128 0x1
 446 00cf 9C       		.byte	0x9c
 447 00d0 E4000000 		.4byte	0xe4
 448 00d4 09       		.uleb128 0x9
 449 00d5 08000000 		.4byte	.LVL0
 450 00d9 60020000 		.4byte	0x260
 451 00dd 0A       		.uleb128 0xa
 452 00de 01       		.uleb128 0x1
 453 00df 50       		.byte	0x50
 454 00e0 01       		.uleb128 0x1
 455 00e1 38       		.byte	0x38
 456 00e2 00       		.byte	0
 457 00e3 00       		.byte	0
 458 00e4 08       		.uleb128 0x8
 459 00e5 09020000 		.4byte	.LASF18
 460 00e9 01       		.byte	0x1
 461 00ea A201     		.2byte	0x1a2
 462 00ec 00000000 		.4byte	.LFB10
 463 00f0 08000000 		.4byte	.LFE10-.LFB10
 464 00f4 01       		.uleb128 0x1
 465 00f5 9C       		.byte	0x9c
 466 00f6 04010000 		.4byte	0x104
 467 00fa 0B       		.uleb128 0xb
 468 00fb 06000000 		.4byte	.LVL1
 469 00ff 6B020000 		.4byte	0x26b
 470 0103 00       		.byte	0
 471 0104 0C       		.uleb128 0xc
 472 0105 DB010000 		.4byte	.LASF19
 473 0109 01       		.byte	0x1
 474 010a 7B       		.byte	0x7b
 475 010b 00000000 		.4byte	.LFB1
 476 010f 08000000 		.4byte	.LFE1-.LFB1
ARM GAS  C:\Users\CHUNGN~1\AppData\Local\Temp\ccsEfZNk.s 			page 18


 477 0113 01       		.uleb128 0x1
 478 0114 9C       		.byte	0x9c
 479 0115 23010000 		.4byte	0x123
 480 0119 0B       		.uleb128 0xb
 481 011a 06000000 		.4byte	.LVL2
 482 011e 76020000 		.4byte	0x276
 483 0122 00       		.byte	0
 484 0123 0C       		.uleb128 0xc
 485 0124 2B000000 		.4byte	.LASF20
 486 0128 01       		.byte	0x1
 487 0129 AB       		.byte	0xab
 488 012a 00000000 		.4byte	.LFB2
 489 012e 18000000 		.4byte	.LFE2-.LFB2
 490 0132 01       		.uleb128 0x1
 491 0133 9C       		.byte	0x9c
 492 0134 42010000 		.4byte	0x142
 493 0138 0B       		.uleb128 0xb
 494 0139 12000000 		.4byte	.LVL3
 495 013d BE000000 		.4byte	0xbe
 496 0141 00       		.byte	0
 497 0142 0C       		.uleb128 0xc
 498 0143 FD010000 		.4byte	.LASF21
 499 0147 01       		.byte	0x1
 500 0148 D2       		.byte	0xd2
 501 0149 00000000 		.4byte	.LFB3
 502 014d 20000000 		.4byte	.LFE3-.LFB3
 503 0151 01       		.uleb128 0x1
 504 0152 9C       		.byte	0x9c
 505 0153 6A010000 		.4byte	0x16a
 506 0157 0B       		.uleb128 0xb
 507 0158 0E000000 		.4byte	.LVL4
 508 015c 04010000 		.4byte	0x104
 509 0160 0B       		.uleb128 0xb
 510 0161 18000000 		.4byte	.LVL5
 511 0165 23010000 		.4byte	0x123
 512 0169 00       		.byte	0
 513 016a 0C       		.uleb128 0xc
 514 016b 38000000 		.4byte	.LASF22
 515 016f 01       		.byte	0x1
 516 0170 EF       		.byte	0xef
 517 0171 00000000 		.4byte	.LFB4
 518 0175 2C000000 		.4byte	.LFE4-.LFB4
 519 0179 01       		.uleb128 0x1
 520 017a 9C       		.byte	0x9c
 521 017b AB010000 		.4byte	0x1ab
 522 017f 0D       		.uleb128 0xd
 523 0180 08000000 		.4byte	.LVL6
 524 0184 81020000 		.4byte	0x281
 525 0188 92010000 		.4byte	0x192
 526 018c 0A       		.uleb128 0xa
 527 018d 01       		.uleb128 0x1
 528 018e 50       		.byte	0x50
 529 018f 01       		.uleb128 0x1
 530 0190 38       		.byte	0x38
 531 0191 00       		.byte	0
 532 0192 0B       		.uleb128 0xb
 533 0193 0C000000 		.4byte	.LVL7
ARM GAS  C:\Users\CHUNGN~1\AppData\Local\Temp\ccsEfZNk.s 			page 19


 534 0197 E4000000 		.4byte	0xe4
 535 019b 09       		.uleb128 0x9
 536 019c 22000000 		.4byte	.LVL8
 537 01a0 8C020000 		.4byte	0x28c
 538 01a4 0A       		.uleb128 0xa
 539 01a5 01       		.uleb128 0x1
 540 01a6 50       		.byte	0x50
 541 01a7 01       		.uleb128 0x1
 542 01a8 38       		.byte	0x38
 543 01a9 00       		.byte	0
 544 01aa 00       		.byte	0
 545 01ab 0E       		.uleb128 0xe
 546 01ac 86000000 		.4byte	.LASF23
 547 01b0 01       		.byte	0x1
 548 01b1 1701     		.2byte	0x117
 549 01b3 00000000 		.4byte	.LFB5
 550 01b7 14000000 		.4byte	.LFE5-.LFB5
 551 01bb 01       		.uleb128 0x1
 552 01bc 9C       		.byte	0x9c
 553 01bd E2010000 		.4byte	0x1e2
 554 01c1 0F       		.uleb128 0xf
 555 01c2 25000000 		.4byte	.LASF25
 556 01c6 01       		.byte	0x1
 557 01c7 1701     		.2byte	0x117
 558 01c9 77000000 		.4byte	0x77
 559 01cd 00000000 		.4byte	.LLST0
 560 01d1 10       		.uleb128 0x10
 561 01d2 1B020000 		.4byte	.LASF26
 562 01d6 01       		.byte	0x1
 563 01d7 1901     		.2byte	0x119
 564 01d9 77000000 		.4byte	0x77
 565 01dd 21000000 		.4byte	.LLST1
 566 01e1 00       		.byte	0
 567 01e2 0E       		.uleb128 0xe
 568 01e3 32010000 		.4byte	.LASF24
 569 01e7 01       		.byte	0x1
 570 01e8 3001     		.2byte	0x130
 571 01ea 00000000 		.4byte	.LFB6
 572 01ee 14000000 		.4byte	.LFE6-.LFB6
 573 01f2 01       		.uleb128 0x1
 574 01f3 9C       		.byte	0x9c
 575 01f4 19020000 		.4byte	0x219
 576 01f8 0F       		.uleb128 0xf
 577 01f9 25000000 		.4byte	.LASF25
 578 01fd 01       		.byte	0x1
 579 01fe 3001     		.2byte	0x130
 580 0200 77000000 		.4byte	0x77
 581 0204 3F000000 		.4byte	.LLST2
 582 0208 10       		.uleb128 0x10
 583 0209 06000000 		.4byte	.LASF27
 584 020d 01       		.byte	0x1
 585 020e 3201     		.2byte	0x132
 586 0210 77000000 		.4byte	0x77
 587 0214 60000000 		.4byte	.LLST3
 588 0218 00       		.byte	0
 589 0219 0E       		.uleb128 0xe
 590 021a 43000000 		.4byte	.LASF28
ARM GAS  C:\Users\CHUNGN~1\AppData\Local\Temp\ccsEfZNk.s 			page 20


 591 021e 01       		.byte	0x1
 592 021f 4F01     		.2byte	0x14f
 593 0221 00000000 		.4byte	.LFB7
 594 0225 0C000000 		.4byte	.LFE7-.LFB7
 595 0229 01       		.uleb128 0x1
 596 022a 9C       		.byte	0x9c
 597 022b 3E020000 		.4byte	0x23e
 598 022f 11       		.uleb128 0x11
 599 0230 F6000000 		.4byte	.LASF29
 600 0234 01       		.byte	0x1
 601 0235 4F01     		.2byte	0x14f
 602 0237 A9000000 		.4byte	0xa9
 603 023b 01       		.uleb128 0x1
 604 023c 50       		.byte	0x50
 605 023d 00       		.byte	0
 606 023e 12       		.uleb128 0x12
 607 023f 2F020000 		.4byte	.LASF30
 608 0243 01       		.byte	0x1
 609 0244 51       		.byte	0x51
 610 0245 6B000000 		.4byte	0x6b
 611 0249 05       		.uleb128 0x5
 612 024a 03       		.byte	0x3
 613 024b 00000000 		.4byte	EZI2C_initVar
 614 024f 12       		.uleb128 0x12
 615 0250 C7000000 		.4byte	.LASF31
 616 0254 01       		.byte	0x1
 617 0255 61       		.byte	0x61
 618 0256 A9000000 		.4byte	0xa9
 619 025a 05       		.uleb128 0x5
 620 025b 03       		.byte	0x3
 621 025c 00000000 		.4byte	EZI2C_customIntrHandler
 622 0260 13       		.uleb128 0x13
 623 0261 FB000000 		.4byte	.LASF32
 624 0265 FB000000 		.4byte	.LASF32
 625 0269 03       		.byte	0x3
 626 026a C3       		.byte	0xc3
 627 026b 13       		.uleb128 0x13
 628 026c DF000000 		.4byte	.LASF33
 629 0270 DF000000 		.4byte	.LASF33
 630 0274 04       		.byte	0x4
 631 0275 3D       		.byte	0x3d
 632 0276 13       		.uleb128 0x13
 633 0277 76000000 		.4byte	.LASF34
 634 027b 76000000 		.4byte	.LASF34
 635 027f 04       		.byte	0x4
 636 0280 3A       		.byte	0x3a
 637 0281 13       		.uleb128 0x13
 638 0282 E6010000 		.4byte	.LASF35
 639 0286 E6010000 		.4byte	.LASF35
 640 028a 03       		.byte	0x3
 641 028b C5       		.byte	0xc5
 642 028c 13       		.uleb128 0x13
 643 028d 47010000 		.4byte	.LASF36
 644 0291 47010000 		.4byte	.LASF36
 645 0295 03       		.byte	0x3
 646 0296 C8       		.byte	0xc8
 647 0297 00       		.byte	0
ARM GAS  C:\Users\CHUNGN~1\AppData\Local\Temp\ccsEfZNk.s 			page 21


 648              		.section	.debug_abbrev,"",%progbits
 649              	.Ldebug_abbrev0:
 650 0000 01       		.uleb128 0x1
 651 0001 11       		.uleb128 0x11
 652 0002 01       		.byte	0x1
 653 0003 25       		.uleb128 0x25
 654 0004 0E       		.uleb128 0xe
 655 0005 13       		.uleb128 0x13
 656 0006 0B       		.uleb128 0xb
 657 0007 03       		.uleb128 0x3
 658 0008 0E       		.uleb128 0xe
 659 0009 1B       		.uleb128 0x1b
 660 000a 0E       		.uleb128 0xe
 661 000b 55       		.uleb128 0x55
 662 000c 17       		.uleb128 0x17
 663 000d 11       		.uleb128 0x11
 664 000e 01       		.uleb128 0x1
 665 000f 10       		.uleb128 0x10
 666 0010 17       		.uleb128 0x17
 667 0011 00       		.byte	0
 668 0012 00       		.byte	0
 669 0013 02       		.uleb128 0x2
 670 0014 24       		.uleb128 0x24
 671 0015 00       		.byte	0
 672 0016 0B       		.uleb128 0xb
 673 0017 0B       		.uleb128 0xb
 674 0018 3E       		.uleb128 0x3e
 675 0019 0B       		.uleb128 0xb
 676 001a 03       		.uleb128 0x3
 677 001b 0E       		.uleb128 0xe
 678 001c 00       		.byte	0
 679 001d 00       		.byte	0
 680 001e 03       		.uleb128 0x3
 681 001f 24       		.uleb128 0x24
 682 0020 00       		.byte	0
 683 0021 0B       		.uleb128 0xb
 684 0022 0B       		.uleb128 0xb
 685 0023 3E       		.uleb128 0x3e
 686 0024 0B       		.uleb128 0xb
 687 0025 03       		.uleb128 0x3
 688 0026 08       		.uleb128 0x8
 689 0027 00       		.byte	0
 690 0028 00       		.byte	0
 691 0029 04       		.uleb128 0x4
 692 002a 16       		.uleb128 0x16
 693 002b 00       		.byte	0
 694 002c 03       		.uleb128 0x3
 695 002d 0E       		.uleb128 0xe
 696 002e 3A       		.uleb128 0x3a
 697 002f 0B       		.uleb128 0xb
 698 0030 3B       		.uleb128 0x3b
 699 0031 05       		.uleb128 0x5
 700 0032 49       		.uleb128 0x49
 701 0033 13       		.uleb128 0x13
 702 0034 00       		.byte	0
 703 0035 00       		.byte	0
 704 0036 05       		.uleb128 0x5
ARM GAS  C:\Users\CHUNGN~1\AppData\Local\Temp\ccsEfZNk.s 			page 22


 705 0037 35       		.uleb128 0x35
 706 0038 00       		.byte	0
 707 0039 49       		.uleb128 0x49
 708 003a 13       		.uleb128 0x13
 709 003b 00       		.byte	0
 710 003c 00       		.byte	0
 711 003d 06       		.uleb128 0x6
 712 003e 0F       		.uleb128 0xf
 713 003f 00       		.byte	0
 714 0040 0B       		.uleb128 0xb
 715 0041 0B       		.uleb128 0xb
 716 0042 49       		.uleb128 0x49
 717 0043 13       		.uleb128 0x13
 718 0044 00       		.byte	0
 719 0045 00       		.byte	0
 720 0046 07       		.uleb128 0x7
 721 0047 15       		.uleb128 0x15
 722 0048 00       		.byte	0
 723 0049 27       		.uleb128 0x27
 724 004a 19       		.uleb128 0x19
 725 004b 00       		.byte	0
 726 004c 00       		.byte	0
 727 004d 08       		.uleb128 0x8
 728 004e 2E       		.uleb128 0x2e
 729 004f 01       		.byte	0x1
 730 0050 03       		.uleb128 0x3
 731 0051 0E       		.uleb128 0xe
 732 0052 3A       		.uleb128 0x3a
 733 0053 0B       		.uleb128 0xb
 734 0054 3B       		.uleb128 0x3b
 735 0055 05       		.uleb128 0x5
 736 0056 27       		.uleb128 0x27
 737 0057 19       		.uleb128 0x19
 738 0058 11       		.uleb128 0x11
 739 0059 01       		.uleb128 0x1
 740 005a 12       		.uleb128 0x12
 741 005b 06       		.uleb128 0x6
 742 005c 40       		.uleb128 0x40
 743 005d 18       		.uleb128 0x18
 744 005e 9742     		.uleb128 0x2117
 745 0060 19       		.uleb128 0x19
 746 0061 01       		.uleb128 0x1
 747 0062 13       		.uleb128 0x13
 748 0063 00       		.byte	0
 749 0064 00       		.byte	0
 750 0065 09       		.uleb128 0x9
 751 0066 898201   		.uleb128 0x4109
 752 0069 01       		.byte	0x1
 753 006a 11       		.uleb128 0x11
 754 006b 01       		.uleb128 0x1
 755 006c 31       		.uleb128 0x31
 756 006d 13       		.uleb128 0x13
 757 006e 00       		.byte	0
 758 006f 00       		.byte	0
 759 0070 0A       		.uleb128 0xa
 760 0071 8A8201   		.uleb128 0x410a
 761 0074 00       		.byte	0
ARM GAS  C:\Users\CHUNGN~1\AppData\Local\Temp\ccsEfZNk.s 			page 23


 762 0075 02       		.uleb128 0x2
 763 0076 18       		.uleb128 0x18
 764 0077 9142     		.uleb128 0x2111
 765 0079 18       		.uleb128 0x18
 766 007a 00       		.byte	0
 767 007b 00       		.byte	0
 768 007c 0B       		.uleb128 0xb
 769 007d 898201   		.uleb128 0x4109
 770 0080 00       		.byte	0
 771 0081 11       		.uleb128 0x11
 772 0082 01       		.uleb128 0x1
 773 0083 31       		.uleb128 0x31
 774 0084 13       		.uleb128 0x13
 775 0085 00       		.byte	0
 776 0086 00       		.byte	0
 777 0087 0C       		.uleb128 0xc
 778 0088 2E       		.uleb128 0x2e
 779 0089 01       		.byte	0x1
 780 008a 3F       		.uleb128 0x3f
 781 008b 19       		.uleb128 0x19
 782 008c 03       		.uleb128 0x3
 783 008d 0E       		.uleb128 0xe
 784 008e 3A       		.uleb128 0x3a
 785 008f 0B       		.uleb128 0xb
 786 0090 3B       		.uleb128 0x3b
 787 0091 0B       		.uleb128 0xb
 788 0092 27       		.uleb128 0x27
 789 0093 19       		.uleb128 0x19
 790 0094 11       		.uleb128 0x11
 791 0095 01       		.uleb128 0x1
 792 0096 12       		.uleb128 0x12
 793 0097 06       		.uleb128 0x6
 794 0098 40       		.uleb128 0x40
 795 0099 18       		.uleb128 0x18
 796 009a 9742     		.uleb128 0x2117
 797 009c 19       		.uleb128 0x19
 798 009d 01       		.uleb128 0x1
 799 009e 13       		.uleb128 0x13
 800 009f 00       		.byte	0
 801 00a0 00       		.byte	0
 802 00a1 0D       		.uleb128 0xd
 803 00a2 898201   		.uleb128 0x4109
 804 00a5 01       		.byte	0x1
 805 00a6 11       		.uleb128 0x11
 806 00a7 01       		.uleb128 0x1
 807 00a8 31       		.uleb128 0x31
 808 00a9 13       		.uleb128 0x13
 809 00aa 01       		.uleb128 0x1
 810 00ab 13       		.uleb128 0x13
 811 00ac 00       		.byte	0
 812 00ad 00       		.byte	0
 813 00ae 0E       		.uleb128 0xe
 814 00af 2E       		.uleb128 0x2e
 815 00b0 01       		.byte	0x1
 816 00b1 3F       		.uleb128 0x3f
 817 00b2 19       		.uleb128 0x19
 818 00b3 03       		.uleb128 0x3
ARM GAS  C:\Users\CHUNGN~1\AppData\Local\Temp\ccsEfZNk.s 			page 24


 819 00b4 0E       		.uleb128 0xe
 820 00b5 3A       		.uleb128 0x3a
 821 00b6 0B       		.uleb128 0xb
 822 00b7 3B       		.uleb128 0x3b
 823 00b8 05       		.uleb128 0x5
 824 00b9 27       		.uleb128 0x27
 825 00ba 19       		.uleb128 0x19
 826 00bb 11       		.uleb128 0x11
 827 00bc 01       		.uleb128 0x1
 828 00bd 12       		.uleb128 0x12
 829 00be 06       		.uleb128 0x6
 830 00bf 40       		.uleb128 0x40
 831 00c0 18       		.uleb128 0x18
 832 00c1 9742     		.uleb128 0x2117
 833 00c3 19       		.uleb128 0x19
 834 00c4 01       		.uleb128 0x1
 835 00c5 13       		.uleb128 0x13
 836 00c6 00       		.byte	0
 837 00c7 00       		.byte	0
 838 00c8 0F       		.uleb128 0xf
 839 00c9 05       		.uleb128 0x5
 840 00ca 00       		.byte	0
 841 00cb 03       		.uleb128 0x3
 842 00cc 0E       		.uleb128 0xe
 843 00cd 3A       		.uleb128 0x3a
 844 00ce 0B       		.uleb128 0xb
 845 00cf 3B       		.uleb128 0x3b
 846 00d0 05       		.uleb128 0x5
 847 00d1 49       		.uleb128 0x49
 848 00d2 13       		.uleb128 0x13
 849 00d3 02       		.uleb128 0x2
 850 00d4 17       		.uleb128 0x17
 851 00d5 00       		.byte	0
 852 00d6 00       		.byte	0
 853 00d7 10       		.uleb128 0x10
 854 00d8 34       		.uleb128 0x34
 855 00d9 00       		.byte	0
 856 00da 03       		.uleb128 0x3
 857 00db 0E       		.uleb128 0xe
 858 00dc 3A       		.uleb128 0x3a
 859 00dd 0B       		.uleb128 0xb
 860 00de 3B       		.uleb128 0x3b
 861 00df 05       		.uleb128 0x5
 862 00e0 49       		.uleb128 0x49
 863 00e1 13       		.uleb128 0x13
 864 00e2 02       		.uleb128 0x2
 865 00e3 17       		.uleb128 0x17
 866 00e4 00       		.byte	0
 867 00e5 00       		.byte	0
 868 00e6 11       		.uleb128 0x11
 869 00e7 05       		.uleb128 0x5
 870 00e8 00       		.byte	0
 871 00e9 03       		.uleb128 0x3
 872 00ea 0E       		.uleb128 0xe
 873 00eb 3A       		.uleb128 0x3a
 874 00ec 0B       		.uleb128 0xb
 875 00ed 3B       		.uleb128 0x3b
ARM GAS  C:\Users\CHUNGN~1\AppData\Local\Temp\ccsEfZNk.s 			page 25


 876 00ee 05       		.uleb128 0x5
 877 00ef 49       		.uleb128 0x49
 878 00f0 13       		.uleb128 0x13
 879 00f1 02       		.uleb128 0x2
 880 00f2 18       		.uleb128 0x18
 881 00f3 00       		.byte	0
 882 00f4 00       		.byte	0
 883 00f5 12       		.uleb128 0x12
 884 00f6 34       		.uleb128 0x34
 885 00f7 00       		.byte	0
 886 00f8 03       		.uleb128 0x3
 887 00f9 0E       		.uleb128 0xe
 888 00fa 3A       		.uleb128 0x3a
 889 00fb 0B       		.uleb128 0xb
 890 00fc 3B       		.uleb128 0x3b
 891 00fd 0B       		.uleb128 0xb
 892 00fe 49       		.uleb128 0x49
 893 00ff 13       		.uleb128 0x13
 894 0100 3F       		.uleb128 0x3f
 895 0101 19       		.uleb128 0x19
 896 0102 02       		.uleb128 0x2
 897 0103 18       		.uleb128 0x18
 898 0104 00       		.byte	0
 899 0105 00       		.byte	0
 900 0106 13       		.uleb128 0x13
 901 0107 2E       		.uleb128 0x2e
 902 0108 00       		.byte	0
 903 0109 3F       		.uleb128 0x3f
 904 010a 19       		.uleb128 0x19
 905 010b 3C       		.uleb128 0x3c
 906 010c 19       		.uleb128 0x19
 907 010d 6E       		.uleb128 0x6e
 908 010e 0E       		.uleb128 0xe
 909 010f 03       		.uleb128 0x3
 910 0110 0E       		.uleb128 0xe
 911 0111 3A       		.uleb128 0x3a
 912 0112 0B       		.uleb128 0xb
 913 0113 3B       		.uleb128 0x3b
 914 0114 0B       		.uleb128 0xb
 915 0115 00       		.byte	0
 916 0116 00       		.byte	0
 917 0117 00       		.byte	0
 918              		.section	.debug_loc,"",%progbits
 919              	.Ldebug_loc0:
 920              	.LLST0:
 921 0000 00000000 		.4byte	.LVL9
 922 0004 0A000000 		.4byte	.LVL12
 923 0008 0100     		.2byte	0x1
 924 000a 50       		.byte	0x50
 925 000b 0A000000 		.4byte	.LVL12
 926 000f 14000000 		.4byte	.LFE5
 927 0013 0400     		.2byte	0x4
 928 0015 F3       		.byte	0xf3
 929 0016 01       		.uleb128 0x1
 930 0017 50       		.byte	0x50
 931 0018 9F       		.byte	0x9f
 932 0019 00000000 		.4byte	0
ARM GAS  C:\Users\CHUNGN~1\AppData\Local\Temp\ccsEfZNk.s 			page 26


 933 001d 00000000 		.4byte	0
 934              	.LLST1:
 935 0021 04000000 		.4byte	.LVL10
 936 0025 0C000000 		.4byte	.LVL13
 937 0029 0100     		.2byte	0x1
 938 002b 53       		.byte	0x53
 939 002c 0C000000 		.4byte	.LVL13
 940 0030 14000000 		.4byte	.LFE5
 941 0034 0100     		.2byte	0x1
 942 0036 50       		.byte	0x50
 943 0037 00000000 		.4byte	0
 944 003b 00000000 		.4byte	0
 945              	.LLST2:
 946 003f 00000000 		.4byte	.LVL14
 947 0043 0A000000 		.4byte	.LVL17
 948 0047 0100     		.2byte	0x1
 949 0049 50       		.byte	0x50
 950 004a 0A000000 		.4byte	.LVL17
 951 004e 14000000 		.4byte	.LFE6
 952 0052 0400     		.2byte	0x4
 953 0054 F3       		.byte	0xf3
 954 0055 01       		.uleb128 0x1
 955 0056 50       		.byte	0x50
 956 0057 9F       		.byte	0x9f
 957 0058 00000000 		.4byte	0
 958 005c 00000000 		.4byte	0
 959              	.LLST3:
 960 0060 04000000 		.4byte	.LVL15
 961 0064 0C000000 		.4byte	.LVL18
 962 0068 0100     		.2byte	0x1
 963 006a 53       		.byte	0x53
 964 006b 0C000000 		.4byte	.LVL18
 965 006f 14000000 		.4byte	.LFE6
 966 0073 0100     		.2byte	0x1
 967 0075 50       		.byte	0x50
 968 0076 00000000 		.4byte	0
 969 007a 00000000 		.4byte	0
 970              		.section	.debug_aranges,"",%progbits
 971 0000 5C000000 		.4byte	0x5c
 972 0004 0200     		.2byte	0x2
 973 0006 00000000 		.4byte	.Ldebug_info0
 974 000a 04       		.byte	0x4
 975 000b 00       		.byte	0
 976 000c 0000     		.2byte	0
 977 000e 0000     		.2byte	0
 978 0010 00000000 		.4byte	.LFB8
 979 0014 0A000000 		.4byte	.LFE8-.LFB8
 980 0018 00000000 		.4byte	.LFB10
 981 001c 08000000 		.4byte	.LFE10-.LFB10
 982 0020 00000000 		.4byte	.LFB1
 983 0024 08000000 		.4byte	.LFE1-.LFB1
 984 0028 00000000 		.4byte	.LFB2
 985 002c 18000000 		.4byte	.LFE2-.LFB2
 986 0030 00000000 		.4byte	.LFB3
 987 0034 20000000 		.4byte	.LFE3-.LFB3
 988 0038 00000000 		.4byte	.LFB4
 989 003c 2C000000 		.4byte	.LFE4-.LFB4
ARM GAS  C:\Users\CHUNGN~1\AppData\Local\Temp\ccsEfZNk.s 			page 27


 990 0040 00000000 		.4byte	.LFB5
 991 0044 14000000 		.4byte	.LFE5-.LFB5
 992 0048 00000000 		.4byte	.LFB6
 993 004c 14000000 		.4byte	.LFE6-.LFB6
 994 0050 00000000 		.4byte	.LFB7
 995 0054 0C000000 		.4byte	.LFE7-.LFB7
 996 0058 00000000 		.4byte	0
 997 005c 00000000 		.4byte	0
 998              		.section	.debug_ranges,"",%progbits
 999              	.Ldebug_ranges0:
 1000 0000 00000000 		.4byte	.LFB8
 1001 0004 0A000000 		.4byte	.LFE8
 1002 0008 00000000 		.4byte	.LFB10
 1003 000c 08000000 		.4byte	.LFE10
 1004 0010 00000000 		.4byte	.LFB1
 1005 0014 08000000 		.4byte	.LFE1
 1006 0018 00000000 		.4byte	.LFB2
 1007 001c 18000000 		.4byte	.LFE2
 1008 0020 00000000 		.4byte	.LFB3
 1009 0024 20000000 		.4byte	.LFE3
 1010 0028 00000000 		.4byte	.LFB4
 1011 002c 2C000000 		.4byte	.LFE4
 1012 0030 00000000 		.4byte	.LFB5
 1013 0034 14000000 		.4byte	.LFE5
 1014 0038 00000000 		.4byte	.LFB6
 1015 003c 14000000 		.4byte	.LFE6
 1016 0040 00000000 		.4byte	.LFB7
 1017 0044 0C000000 		.4byte	.LFE7
 1018 0048 00000000 		.4byte	0
 1019 004c 00000000 		.4byte	0
 1020              		.section	.debug_line,"",%progbits
 1021              	.Ldebug_line0:
 1022 0000 24010000 		.section	.debug_str,"MS",%progbits,1
 1022      02006200 
 1022      00000201 
 1022      FB0E0D00 
 1022      01010101 
 1023              	.LASF14:
 1024 0000 72656733 		.ascii	"reg32\000"
 1024      3200
 1025              	.LASF27:
 1026 0006 74784669 		.ascii	"txFifoCtrl\000"
 1026      666F4374 
 1026      726C00
 1027              	.LASF17:
 1028 0011 455A4932 		.ascii	"EZI2C_ScbEnableIntr\000"
 1028      435F5363 
 1028      62456E61 
 1028      626C6549 
 1028      6E747200 
 1029              	.LASF25:
 1030 0025 6C657665 		.ascii	"level\000"
 1030      6C00
 1031              	.LASF20:
 1032 002b 455A4932 		.ascii	"EZI2C_Enable\000"
 1032      435F456E 
 1032      61626C65 
ARM GAS  C:\Users\CHUNGN~1\AppData\Local\Temp\ccsEfZNk.s 			page 28


 1032      00
 1033              	.LASF22:
 1034 0038 455A4932 		.ascii	"EZI2C_Stop\000"
 1034      435F5374 
 1034      6F7000
 1035              	.LASF28:
 1036 0043 455A4932 		.ascii	"EZI2C_SetCustomInterruptHandler\000"
 1036      435F5365 
 1036      74437573 
 1036      746F6D49 
 1036      6E746572 
 1037              	.LASF3:
 1038 0063 73686F72 		.ascii	"short unsigned int\000"
 1038      7420756E 
 1038      7369676E 
 1038      65642069 
 1038      6E7400
 1039              	.LASF34:
 1040 0076 455A4932 		.ascii	"EZI2C_EzI2CInit\000"
 1040      435F457A 
 1040      49324349 
 1040      6E697400 
 1041              	.LASF23:
 1042 0086 455A4932 		.ascii	"EZI2C_SetRxFifoLevel\000"
 1042      435F5365 
 1042      74527846 
 1042      69666F4C 
 1042      6576656C 
 1043              	.LASF11:
 1044 009b 666C6F61 		.ascii	"float\000"
 1044      7400
 1045              	.LASF1:
 1046 00a1 756E7369 		.ascii	"unsigned char\000"
 1046      676E6564 
 1046      20636861 
 1046      7200
 1047              	.LASF5:
 1048 00af 6C6F6E67 		.ascii	"long unsigned int\000"
 1048      20756E73 
 1048      69676E65 
 1048      6420696E 
 1048      7400
 1049              	.LASF9:
 1050 00c1 75696E74 		.ascii	"uint8\000"
 1050      3800
 1051              	.LASF31:
 1052 00c7 455A4932 		.ascii	"EZI2C_customIntrHandler\000"
 1052      435F6375 
 1052      73746F6D 
 1052      496E7472 
 1052      48616E64 
 1053              	.LASF33:
 1054 00df 455A4932 		.ascii	"EZI2C_EzI2CStop\000"
 1054      435F457A 
 1054      49324353 
 1054      746F7000 
 1055              	.LASF12:
ARM GAS  C:\Users\CHUNGN~1\AppData\Local\Temp\ccsEfZNk.s 			page 29


 1056 00ef 646F7562 		.ascii	"double\000"
 1056      6C6500
 1057              	.LASF29:
 1058 00f6 66756E63 		.ascii	"func\000"
 1058      00
 1059              	.LASF32:
 1060 00fb 4379496E 		.ascii	"CyIntEnable\000"
 1060      74456E61 
 1060      626C6500 
 1061              	.LASF10:
 1062 0107 75696E74 		.ascii	"uint32\000"
 1062      333200
 1063              	.LASF8:
 1064 010e 756E7369 		.ascii	"unsigned int\000"
 1064      676E6564 
 1064      20696E74 
 1064      00
 1065              	.LASF7:
 1066 011b 6C6F6E67 		.ascii	"long long unsigned int\000"
 1066      206C6F6E 
 1066      6720756E 
 1066      7369676E 
 1066      65642069 
 1067              	.LASF24:
 1068 0132 455A4932 		.ascii	"EZI2C_SetTxFifoLevel\000"
 1068      435F5365 
 1068      74547846 
 1068      69666F4C 
 1068      6576656C 
 1069              	.LASF36:
 1070 0147 4379496E 		.ascii	"CyIntClearPending\000"
 1070      74436C65 
 1070      61725065 
 1070      6E64696E 
 1070      6700
 1071              	.LASF16:
 1072 0159 73697A65 		.ascii	"sizetype\000"
 1072      74797065 
 1072      00
 1073              	.LASF6:
 1074 0162 6C6F6E67 		.ascii	"long long int\000"
 1074      206C6F6E 
 1074      6720696E 
 1074      7400
 1075              	.LASF13:
 1076 0170 63686172 		.ascii	"char\000"
 1076      00
 1077              	.LASF39:
 1078 0175 453A5C5F 		.ascii	"E:\\_MAKIPOS\\Tecomen_Korio\\Cypress_workspace\\TEC"
 1078      4D414B49 
 1078      504F535C 
 1078      5465636F 
 1078      6D656E5F 
 1079 01a4 4F4D454E 		.ascii	"OMEN_KORIO\\CE210311_CapSense_P4_ADC_Sequential01.c"
 1079      5F4B4F52 
 1079      494F5C43 
 1079      45323130 
ARM GAS  C:\Users\CHUNGN~1\AppData\Local\Temp\ccsEfZNk.s 			page 30


 1079      3331315F 
 1080 01d6 7964736E 		.ascii	"ydsn\000"
 1080      00
 1081              	.LASF19:
 1082 01db 455A4932 		.ascii	"EZI2C_Init\000"
 1082      435F496E 
 1082      697400
 1083              	.LASF35:
 1084 01e6 4379496E 		.ascii	"CyIntDisable\000"
 1084      74446973 
 1084      61626C65 
 1084      00
 1085              	.LASF2:
 1086 01f3 73686F72 		.ascii	"short int\000"
 1086      7420696E 
 1086      7400
 1087              	.LASF21:
 1088 01fd 455A4932 		.ascii	"EZI2C_Start\000"
 1088      435F5374 
 1088      61727400 
 1089              	.LASF18:
 1090 0209 455A4932 		.ascii	"EZI2C_ScbModeStop\000"
 1090      435F5363 
 1090      624D6F64 
 1090      6553746F 
 1090      7000
 1091              	.LASF26:
 1092 021b 72784669 		.ascii	"rxFifoCtrl\000"
 1092      666F4374 
 1092      726C00
 1093              	.LASF4:
 1094 0226 6C6F6E67 		.ascii	"long int\000"
 1094      20696E74 
 1094      00
 1095              	.LASF30:
 1096 022f 455A4932 		.ascii	"EZI2C_initVar\000"
 1096      435F696E 
 1096      69745661 
 1096      7200
 1097              	.LASF15:
 1098 023d 6C6F6E67 		.ascii	"long double\000"
 1098      20646F75 
 1098      626C6500 
 1099              	.LASF37:
 1100 0249 474E5520 		.ascii	"GNU C11 5.4.1 20160609 (release) [ARM/embedded-5-br"
 1100      43313120 
 1100      352E342E 
 1100      31203230 
 1100      31363036 
 1101 027c 616E6368 		.ascii	"anch revision 237715] -mcpu=cortex-m0plus -mthumb -"
 1101      20726576 
 1101      6973696F 
 1101      6E203233 
 1101      37373135 
 1102 02af 67202D4F 		.ascii	"g -Og -ffunction-sections -ffat-lto-objects\000"
 1102      67202D66 
 1102      66756E63 
ARM GAS  C:\Users\CHUNGN~1\AppData\Local\Temp\ccsEfZNk.s 			page 31


 1102      74696F6E 
 1102      2D736563 
 1103              	.LASF0:
 1104 02db 7369676E 		.ascii	"signed char\000"
 1104      65642063 
 1104      68617200 
 1105              	.LASF38:
 1106 02e7 47656E65 		.ascii	"Generated_Source\\PSoC4\\EZI2C.c\000"
 1106      72617465 
 1106      645F536F 
 1106      75726365 
 1106      5C50536F 
 1107              		.ident	"GCC: (GNU Tools for ARM Embedded Processors) 5.4.1 20160609 (release) [ARM/embedded-5-bran
